{
    "_id": "J4YChuob7MIPT5Mq",
    "data": {
        "attributes": {
            "ac": {
                "value": 43
            },
            "hardness": 0,
            "hasHealth": true,
            "hp": {
                "details": "per junction",
                "max": 120,
                "temp": 0,
                "tempmax": 0,
                "value": 120
            },
            "stealth": {
                "details": "(expert)",
                "value": 33
            }
        },
        "creatureType": "",
        "details": {
            "description": "A wickedly sharp saw blade descends and travels along grooves in a complex path throughout the room, attempting to decapitate everyone within.",
            "disable": "Thievery DC 41 (expert) at four different junctions to jam all the saw blade's possible paths, preventing it from traveling through the room",
            "isComplex": false,
            "level": {
                "value": 19
            },
            "reset": "The trap resets over the course of the round and can be triggered again 1 round later.",
            "routine": ""
        },
        "saves": {
            "fortitude": {
                "saveDetail": "",
                "value": 32
            },
            "reflex": {
                "saveDetail": "",
                "value": 32
            },
            "will": {
                "saveDetail": "",
                "value": 0
            }
        },
        "source": {
            "value": "Pathfinder Core Rulebook"
        },
        "statusEffects": [],
        "traits": {
            "ci": [],
            "di": {
                "custom": "",
                "selected": {},
                "value": [
                    "critical-hits",
                    "object-immunities",
                    "precision"
                ]
            },
            "dr": [],
            "dv": [],
            "rarity": "common",
            "size": {
                "value": "med"
            },
            "traits": {
                "custom": "",
                "value": [
                    "mechanical"
                ]
            }
        }
    },
    "effects": [],
    "flags": {},
    "img": "systems/pf2e/icons/default-icons/hazard.svg",
    "items": [
        {
            "_id": "4QF1yNgj2FX7rO4C",
            "data": {
                "actionCategory": {
                    "value": ""
                },
                "actionType": {
                    "value": "reaction"
                },
                "actions": {
                    "value": null
                },
                "description": {
                    "value": "<p data-visibility=\"gm\"><strong>Trigger</strong> A creature attempts to exit the room.</p>\n<p><strong>Effect</strong> The saw blade travels along its path, making one Strike against each creature in the room, twisting and varying its height for a maximum chance of beheading its targets.</p>"
                },
                "requirements": {
                    "value": ""
                },
                "rules": [],
                "slug": null,
                "source": {
                    "value": ""
                },
                "traits": {
                    "custom": "",
                    "rarity": "common",
                    "value": [
                        "attack",
                        "death"
                    ]
                },
                "trigger": {
                    "value": ""
                },
                "weapon": {
                    "value": ""
                }
            },
            "effects": [],
            "flags": {},
            "img": "systems/pf2e/icons/actions/Reaction.webp",
            "name": "Total Decapitation",
            "sort": 100000,
            "type": "action"
        },
        {
            "_id": "T0k2Rnyz49qG1Gkv",
            "data": {
                "attack": {
                    "value": ""
                },
                "attackEffects": {
                    "value": []
                },
                "bonus": {
                    "value": 40
                },
                "damageRolls": {
                    "bl4p5gmnff8b2w33u1az": {
                        "damage": "6d12+25",
                        "damageType": "slashing"
                    }
                },
                "description": {
                    "value": "<p>No multiple attack penalty.</p>"
                },
                "rules": [],
                "slug": null,
                "source": {
                    "value": ""
                },
                "traits": {
                    "custom": "",
                    "rarity": "common",
                    "value": []
                },
                "weaponType": {
                    "value": "melee"
                }
            },
            "effects": [],
            "flags": {},
            "img": "systems/pf2e/icons/default-icons/melee.svg",
            "name": "Saw Blade",
            "sort": 200000,
            "type": "melee"
        },
        {
            "_id": "mPVesRXUMN4Ws9IR",
            "data": {
                "actionCategory": {
                    "value": ""
                },
                "actionType": {
                    "value": "passive"
                },
                "actions": {
                    "value": null
                },
                "description": {
                    "value": "<p>On a critical hit, a target must succeed at a <span data-pf2-check=\"fortitude\" data-pf2-dc=\"39\" data-pf2-traits=\"damaging-effect\" data-pf2-label=\"Decapitation DC\" data-pf2-show-dc=\"gm\">Fortitude</span> save or be decapitated, dying instantly unless it can survive without a head.</p>"
                },
                "requirements": {
                    "value": ""
                },
                "rules": [],
                "slug": null,
                "source": {
                    "value": ""
                },
                "traits": {
                    "custom": "",
                    "rarity": "common",
                    "value": []
                },
                "trigger": {
                    "value": ""
                },
                "weapon": {
                    "value": ""
                }
            },
            "effects": [],
            "flags": {},
            "img": "systems/pf2e/icons/actions/Passive.webp",
            "name": "Decapitation",
            "sort": 300000,
            "type": "action"
        }
    ],
    "name": "Vorpal Executioner",
    "token": {
        "disposition": 0,
        "height": 1,
        "img": "systems/pf2e/icons/default-icons/hazard.svg",
        "name": "Vorpal Executioner",
        "width": 1
    },
    "type": "hazard"
}
