{
    "_id": "MJ2EBeAVkc61mznR",
    "content": "<h1>Archer</h1>\n<p>Bows of all types are powerful weapons. Generals and hunters alike recognize the power in dealing death from long distances, and from behind cover. Those dedicated to the bow-from mysterious cloaked strangers to heartless snipers-are often viewed with a mixture of respect and fear. Like any weapon adept, the archer's skill is forged through experience and constant practice. A true archer becomes one with the bow and is able to accomplish with that weapon things that most would consider impossible, or at least nearly magical.</p>\n<p><strong>Additional Feats</strong> 4th @Compendium[pf2e.feats-srd.Assisting Shot]{Assisting Shot}, @Compendium[pf2e.feats-srd.Point-Blank Shot]{Point-Blank Shot}; 6th @Compendium[pf2e.feats-srd.Double Shot]{Double Shot}, Parting Shot, @Compendium[pf2e.feats-srd.Running Reload]{Running Reload}; 8th @Compendium[pf2e.feats-srd.Triple Shot]{Triple Shot}; 10th Mobile Shot Stance; 18th @Compendium[pf2e.feats-srd.Multishot Stance]{Multishot Stance}</p>\n<h2>@Compendium[pf2e.feats-srd.Archer Dedication]{Archer Dedication} Feat 2</h2>\n<p>You become trained in all simple and martial weapons in the bow weapon group. Whenever you gain a class feature that grants you expert or greater proficiency in certain weapons, you also gain that proficiency rank in all simple and martial weapons in the bow weapon group. If you are at least an expert in the bow you are using, you gain access to the critical specialization effect with that bow.</p>\n<p><strong>Special</strong> You can't select another dedication feat until you have gained two other feats from the archer archetype.</p>\n<h2>@Compendium[pf2e.feats-srd.Quick Shot]{Quick Shot} Feat 4</h2>\n<p><strong>Prerequisites</strong> Archer Dedication</p>\n<hr />\n<p>You draw your bow and attack with the same action. You Interact to draw a weapon from the bow weapon group that is loaded or has reload 0, then Strike with that weapon.</p>\n<h2>@Compendium[pf2e.feats-srd.Advanced Bow Training]{Advanced Bow Training} Feat 6</h2>\n<p><strong>Prerequisites</strong> Archer Dedication</p>\n<hr />\n<p>Through constant practice and the crucible of experience, you increase your skill with advanced bows. You gain proficiency with all advanced bows as if they were martial weapons in the bow weapon group.</p>\n<h2>@Compendium[pf2e.feats-srd.Crossbow Terror]{Crossbow Terror} Feat 6</h2>\n<p><strong>Prerequisites</strong> Archer Dedication</p>\n<hr />\n<p>You are a dynamo with the crossbow. You gain a +2 circumstance bonus to damage with crossbows. If the crossbow is a simple weapon, also increase the damage die size for your attacks made with that crossbow by one step. As normal, this damage die increase can't be combined with other abilities that alter the weapon damage die (such as the ranger feat Crossbow Ace).</p>\n<h2>@Compendium[pf2e.feats-srd.Archer's Aim]{Archer's Aim} Feat 8</h2>\n<p><strong>Prerequisites</strong> Archer Dedication</p>\n<hr />\n<p>You slow down, focus, and take a careful shot. Make a ranged Strike with a weapon in the bow weapon group. You gain a +2 circumstance bonus to the attack roll and ignore the target's concealed condition. If the target is hidden, reduce the flat check from being hidden from 11 to 5.</p>",
    "flags": {},
    "name": "Archer",
    "permission": {
        "default": 0
    }
}
