{
    "_id": "v44P3WUcU1j0115l",
    "data": {
        "active": true,
        "alsoApplies": {
            "linked": [],
            "unlinked": []
        },
        "base": "Helpful",
        "description": {
            "value": "<p>This condition reflects a creature's disposition toward a particular character, and only supernatural effects (like a spell) can impose this condition on a PC. A creature that is helpful to a character wishes to actively aid that character. It will accept reasonable @Compendium[pf2e.actionspf2e.Request]{Requests} from that character, as long as such requests aren't at the expense of the helpful creature's goals or quality of life. If the character or one of their allies uses a hostile action against the creature, the creature gains a worse attitude condition depending on the severity of the hostile action, as determined by the GM.</p>"
        },
        "duration": {
            "perpetual": true,
            "text": "",
            "value": 0
        },
        "group": "attitudes",
        "hud": {
            "img": {
                "useStatusName": true,
                "value": "systems/pf2e/icons/conditions-2/helpful.webp"
            },
            "selectable": true,
            "statusName": "helpful"
        },
        "modifiers": [],
        "overrides": [
            "Friendly",
            "Indifferent",
            "Unfriendly",
            "Hostile"
        ],
        "references": {
            "children": [],
            "immunityFrom": [],
            "overriddenBy": [],
            "overrides": []
        },
        "removable": true,
        "rules": [],
        "source": {
            "value": ""
        },
        "sources": {
            "hud": false
        },
        "traits": {
            "custom": "",
            "rarity": "common",
            "value": []
        },
        "value": {
            "immutable": false,
            "isValued": false,
            "modifiers": [],
            "value": null
        }
    },
    "effects": [],
    "flags": {
        "pf2e": {
            "condition": true
        }
    },
    "img": "systems/pf2e/icons/conditions/helpful.webp",
    "name": "Helpful",
    "type": "condition"
}
