{
    "_id": "6uEgoh53GbXuHpTF",
    "data": {
        "active": true,
        "alsoApplies": {
            "linked": [
                {
                    "condition": "Flat-Footed"
                }
            ],
            "unlinked": []
        },
        "base": "Paralyzed",
        "description": {
            "value": "<p>Your body is frozen in place. You have the @Compendium[pf2e.conditionitems.Flat-Footed]{Flat-Footed} condition and can't act except to @Compendium[pf2e.actionspf2e.Recall Knowledge (Lore)]{Recall Knowledge} and use actions that require only the use of your mind (as determined by the GM). Your senses still function, but only in the areas you can perceive without moving your body, so you can't @Compendium[pf2e.actionspf2e.Seek]{Seek} while paralyzed.</p>"
        },
        "duration": {
            "perpetual": true,
            "text": "",
            "value": 0
        },
        "group": "",
        "hud": {
            "img": {
                "useStatusName": true,
                "value": "systems/pf2e/icons/conditions-2/paralyzed.webp"
            },
            "selectable": true,
            "statusName": "paralyzed"
        },
        "modifiers": [],
        "overrides": [],
        "references": {
            "children": [],
            "immunityFrom": [],
            "overriddenBy": [],
            "overrides": []
        },
        "removable": true,
        "rules": [],
        "source": {
            "value": ""
        },
        "sources": {
            "hud": true
        },
        "traits": {
            "custom": "",
            "rarity": "common",
            "value": []
        },
        "value": {
            "immutable": false,
            "isValued": false,
            "modifiers": [],
            "value": null
        }
    },
    "effects": [],
    "flags": {
        "pf2e": {
            "condition": true
        }
    },
    "img": "systems/pf2e/icons/conditions/paralyzed.webp",
    "name": "Paralyzed",
    "type": "condition"
}
