{
    "_id": "652cIWAXc8zAxkac",
    "content": "<p>You have long considered this character your rival in a question of strength. You are determined to prove yourself to be mightier, perhaps by intelligent application of force if you aren't physically imposing.</p>\n<p>Add the @Compendium[pf2e.feats-srd.Hefty Hauler]{Hefty Hauler} skill feat to your background options.</p>",
    "flags": {},
    "name": "Matter of Might",
    "permission": {
        "default": 0
    }
}
