{
    "_id": "xvz5F7iYBWEIjz0r",
    "data": {
        "boosts": {
            "0": {
                "value": [
                    "cha",
                    "int"
                ]
            },
            "1": {
                "value": [
                    "cha",
                    "con",
                    "dex",
                    "int",
                    "str",
                    "wis"
                ]
            }
        },
        "description": {
            "value": "<p>You love few things more than a good book, and as a result, Odd Stories is your favorite shop in Otari. The bookseller Morlibint supplies you with fiction, anthologies, and other delightful reads, and he's always eager to discuss his latest finds with you. You know that imagination is the greatest magic, but a working knowledge of actual magic helps, too.</p>\n<p>Choose two ability boosts. One must be to <strong>Intelligence</strong> or <strong>Charisma</strong>, and one is a free ability boost.</p>\n<p>You're trained in the Arcana skill and the Library Lore skill. You gain the @Compendium[pf2e.feats-srd.Arcane Sense]{Arcane Sense} skill feat.</p>"
        },
        "items": {
            "wsxkp": {
                "id": "blMeVamjGz4ODWxq",
                "img": "systems/pf2e/icons/features/feats/feats.webp",
                "level": "1",
                "name": "Arcane Sense",
                "pack": "pf2e.feats-srd"
            }
        },
        "rules": [],
        "source": {
            "value": "Pathfinder: Abomination Vaults Player's Guide"
        },
        "trainedLore": "Library Lore",
        "trainedSkills": {
            "value": [
                "arc"
            ]
        },
        "traits": {
            "custom": "",
            "rarity": "common",
            "value": []
        }
    },
    "effects": [],
    "flags": {},
    "img": "systems/pf2e/icons/default-icons/background.svg",
    "name": "Bibliophile",
    "type": "background"
}
