{
    "_id": "MiRWGXZnEdurMvVf",
    "data": {
        "boosts": {
            "0": {
                "value": [
                    "int",
                    "wis"
                ]
            },
            "1": {
                "value": [
                    "cha",
                    "con",
                    "dex",
                    "int",
                    "str",
                    "wis"
                ]
            }
        },
        "description": {
            "value": "<p>You're a trained physician who can ably tend wounds of many kinds. But more than a practitioner, you're a scholar. Some cultures shape flesh to extreme degrees, creating aberrations from humanoid forms. The fleshforges of distant Nex practice this fleshwarping, as do certain subterranean societies you hope to one day study—preferably from a safe and clinical distance.</p>\n<p>Choose two ability boosts. One must be to <strong>Intelligence</strong> or <strong>Wisdom</strong>, and one is a free ability boost.</p>\n<p>You're trained in the Medicine skill and the Fleshwarp Lore skill. You gain the @Compendium[pf2e.feats-srd.Assurance]{Assurance} skill feat with Medicine.</p>"
        },
        "items": {
            "j9ja5": {
                "id": "W6Gl9ePmItfDHji0",
                "img": "systems/pf2e/icons/features/feats/feats.webp",
                "level": "1",
                "name": "Assurance",
                "pack": "pf2e.feats-srd"
            }
        },
        "rules": [],
        "source": {
            "value": "Pathfinder: Abomination Vaults Player's Guide"
        },
        "trainedLore": "Fleshwarp Lore",
        "trainedSkills": {
            "value": [
                "med"
            ]
        },
        "traits": {
            "custom": "",
            "rarity": "common",
            "value": []
        }
    },
    "effects": [],
    "flags": {},
    "img": "systems/pf2e/icons/default-icons/background.svg",
    "name": "Eldritch Anatomist",
    "type": "background"
}
