{
    "_id": "4a2sVO0o2mMTydN8",
    "data": {
        "boosts": {
            "0": {
                "value": [
                    "cha",
                    "con"
                ]
            },
            "1": {
                "value": [
                    "cha",
                    "con",
                    "dex",
                    "int",
                    "str",
                    "wis"
                ]
            }
        },
        "description": {
            "value": "<p>You're from Breachill and have lived there most, if not all, of your life. You might be the son or daughter of a well-known local adventuring family, or a family with a storied tradition of military or other martial service. You likely also have some sort of skill with your hands, as the people of Breachill are very self-sufficient.</p>\n<p>The Call for Heroes is one of your hometown's most iconic traditions, and you want to attend so you can prove your own merits to the council-beyond simply those of your family's name.</p>\n<p>Choose two ability boosts. One must be to <strong>Constitution</strong> or <strong>Charisma</strong>, and one is a free ability boost.</p>\n<p>You're trained in the Crafting skill and the Breachill Lore skill. You gain the @Compendium[pf2e.feats-srd.Specialty Crafting]{Specialty Crafting} skill feat.</p>"
        },
        "items": {
            "e8pnw": {
                "id": "QLeMH5mQgh28sa5o",
                "img": "systems/pf2e/icons/features/feats/feats.webp",
                "level": 1,
                "name": "Specialty Crafting",
                "pack": "pf2e.feats-srd"
            }
        },
        "rules": [],
        "source": {
            "value": "Pathfinder: Age of Ashes Player's Guide"
        },
        "trainedLore": "Breachill Lore",
        "trainedSkills": {
            "value": [
                "cra"
            ]
        },
        "traits": {
            "custom": "",
            "rarity": "common",
            "value": []
        }
    },
    "effects": [],
    "flags": {},
    "img": "systems/pf2e/icons/default-icons/background.svg",
    "name": "Local Scion",
    "type": "background"
}
