{
    "_id": "I5cRrqrPCHsQqFI9",
    "data": {
        "boosts": {
            "0": {
                "value": [
                    "int",
                    "wis"
                ]
            },
            "1": {
                "value": [
                    "cha",
                    "con",
                    "dex",
                    "int",
                    "str",
                    "wis"
                ]
            }
        },
        "description": {
            "value": "<p>Selling magic items isn't like being an ordinary merchant. The wares you buy and sell are expensive, making each sale rare and lucrative. You've developed knowledge of expert handiwork to ensure you don't fall for a scam, since buying a single counterfeit item can lead to bankruptcy. Whether you went out of business and had to find alternative employment, or took up adventuring to acquire new merchandise, you've taken to adventuring yourself.</p>\n<p>Choose two ability boosts. One must be to <strong>Intelligence</strong> or <strong>Wisdom</strong>, and one is a free ability boost.</p>\n<p>You're trained in Crafting and Mercantile Lore. You gain the @Compendium[pf2e.feats-srd.Crafter's Appraisal]{Crafter's Appraisal} skill feat.</p>"
        },
        "items": {
            "tkjfi": {
                "id": "voYr7ygVcWmlg1f4",
                "img": "systems/pf2e/icons/features/feats/feats.webp",
                "level": 1,
                "name": "Crafter's Appraisal",
                "pack": "pf2e.feats-srd"
            }
        },
        "rules": [],
        "source": {
            "value": "Pathfinder Secrets of Magic"
        },
        "trainedLore": "Mercantile Lore",
        "trainedSkills": {
            "custom": "",
            "value": [
                "cra"
            ]
        },
        "traits": {
            "custom": "",
            "rarity": "common",
            "value": []
        }
    },
    "effects": [],
    "flags": {},
    "img": "systems/pf2e/icons/default-icons/background.svg",
    "name": "Magical Merchant",
    "type": "background"
}
