{
    "_id": "Y35nOXZRryiyHjlk",
    "data": {
        "boosts": {
            "0": {
                "value": [
                    "int",
                    "wis"
                ]
            },
            "1": {
                "value": [
                    "cha",
                    "con",
                    "dex",
                    "int",
                    "str",
                    "wis"
                ]
            }
        },
        "description": {
            "value": "<p><strong>Prerequisite</strong> Region - Impossible Lands</p>\n<hr />\n<p>Your initiations into the Nexian mysteries and the philosophies of the Arclords of Nex grant you a preternatural comprehension of the arcane underpinnings of existence.</p>\n<p>Choose two ability boosts. One must be to <strong>Intelligence</strong> or <strong>Wisdom</strong>, and one is a free ability boost.</p>\n<p>You're trained in the Arcana skill and a Lore skill related to one plane of your choice (other than the Material Plane). You gain the @Compendium[pf2e.feats-srd.Arcane Sense]{Arcane Sense} skill feat.</p>"
        },
        "items": {
            "k5wvl": {
                "id": "blMeVamjGz4ODWxq",
                "img": "systems/pf2e/icons/features/feats/feats.webp",
                "level": "1",
                "name": "Arcane Sense",
                "pack": "pf2e.feats-srd"
            }
        },
        "rules": [],
        "source": {
            "value": "Pathfinder Lost Omens: World Guide"
        },
        "trainedLore": "<Planar> Lore (except Material Plane)",
        "trainedSkills": {
            "value": [
                "arc"
            ]
        },
        "traits": {
            "custom": "",
            "rarity": "common",
            "value": []
        }
    },
    "effects": [],
    "flags": {},
    "img": "systems/pf2e/icons/default-icons/background.svg",
    "name": "Nexian Mystic",
    "type": "background"
}
