{
    "_id": "UU4MOe7Lozt9V8tg",
    "data": {
        "boosts": {
            "0": {
                "value": [
                    "con",
                    "wis"
                ]
            },
            "1": {
                "value": []
            }
        },
        "description": {
            "value": "<p>You have long been gifted with the ability to see and speak with the departed. This could have manifested at your birth or when a chance encounter linked you inextricably to the spirits of the dead. Their constant presence might feel like a curse, or it might provide you with welcome companionship.</p>\n<p>You gain one ability boost. It must be to <strong>Constitution</strong> or <strong>Wisdom</strong>.</p>\n<p>You're trained in Religion and Undead Lore. You gain the effects of the <em>@Compendium[pf2e.spells-srd.Spirit Sense]{Spirit Sense}</em> spell at all times.</p>"
        },
        "items": {},
        "rules": [],
        "source": {
            "value": "Pathfinder Secrets of Magic"
        },
        "trainedLore": "Undead Lore",
        "trainedSkills": {
            "custom": "",
            "value": [
                "rel"
            ]
        },
        "traits": {
            "custom": "",
            "rarity": "rare",
            "value": []
        }
    },
    "effects": [],
    "flags": {},
    "img": "systems/pf2e/icons/default-icons/background.svg",
    "name": "Seer of the Dead",
    "type": "background"
}
