{
    "_id": "V31KRG7aA7xS0m8L",
    "data": {
        "boosts": {
            "0": {
                "value": [
                    "int",
                    "wis"
                ]
            },
            "1": {
                "value": [
                    "cha",
                    "con",
                    "dex",
                    "int",
                    "str",
                    "wis"
                ]
            }
        },
        "description": {
            "value": "<p><strong>Prerequisite</strong> Region - Old Cheliax</p>\n<hr />\n<p>You are from Nidal, and regardless of your personal values, Zon-Kuthon has a claim on your soul due to an ancient pact. The Midnight Lord's unsettling influence is bred deep into your bones.</p>\n<p>Choose two ability boosts. One must be to <strong>Intelligence</strong> or <strong>Wisdom</strong>, and one is a free ability boost.</p>\n<p>You're trained in the Intimidation skill and the Shadow Plane Lore skill. You gain the @Compendium[pf2e.feats-srd.Quick Coercion]{Quick Coercion} skill feat.</p>"
        },
        "items": {
            "9db55": {
                "id": "ar2DUlvDK4LDcH9J",
                "img": "systems/pf2e/icons/features/feats/feats.webp",
                "level": "1",
                "name": "Quick Coercion",
                "pack": "pf2e.feats-srd"
            }
        },
        "rules": [],
        "source": {
            "value": "Pathfinder Lost Omens: World Guide"
        },
        "trainedLore": "Shadow Plane Lore",
        "trainedSkills": {
            "value": [
                "itm"
            ]
        },
        "traits": {
            "custom": "",
            "rarity": "common",
            "value": []
        }
    },
    "effects": [],
    "flags": {},
    "img": "systems/pf2e/icons/default-icons/background.svg",
    "name": "Shadow Haunted",
    "type": "background"
}
