{
    "_id": "WU0QTDh2SogUthxn",
    "data": {
        "boosts": {
            "0": {
                "value": [
                    "int",
                    "wis"
                ]
            },
            "1": {
                "value": [
                    "cha",
                    "con",
                    "dex",
                    "int",
                    "str",
                    "wis"
                ]
            }
        },
        "description": {
            "value": "<p>You are incredibly knowledgeable, skilled, and perhaps even trained to teach children and adults about the world and its wonders. From books to classes, you're committed to imparting knowledge to all. Not everything can be taught or learned from a book, though, so you've become an adventurer to learn subjects more directly and bring that wisdom back to your students.</p>\n<p>Choose two ability boosts. One must be to <strong>Intelligence</strong> or <strong>Wisdom</strong>, and one is a free ability boost.</p>\n<p>You're trained in the Society skill, along with the Academia Lore skill. You gain the @Compendium[pf2e.feats-srd.Experienced Professional]{Experienced Professional} skill feat.</p>"
        },
        "items": {
            "2phf2": {
                "id": "sMm0UfYxEPpq2Yzd",
                "img": "systems/pf2e/icons/features/feats/feats.webp",
                "level": "1",
                "name": "Experienced Professional",
                "pack": "pf2e.feats-srd"
            }
        },
        "rules": [],
        "source": {
            "value": "Pathfinder Advanced Player's Guide"
        },
        "trainedLore": "Academia Lore",
        "trainedSkills": {
            "custom": "",
            "value": [
                "soc"
            ]
        },
        "traits": {
            "custom": "",
            "rarity": "common",
            "value": []
        }
    },
    "effects": [],
    "flags": {},
    "img": "systems/pf2e/icons/default-icons/background.svg",
    "name": "Teacher (Society)",
    "type": "background"
}
