{
    "_id": "5sMAAIymln2yIl4q",
    "data": {
        "baseItem": null,
        "brokenThreshold": {
            "value": 0
        },
        "bulkCapacity": {
            "value": ""
        },
        "collapsed": {
            "value": false
        },
        "containerId": {
            "value": ""
        },
        "description": {
            "value": "<p>This functions as a pale lavender ellipsoid aeon stone, but it casts an 8th-level <em>@Compendium[pf2e.spells-srd.Dispel Magic]{Dispel Magic}</em> spell with a counteract modifier of [[/r 1d20+31]].</p>\n<p>The resonant power allows you to cast <em>@Compendium[pf2e.spells-srd.Detect Magic]{Detect Magic}</em> and <em>@Compendium[pf2e.spells-srd.Read Aura]{Read Aura}</em> as arcane innate spells at will.</p>"
        },
        "equipped": {
            "value": false
        },
        "equippedBulk": {
            "value": ""
        },
        "hardness": {
            "value": 0
        },
        "hp": {
            "value": 0
        },
        "identification": {
            "misidentified": {},
            "status": "identified",
            "unidentified": {
                "data": {
                    "description": {
                        "value": ""
                    }
                },
                "img": "",
                "name": ""
            }
        },
        "invested": {
            "value": false
        },
        "level": {
            "value": 19
        },
        "maxHp": {
            "value": 0
        },
        "negateBulk": {
            "value": "0"
        },
        "preciousMaterial": {
            "value": ""
        },
        "preciousMaterialGrade": {
            "value": ""
        },
        "price": {
            "value": "30,000 gp"
        },
        "quantity": {
            "value": 1
        },
        "rules": [],
        "size": {
            "value": "med"
        },
        "source": {
            "value": "Pathfinder Core Rulebook"
        },
        "stackGroup": {
            "value": ""
        },
        "traits": {
            "custom": "",
            "rarity": "uncommon",
            "value": [
                "invested",
                "magical",
                "transmutation"
            ]
        },
        "usage": {
            "value": "worn"
        },
        "weight": {
            "value": "-"
        }
    },
    "effects": [],
    "flags": {},
    "img": "systems/pf2e/icons/equipment/worn-items/other-worn-items/aeon-stone-lavender-and-green-ellipsoid.webp",
    "name": "Aeon Stone (Lavender and Green Ellipsoid)",
    "type": "equipment"
}
