{
    "_id": "Oo7IpJQDSTmzUyzG",
    "data": {
        "MAP": {
            "value": ""
        },
        "baseItem": "staff",
        "bonus": {
            "value": 0
        },
        "bonusDamage": {
            "value": 0
        },
        "brokenThreshold": {
            "value": 0
        },
        "bulkCapacity": {
            "value": ""
        },
        "category": "simple",
        "collapsed": {
            "value": false
        },
        "containerId": {
            "value": ""
        },
        "damage": {
            "damageType": "bludgeoning",
            "dice": 1,
            "die": "d4",
            "value": ""
        },
        "description": {
            "value": "<p>This staff is topped with carved animal and monster heads. While wielding the staff, you gain a +2 circumstance bonus to Nature checks to identify animals.</p>\n<p><strong>Activate</strong> Cast a Spell</p>\n<p><strong>Effect</strong> You expend a number of charges from the staff to cast a spell from its list.</p>\n<ul>\n<li><strong>Cantrip</strong> <em>@Compendium[pf2e.spells-srd.Know Direction]{Know Direction}</em></li>\n<li><strong>1st</strong> <em>@Compendium[pf2e.spells-srd.Magic Fang]{Magic Fang}</em> <em>@Compendium[pf2e.spells-srd.Summon Animal]{Summon Animal}</em></li>\n<li><strong>2nd</strong> <em>@Compendium[pf2e.spells-srd.Animal Messenger]{Animal Messenger}</em> <em>@Compendium[pf2e.spells-srd.Speak with Animals]{Speak with Animals}</em> <em>@Compendium[pf2e.spells-srd.Summon Animal]{Summon Animal}</em></li>\n<li><strong>3rd</strong> <em>@Compendium[pf2e.spells-srd.Animal Form]{Animal Form}</em> <em>@Compendium[pf2e.spells-srd.Summon Animal]{Summon Animal}</em></li>\n<li><strong>4th</strong> <em>@Compendium[pf2e.spells-srd.Summon Animal]{Summon Animal}</em></li>\n<li><strong>5th</strong> <em>@Compendium[pf2e.spells-srd.Animal Form]{Animal Form}</em> <em>@Compendium[pf2e.spells-srd.Moon Frenzy]{Moon Frenzy}</em> <em>@Compendium[pf2e.spells-srd.Summon Animal]{Summon Animal}</em></li>\n</ul>\n<p><strong>Craft Requirements</strong> Supply one casting of all listed levels of all listed spells.</p>\n<hr />\n<p>Automatically applied effects:</p>\n<ul>\n<li>+2 circumstance bonus to Nature checks to identify animals</li>\n</ul>"
        },
        "equipped": {
            "value": false
        },
        "equippedBulk": {
            "value": ""
        },
        "group": "club",
        "hands": {
            "value": ""
        },
        "hardness": {
            "value": 0
        },
        "hp": {
            "value": 0
        },
        "identification": {
            "misidentified": {},
            "status": "identified",
            "unidentified": {
                "data": {
                    "description": {
                        "value": ""
                    }
                },
                "img": "",
                "name": ""
            }
        },
        "invested": {
            "value": false
        },
        "level": {
            "value": 12
        },
        "maxHp": {
            "value": 0
        },
        "negateBulk": {
            "value": "0"
        },
        "potencyRune": {
            "value": null
        },
        "preciousMaterial": {
            "value": ""
        },
        "preciousMaterialGrade": {
            "value": ""
        },
        "price": {
            "value": "1,900 gp"
        },
        "property1": {
            "critDamage": "",
            "critDamageType": "",
            "critDice": null,
            "critDie": "",
            "criticalConditionType": "",
            "criticalConditionValue": null,
            "damageType": "",
            "dice": null,
            "die": "",
            "strikeConditionType": "",
            "strikeConditionValue": null,
            "value": ""
        },
        "propertyRune1": {
            "value": ""
        },
        "propertyRune2": {
            "value": ""
        },
        "propertyRune3": {
            "value": ""
        },
        "propertyRune4": {
            "value": ""
        },
        "quantity": {
            "value": 1
        },
        "range": null,
        "reload": {
            "value": ""
        },
        "rules": [
            {
                "key": "FlatModifier",
                "label": "Animal Staff (identify animals)",
                "predicate": {
                    "all": [
                        "action:recall-knowledge",
                        "identify"
                    ],
                    "any": [
                        "target:animal"
                    ]
                },
                "selector": "nature",
                "type": "circumstance",
                "value": 2
            }
        ],
        "size": {
            "value": "med"
        },
        "source": {
            "value": "Pathfinder Core Rulebook"
        },
        "splashDamage": {
            "value": 0
        },
        "stackGroup": {
            "value": ""
        },
        "strikingRune": {
            "value": ""
        },
        "traits": {
            "custom": "",
            "rarity": "common",
            "value": [
                "divination",
                "magical",
                "staff",
                "two-hand-d8"
            ]
        },
        "usage": {
            "value": "held-in-one-hand"
        },
        "weight": {
            "value": "1"
        }
    },
    "effects": [],
    "flags": {},
    "img": "systems/pf2e/icons/equipment/staves/animal-staff.webp",
    "name": "Animal Staff (Major)",
    "type": "weapon"
}
