{
    "_id": "9ZGkQo739t9utj37",
    "data": {
        "armor": {
            "value": 2
        },
        "baseItem": null,
        "brokenThreshold": {
            "value": 12
        },
        "bulkCapacity": {
            "value": ""
        },
        "category": "shield",
        "check": {
            "value": 0
        },
        "collapsed": {
            "value": false
        },
        "containerId": {
            "value": ""
        },
        "description": {
            "value": "<p>This wooden shield (Hardness 10, HP 40, BT 20) is carved with images of overlapping fletched arrows.</p>\n<hr />\n<p><strong>Activate</strong> <span class=\"pf2-icon\">R</span> Interact</p>\n<p><strong>Trigger</strong> A ranged weapon Strike targets a creature within 15 feet of you when you have this shield raised, and the attacker has not yet rolled their attack</p>\n<p><strong>Effect</strong> The triggering Strike targets you instead of its normal target. If it hits, you gain the effects of the @Compendium[pf2e.feats-srd.Shield Block]{Shield Block} reaction.</p>"
        },
        "dex": {
            "value": 0
        },
        "equipped": {
            "value": false
        },
        "equippedBulk": {
            "value": ""
        },
        "group": null,
        "hardness": {
            "value": 6
        },
        "hp": {
            "value": 24
        },
        "identification": {
            "misidentified": {},
            "status": "identified",
            "unidentified": {
                "data": {
                    "description": {
                        "value": ""
                    }
                },
                "img": "",
                "name": ""
            }
        },
        "invested": {
            "value": false
        },
        "level": {
            "value": 11
        },
        "maxHp": {
            "value": 24
        },
        "negateBulk": {
            "value": "0"
        },
        "potency": {},
        "potencyRune": {
            "value": 0
        },
        "preciousMaterial": {
            "value": ""
        },
        "preciousMaterialGrade": {
            "value": ""
        },
        "price": {
            "value": "1,350 gp"
        },
        "propertyRune1": {
            "value": ""
        },
        "propertyRune2": {
            "value": ""
        },
        "propertyRune3": {
            "value": ""
        },
        "propertyRune4": {
            "value": ""
        },
        "quantity": {
            "value": 1
        },
        "resiliencyRune": {
            "value": ""
        },
        "rules": [],
        "size": {
            "value": "med"
        },
        "source": {
            "value": "Pathfinder Core Rulebook"
        },
        "speed": {
            "value": 0
        },
        "stackGroup": {
            "value": ""
        },
        "strength": {
            "value": 0
        },
        "traits": {
            "custom": "",
            "rarity": "common",
            "value": [
                "abjuration",
                "magical"
            ]
        },
        "usage": {
            "value": "held-in-one-hand"
        },
        "weight": {
            "value": "1"
        }
    },
    "effects": [],
    "flags": {},
    "img": "systems/pf2e/icons/equipment/shields/specific-shields/arrow-catching-shield.webp",
    "name": "Arrow-Catching Shield",
    "type": "armor"
}
