{
    "_id": "7utuH8VJjKEzKtNw",
    "data": {
        "baseItem": null,
        "brokenThreshold": {
            "value": 0
        },
        "bulkCapacity": {
            "value": ""
        },
        "collapsed": {
            "value": false
        },
        "containerId": {
            "value": ""
        },
        "description": {
            "value": "<p>This thick leather belt is decorated with a buckle carved from glittering quartz in the shape of a fist. You gain a +3 item bonus to Athletics checks and a +2 circumstance bonus to Athletics checks to lift a heavy object, Escape, and Force Open.</p>\n<p>When you invest the belt, you either increase your Strength score by 2 or increase it to 18, whichever would give you a higher score.</p>\n<hr />\n<p><strong>Activate</strong> <span class=\"pf2-icon\">R</span> Interact</p>\n<p><strong>Trigger</strong> You are targeted by a thrown rock attack, or a rock would fall on you</p>\n<p><strong>Effect</strong> Attempt an Athletics check to grab the triggering rock. Use the Athletics DC of the creature throwing the rock, the DC of the hazard or other effect, or DC 35 if no other DC is applicable. You must have a free hand to catch the rock, but you can Release anything you're holding in a hand as part of this reaction.</p>\n<p><strong>Success</strong> You safely catch the rock, take no damage, and are now holding the rock.</p>\n<p><strong>Failure</strong> You take half damage.</p>\n<p><strong>Critical Failure</strong> You take full damage.</p>\n<hr />\n<p>Automatically applied effects:</p>\n<ul>\n<li>+3 item bonus to Athletics</li>\n<li>+2 circumstance bonus to Athletics to lift heavy objects, Escape or Force Open</li>\n</ul>"
        },
        "equipped": {
            "value": false
        },
        "equippedBulk": {
            "value": ""
        },
        "hardness": {
            "value": 0
        },
        "hp": {
            "value": 0
        },
        "identification": {
            "misidentified": {},
            "status": "identified",
            "unidentified": {
                "data": {
                    "description": {
                        "value": ""
                    }
                },
                "img": "",
                "name": ""
            }
        },
        "invested": {
            "value": false
        },
        "level": {
            "value": 17
        },
        "maxHp": {
            "value": 0
        },
        "negateBulk": {
            "value": "0"
        },
        "preciousMaterial": {
            "value": ""
        },
        "preciousMaterialGrade": {
            "value": ""
        },
        "price": {
            "value": "15000 gp"
        },
        "quantity": {
            "value": 1
        },
        "rules": [
            {
                "key": "FlatModifier",
                "selector": "athletics",
                "type": "item",
                "value": 3
            },
            {
                "key": "FlatModifier",
                "label": "Belt of Giant Strength (lift heavy objects, Escape, Force Open)",
                "predicate": {
                    "any": [
                        "action:lift-heavy-object",
                        "action:escape",
                        "action:force-open"
                    ]
                },
                "selector": "athletics",
                "type": "circumstance",
                "value": 2
            },
            {
                "key": "ActiveEffectLike",
                "mode": "add",
                "path": "data.abilities.str.value",
                "value": 2
            },
            {
                "key": "ActiveEffectLike",
                "mode": "upgrade",
                "path": "data.abilities.str.value",
                "value": 18
            }
        ],
        "size": {
            "value": "med"
        },
        "source": {
            "value": "Pathfinder Core Rulebook"
        },
        "stackGroup": {
            "value": ""
        },
        "traits": {
            "custom": "",
            "rarity": "common",
            "value": [
                "apex",
                "invested"
            ]
        },
        "usage": {
            "value": "wornbelt"
        },
        "weight": {
            "value": "L"
        }
    },
    "effects": [],
    "flags": {},
    "img": "systems/pf2e/icons/equipment/worn-items/apex-items/belt-of-giant-strength.webp",
    "name": "Belt of Giant Strength",
    "type": "equipment"
}
