{
    "_id": "E7BcwZy8nTpTLYf1",
    "data": {
        "activation": {
            "condition": "",
            "cost": 0,
            "type": ""
        },
        "autoDestroy": {
            "_deprecated": true,
            "value": true
        },
        "autoUse": {
            "_deprecated": true,
            "value": true
        },
        "baseItem": "alchemical-bomb",
        "brokenThreshold": {
            "value": 0
        },
        "bulkCapacity": {
            "value": ""
        },
        "charges": {
            "_deprecated": true,
            "max": "1",
            "value": "1"
        },
        "collapsed": {
            "value": false
        },
        "consumableType": {
            "value": "bomb"
        },
        "consume": {
            "_deprecated": true,
            "value": ""
        },
        "containerId": {
            "value": ""
        },
        "description": {
            "value": "<p><strong>Activate</strong> <span class=\"pf2-icon\">1</span> Strike</p>\n<p>Though expensive, these single-use alchemical bombs are often used by police forces to disperse unruly crowds and quell riots without risking permanent physical injury to either officers or civilians.</p>\n<p>The bomb can be thrown up to 30 feet, causing it to explode, spraying the aerosolized pepper dust in a 15-foot-radius burst. All creatures in the area must succeed at a <span data-pf2-check=\"reflex\" data-pf2-traits=\"alchemical,bomb,visual\" data-pf2-label=\"Blindpepper Bomb DC\" data-pf2-dc=\"18\" data-pf2-show-dc=\"all\">Reflex</span> save to avoid inhaling the dust or getting it in their eyes.</p>\n<p>On a failed save, the creature is @Compendium[pf2e.conditionitems.Blinded]{Blinded} for 1 round and then @Compendium[pf2e.conditionitems.Dazzled]{Dazzled} for 1 round.</p>\n<p>On a critical failure, the creature is blinded for 1 round, @Compendium[pf2e.conditionitems.Sickened]{Sickened 1}, and dazzled until it removes the sickened condition.</p>"
        },
        "duration": {
            "units": "",
            "value": null
        },
        "equipped": {
            "value": false
        },
        "equippedBulk": {
            "value": ""
        },
        "hardness": {
            "value": 0
        },
        "hp": {
            "value": 0
        },
        "identification": {
            "misidentified": {},
            "status": "identified",
            "unidentified": {
                "data": {
                    "description": {
                        "value": ""
                    }
                },
                "img": "",
                "name": ""
            }
        },
        "level": {
            "value": 5
        },
        "maxHp": {
            "value": 0
        },
        "negateBulk": {
            "value": "0"
        },
        "preciousMaterial": {
            "value": ""
        },
        "preciousMaterialGrade": {
            "value": ""
        },
        "price": {
            "value": "40 gp"
        },
        "quantity": {
            "value": 1
        },
        "range": {
            "long": null,
            "units": "",
            "value": null
        },
        "rules": [],
        "size": {
            "value": "med"
        },
        "source": {
            "value": "Pathfinder #157: Devil at the Dreaming Palace"
        },
        "spell": {
            "data": null,
            "heightenedLevel": null
        },
        "stackGroup": {
            "value": ""
        },
        "target": {
            "type": "",
            "units": "",
            "value": null
        },
        "traits": {
            "custom": "",
            "rarity": "uncommon",
            "value": [
                "alchemical",
                "bomb",
                "consumable",
                "visual"
            ]
        },
        "usage": {
            "value": "held-in-one-hand"
        },
        "uses": {
            "autoDestroy": true,
            "autoUse": true,
            "max": 0,
            "per": null,
            "value": 0
        },
        "weight": {
            "value": "L"
        }
    },
    "effects": [],
    "flags": {},
    "img": "systems/pf2e/icons/equipment/alchemical-items/alchemical-bombs/blindpepper-bomb.webp",
    "name": "Blindpepper Bomb",
    "type": "consumable"
}
