{
    "_id": "Ck5k13uTNqibLFJk",
    "data": {
        "baseItem": null,
        "brokenThreshold": {
            "value": 0
        },
        "bulkCapacity": {
            "value": ""
        },
        "collapsed": {
            "value": false
        },
        "containerId": {
            "value": ""
        },
        "description": {
            "value": "<p>These sleek red boots make your legs feel like they're bursting with energy. You gain a +5-foot item bonus to your land Speed and to any climb or swim Speeds you have.</p>\n<p><strong>Activate</strong> <span class=\"pf2-icon\">A</span> Interact</p>\n<p><strong>Frequency</strong> once per day</p>\n<p><strong>Effect</strong> You click the heels of the boots together and gain the @Compendium[pf2e.conditionitems.Quickened]{Quickened} condition for 1 minute. You can use the extra action to Stride, Climb, or Swim. (You must still attempt an Athletics check for the Climb and Swim actions unless you have the appropriate movement type.)</p>\n<hr />\n<p>Automatically applied effects:</p>\n<ul>\n<li>+5-foot item bonus to your land Speed and to any climb or swim Speeds you have</li>\n</ul>"
        },
        "equipped": {
            "value": false
        },
        "equippedBulk": {
            "value": ""
        },
        "hardness": {
            "value": 0
        },
        "hp": {
            "value": 0
        },
        "identification": {
            "misidentified": {},
            "status": "identified",
            "unidentified": {
                "data": {
                    "description": {
                        "value": ""
                    }
                },
                "img": "",
                "name": ""
            }
        },
        "invested": {
            "value": false
        },
        "level": {
            "value": 13
        },
        "maxHp": {
            "value": 0
        },
        "negateBulk": {
            "value": "0"
        },
        "preciousMaterial": {
            "value": ""
        },
        "preciousMaterialGrade": {
            "value": ""
        },
        "price": {
            "value": "3,000 gp"
        },
        "quantity": {
            "value": 1
        },
        "rules": [
            {
                "key": "FlatModifier",
                "label": "Boots of Speed",
                "selector": "land-speed",
                "type": "item",
                "value": 5
            },
            {
                "key": "FlatModifier",
                "label": "Boots of Speed",
                "selector": "climb-speed",
                "type": "item",
                "value": 5
            },
            {
                "key": "FlatModifier",
                "label": "Boots of Speed",
                "selector": "swim-speed",
                "type": "item",
                "value": 5
            }
        ],
        "size": {
            "value": "med"
        },
        "source": {
            "value": "Pathfinder Core Rulebook"
        },
        "stackGroup": {
            "value": ""
        },
        "traits": {
            "custom": "",
            "rarity": "common",
            "value": [
                "invested",
                "magical",
                "transmutation"
            ]
        },
        "usage": {
            "value": "wornshoes"
        },
        "weight": {
            "value": "L"
        }
    },
    "effects": [],
    "flags": {},
    "img": "systems/pf2e/icons/equipment/worn-items/other-worn-items/boots-of-speed.webp",
    "name": "Boots of Speed",
    "type": "equipment"
}
