{
    "_id": "UvABdSnNZ9gr2IkF",
    "data": {
        "baseItem": null,
        "brokenThreshold": {
            "value": 0
        },
        "bulkCapacity": {
            "value": ""
        },
        "collapsed": {
            "value": false
        },
        "containerId": {
            "value": null
        },
        "description": {
            "value": "<p>Engraved with carvings of tortured souls, this green cauldron has two abilities that allow it to capture nightmares and then unleash them on the world.</p>\n<p>The cauldron has an affinity for preying on the minds of captives and prisoners, who take a -2 circumstance penalty to saving throws against it. Good creatures are @Compendium[pf2e.conditionitems.Enfeebled]{Enfeebled 2} while carrying, wielding, or wearing this item crafted by the sea-witches.</p>\n<hr />\n<p><strong>Activate</strong><span class=\"pf2-icon\">a</span> Interact</p>\n<p><strong>Frequency</strong> once per day</p>\n<p><strong>Effect</strong> The cauldron casts <em>@Compendium[pf2e.spells-srd.Nightmare]{Nightmare}</em> (<span data-pf2-check=\"will\" data-pf2-label=\"Nightmare DC\" data-pf2-traits=\"mental,arcane,occult\" data-pf2-dc=\"35\">Will</span>) on a target creature that you know by name. The target must be on the same plane as you. If the target fails its save and is 15th level or lower, you add its nightmare to the cauldron. The cauldron can hold only six nightmares at a time; when you add a new nightmare, you choose which six to keep.</p>\n<hr />\n<p><strong>Activate</strong><span class=\"pf2-icon\">2</span> Interact</p>\n<p><strong>Frequency</strong> once per week</p>\n<p><strong>Effect</strong> You spill the nightmarish contents of the cauldron onto the ground and choose one creature whose nightmare is stored in your cauldron. A nightmare copy of the chosen creature springs to life from the bubbling pile of horror. The cauldron casts <em>@Compendium[pf2e.spells-srd.Duplicate Foe]{Duplicate Foe}</em> on the target, ignoring the range restriction, and the target automatically fails its saving throw. All enemies within 20 feet of the cauldron are subjected to a <em>@Compendium[pf2e.spells-srd.Fear]{Fear}</em> spell (<span data-pf2-check=\"will\" data-pf2-label=\"Fear DC\" data-pf2-traits=\"mental,emotion,fear,arcane,divine,occult,primal\" data-pf2-dc=\"35\">Will</span>). All other nightmares stored in the cauldron are lost. The cauldron becomes totally inert and can't be used again for 1 week.</p>\n<hr />\n<p><strong>Craft Requirements</strong> Supply a casting of <em>nightmare</em>.</p>"
        },
        "equipped": {
            "value": false
        },
        "equippedBulk": {
            "value": ""
        },
        "hardness": {
            "value": 0
        },
        "hp": {
            "value": 0
        },
        "identification": {
            "misidentified": {},
            "status": "identified",
            "unidentified": {
                "data": {
                    "description": {
                        "value": ""
                    }
                },
                "img": "",
                "name": ""
            }
        },
        "invested": {
            "value": null
        },
        "level": {
            "value": 17
        },
        "maxHp": {
            "value": 0
        },
        "negateBulk": {
            "value": "0"
        },
        "preciousMaterial": {
            "value": null
        },
        "preciousMaterialGrade": {
            "value": null
        },
        "price": {
            "value": "13000 gp"
        },
        "quantity": {
            "value": 1
        },
        "rules": [],
        "size": {
            "value": "med"
        },
        "source": {
            "value": "Pathfinder #161: Belly of the Black Whale"
        },
        "stackGroup": {
            "value": ""
        },
        "traits": {
            "custom": "",
            "rarity": "rare",
            "value": [
                "illusion",
                "invested",
                "magical"
            ]
        },
        "usage": {
            "value": "held-in-two-hands"
        },
        "weight": {
            "value": "1"
        }
    },
    "effects": [],
    "flags": {},
    "img": "systems/pf2e/icons/equipment/other/magic-pots/walking-cauldron.webp",
    "name": "Cauldron of Nightmares",
    "type": "equipment"
}
