{
    "_id": "fXD42N5cGUYCtvp2",
    "data": {
        "baseItem": null,
        "brokenThreshold": {
            "value": 0
        },
        "bulkCapacity": {
            "value": ""
        },
        "collapsed": {
            "value": false
        },
        "containerId": {
            "value": null
        },
        "description": {
            "value": "<p>This black velvet cloak is featureless and very soft to the touch. Upon wearing it for the first time, you're momentarily overwhelmed with a sense of comfort and coziness. While wearing this cloak you can comfortably rest in any space, so long as it's not wet or particularly hazardous. While sleeping in this cloak you only take a -2 status penalty to auditory Perception checks, rather than a -4 status penalty.</p>"
        },
        "equipped": {
            "value": false
        },
        "equippedBulk": {
            "value": ""
        },
        "hardness": {
            "value": 0
        },
        "hp": {
            "value": 0
        },
        "identification": {
            "misidentified": {},
            "status": "identified",
            "unidentified": {
                "data": {
                    "description": {
                        "value": ""
                    }
                },
                "img": "",
                "name": ""
            }
        },
        "invested": {
            "value": null
        },
        "level": {
            "value": 1
        },
        "maxHp": {
            "value": 0
        },
        "negateBulk": {
            "value": "0"
        },
        "preciousMaterial": {
            "value": null
        },
        "preciousMaterialGrade": {
            "value": null
        },
        "price": {
            "value": "20 gp"
        },
        "quantity": {
            "value": 1
        },
        "rules": [],
        "size": {
            "value": "med"
        },
        "source": {
            "value": "Pathfinder Secrets of Magic"
        },
        "stackGroup": {
            "value": ""
        },
        "traits": {
            "custom": "",
            "rarity": "common",
            "value": [
                "enchantment",
                "invested",
                "magical"
            ]
        },
        "usage": {
            "value": "worncloak"
        },
        "weight": {
            "value": "L"
        }
    },
    "effects": [],
    "flags": {},
    "img": "systems/pf2e/icons/default-icons/equipment.svg",
    "name": "Cloak of Feline Rest",
    "type": "equipment"
}
