{
    "_id": "VioxW97SUADl3zTt",
    "data": {
        "armor": {
            "value": 2
        },
        "baseItem": null,
        "brokenThreshold": {
            "value": 28
        },
        "bulkCapacity": {
            "value": ""
        },
        "category": "shield",
        "check": {
            "value": 0
        },
        "collapsed": {
            "value": false
        },
        "containerId": {
            "value": null
        },
        "description": {
            "value": "<p>This tower shield is composed of interlocking hexagonal wooden tiles lined with metal. The tiles are painted a verdant green, and each is marked with a faded rune that protects against curses. While you have this shield raised, you gain a +1 circumstance bonus to saving throws against spells that target you, increasing to a +2 circumstance bonus against curses. You can unleash the energy stored in the shield to destroy a curse before it can affect you.</p>\n<p>AC increases to +4 if you are using the @Compendium[pf2e.actionspf2e.Take Cover]{Take Cover} action.</p>\n<hr />\n<p><strong>Activate</strong> <span class=\"pf2-icon\">r</span> command</p>\n<p><strong>Frequency</strong> once per day</p>\n<p><strong>Trigger</strong> You are targeted with a curse spell</p>\n<p><strong>Requirements</strong> The cursebreak bulwark is raised</p>\n<p><strong>Effect</strong> You activate the shield's countermeasures. It casts 8th-level <em>@Compendium[pf2e.spells-srd.Remove Curse]{Remove Curse}</em> with a counteract modifier of [[/r 1d20+27 #Counteract]]{+27} against the triggering curse.</p>\n<table class=\"pf2-table\">\n<thead>\n<tr>\n<th>Hardness</th>\n<th>HP</th>\n<th>BT</th>\n</tr>\n</thead>\n<tbody>\n<tr>\n<td>14</td>\n<td>56</td>\n<td>28</td>\n</tr>\n</tbody>\n</table>"
        },
        "dex": {
            "value": 0
        },
        "equipped": {
            "value": false
        },
        "equippedBulk": {
            "value": ""
        },
        "group": null,
        "hardness": {
            "value": 14
        },
        "hp": {
            "value": 56
        },
        "identification": {
            "misidentified": {},
            "status": "identified",
            "unidentified": {
                "data": {
                    "description": {
                        "value": ""
                    }
                },
                "img": "",
                "name": ""
            }
        },
        "invested": {
            "value": null
        },
        "level": {
            "value": 17
        },
        "maxHp": {
            "value": 56
        },
        "negateBulk": {
            "value": "0"
        },
        "potencyRune": {
            "value": 0
        },
        "preciousMaterial": {
            "value": null
        },
        "preciousMaterialGrade": {
            "value": null
        },
        "price": {
            "value": "14500 gp"
        },
        "propertyRune1": {
            "value": ""
        },
        "propertyRune2": {
            "value": ""
        },
        "propertyRune3": {
            "value": ""
        },
        "propertyRune4": {
            "value": ""
        },
        "quantity": {
            "value": 1
        },
        "resiliencyRune": {
            "value": ""
        },
        "rules": [
            {
                "key": "FlatModifier",
                "label": "Cursebreaker Bulwark",
                "predicate": {
                    "all": [
                        "raisedShield"
                    ]
                },
                "selector": "saving-throw",
                "type": "circumstance",
                "value": 1
            },
            {
                "key": "FlatModifier",
                "label": "Cursebreaker Bulwark (against curses)",
                "predicate": {
                    "all": [
                        "raisedShield",
                        "curse"
                    ]
                },
                "selector": "saving-throw",
                "type": "circumstance",
                "value": 2
            }
        ],
        "size": {
            "value": "med"
        },
        "source": {
            "value": "Pathfinder Lost Omens: The Grand Bazaar"
        },
        "speed": {
            "value": 0
        },
        "stackGroup": {
            "value": ""
        },
        "strength": {
            "value": 0
        },
        "traits": {
            "custom": "",
            "rarity": "uncommon",
            "value": [
                "abjuration",
                "magical"
            ]
        },
        "usage": {
            "value": "held-in-one-hand"
        },
        "weight": {
            "value": "4"
        }
    },
    "effects": [],
    "flags": {},
    "img": "systems/pf2e/icons/default-icons/armor.svg",
    "name": "Cursebreak Bulwark",
    "type": "armor"
}
