{
    "_id": "O28nMnWDcXpMtrMv",
    "data": {
        "baseItem": null,
        "brokenThreshold": {
            "value": 0
        },
        "bulkCapacity": {
            "value": ""
        },
        "collapsed": {
            "value": false
        },
        "containerId": {
            "value": null
        },
        "description": {
            "value": "<p>This rust red metal is liquid at room temperature, making it challenging for all but the most skilled metallurgists to craft with and earning it the name “quickiron” in some places.</p>\n<p>Djezet is also extremely reactive to magic, even in its solid, workable alloyed form. It glows when targeted by magic, and objects crafted with djezet alloys glow with scarlet striations, which lead some smiths to nickname it “tiger iron.”</p>\n<p>When targeted by spells, objects crafted from djezet alloys exhibit these glowing red markings that last for 1 round or the duration of the spell, whichever is longer. A djezet mass contains enough djezet to refine into up to two @Compendium[pf2e.equipment-srd.Djezet Dose]{Djezet Doses}.</p>\n<h2>Djezet Alloy Items</h2>\n<table class=\"pf2-table\">\n<thead>\n<tr>\n<th>Djezet Alloy Items</th>\n<th>Hardness</th>\n<th>HP</th>\n<th>BT</th>\n</tr>\n</thead>\n<tbody>\n<tr>\n<td><strong>Thin Items</strong></td>\n<td> </td>\n<td> </td>\n<td> </td>\n</tr>\n<tr>\n<td>Standard-grade</td>\n<td>5</td>\n<td>20</td>\n<td>10</td>\n</tr>\n<tr>\n<td>High-grade</td>\n<td>8</td>\n<td>32</td>\n<td>16</td>\n</tr>\n<tr>\n<td><strong>Items</strong></td>\n<td> </td>\n<td> </td>\n<td> </td>\n</tr>\n<tr>\n<td>Standard-grade</td>\n<td>9</td>\n<td>36</td>\n<td>18</td>\n</tr>\n<tr>\n<td>High-grade</td>\n<td>12</td>\n<td>48</td>\n<td>24</td>\n</tr>\n<tr>\n<td><strong>Structures</strong></td>\n<td> </td>\n<td> </td>\n<td> </td>\n</tr>\n<tr>\n<td>Standard-grade</td>\n<td>18</td>\n<td>72</td>\n<td>36</td>\n</tr>\n<tr>\n<td>High-grade</td>\n<td>24</td>\n<td>96</td>\n<td>48</td>\n</tr>\n</tbody>\n</table>"
        },
        "equipped": {
            "value": false
        },
        "equippedBulk": {
            "value": ""
        },
        "hardness": {
            "value": 0
        },
        "hp": {
            "value": 0
        },
        "identification": {
            "misidentified": {},
            "status": "identified",
            "unidentified": {
                "data": {
                    "description": {
                        "value": ""
                    }
                },
                "img": "",
                "name": ""
            }
        },
        "invested": {
            "value": null
        },
        "level": {
            "value": 0
        },
        "maxHp": {
            "value": 0
        },
        "negateBulk": {
            "value": "0"
        },
        "preciousMaterial": {
            "value": null
        },
        "preciousMaterialGrade": {
            "value": null
        },
        "price": {
            "value": "6000 gp"
        },
        "quantity": {
            "value": 1
        },
        "rules": [],
        "size": {
            "value": "med"
        },
        "source": {
            "value": "Pathfinder Lost Omens: The Grand Bazaar"
        },
        "stackGroup": {
            "value": ""
        },
        "traits": {
            "custom": "",
            "rarity": "rare",
            "value": [
                "precious"
            ]
        },
        "usage": {
            "value": "held-in-one-hand"
        },
        "weight": {
            "value": "1"
        }
    },
    "effects": [],
    "flags": {},
    "img": "systems/pf2e/icons/default-icons/equipment.svg",
    "name": "Djezet Alloy Ingot",
    "type": "equipment"
}
