{
    "_id": "8HxM35X8DDt2gw9d",
    "data": {
        "armor": {
            "value": 1
        },
        "baseItem": "leather-armor",
        "brokenThreshold": {
            "value": null
        },
        "bulkCapacity": {
            "value": ""
        },
        "category": "light",
        "check": {
            "value": 0
        },
        "collapsed": {
            "value": false
        },
        "containerId": {
            "value": ""
        },
        "description": {
            "value": "<p>Shining, slippery eelskin covers the plates of this +1 resilient greater slick leather armor. The armor gives you the ability to breathe water and grants you a +2 item bonus to Athletics checks to Swim and Stealth checks you attempt in the water.</p>\n<hr />\n<p><strong>Activate</strong><span class=\"pf2-icon\">D</span>Command, Interact</p>\n<p><strong>Frequency</strong> once per hour</p>\n<p><strong>Effect</strong> You cast a 2nd-level <em>@Compendium[pf2e.spells-srd.Shocking Grasp]{Shocking Grasp}</em> with a DC of 29.</p>\n<hr />\n<p><strong>Craft Requirements</strong> Supply one casting of <em>shocking grasp</em>.</p>\n<p>Automatically applied effects:</p>\n<ul>\n<li>+2 item bonus to Athletics checks to Swim</li>\n<li>+2 item bonus to Stealth checks you attempt in the water</li>\n</ul>"
        },
        "dex": {
            "value": 4
        },
        "equipped": {
            "value": false
        },
        "equippedBulk": {
            "value": "1"
        },
        "group": "leather",
        "hardness": {
            "value": null
        },
        "hp": {
            "value": null
        },
        "identification": {
            "misidentified": {},
            "status": "identified",
            "unidentified": {
                "data": {
                    "description": {
                        "value": ""
                    }
                },
                "img": "",
                "name": ""
            }
        },
        "invested": {
            "value": false
        },
        "level": {
            "value": 10
        },
        "maxHp": {
            "value": null
        },
        "negateBulk": {
            "value": "0"
        },
        "potency": {},
        "potencyRune": {
            "value": 1
        },
        "preciousMaterial": {
            "value": ""
        },
        "preciousMaterialGrade": {
            "value": ""
        },
        "price": {
            "value": "950 gp"
        },
        "propertyRune1": {
            "value": "greaterSlick"
        },
        "propertyRune2": {
            "value": ""
        },
        "propertyRune3": {
            "value": ""
        },
        "propertyRune4": {
            "value": ""
        },
        "quantity": {
            "value": 1
        },
        "resiliencyRune": {
            "value": "resilient"
        },
        "rules": [
            {
                "key": "FlatModifier",
                "label": "Electric Eelskin (Swim)",
                "predicate": {
                    "all": [
                        "action:swim"
                    ]
                },
                "selector": "athletics",
                "type": "item",
                "value": 2
            },
            {
                "key": "FlatModifier",
                "label": "Electric Eelskin (Water)",
                "predicate": {
                    "all": [
                        "terrain:water"
                    ]
                },
                "selector": "stealth",
                "type": "item",
                "value": 2
            }
        ],
        "size": {
            "value": "med"
        },
        "source": {
            "value": "Pathfinder Core Rulebook"
        },
        "speed": {
            "value": 0
        },
        "stackGroup": {
            "value": ""
        },
        "strength": {
            "value": 0
        },
        "traits": {
            "custom": "",
            "rarity": "common",
            "value": [
                "invested",
                "magical",
                "transmutation"
            ]
        },
        "usage": {
            "value": "wornarmor"
        },
        "weight": {
            "value": "2"
        }
    },
    "effects": [],
    "flags": {},
    "img": "systems/pf2e/icons/equipment/armor/specific-magic-armor/electric-eelskin.webp",
    "name": "Electric Eelskin",
    "type": "armor"
}
