{
    "_id": "WT9Yh0UNBHBlLNsJ",
    "data": {
        "baseItem": null,
        "brokenThreshold": {
            "value": 0
        },
        "bulkCapacity": {
            "value": ""
        },
        "collapsed": {
            "value": false
        },
        "containerId": {
            "value": null
        },
        "description": {
            "value": "<p>When opened, this grimoire has unlimited pages that, oddly, seem almost eager to transcribe spells. Unlike most grimoires, it has no limits to its number of spells. The grimoire's eagerness to contain your spells grants you a +2 item bonus to checks to Learn a Spell if you do so by transcribing the spell into the grimoire. If you use the grimoire during your daily preparations and are capable of preparing spells of the appropriate level, the grimoire's nature leaks into your mind, allowing you to prepare an additional 5th-level spell.</p>"
        },
        "equipped": {
            "value": false
        },
        "equippedBulk": {
            "value": ""
        },
        "hardness": {
            "value": 0
        },
        "hp": {
            "value": 0
        },
        "identification": {
            "misidentified": {},
            "status": "identified",
            "unidentified": {
                "data": {
                    "description": {
                        "value": ""
                    }
                },
                "img": "",
                "name": ""
            }
        },
        "invested": {
            "value": null
        },
        "level": {
            "value": 14
        },
        "maxHp": {
            "value": 0
        },
        "negateBulk": {
            "value": "0"
        },
        "preciousMaterial": {
            "value": null
        },
        "preciousMaterialGrade": {
            "value": null
        },
        "price": {
            "value": "4000 gp"
        },
        "quantity": {
            "value": 1
        },
        "rules": [
            {
                "key": "FlatModifier",
                "predicate": {
                    "all": [
                        "action:learn-a-spell"
                    ]
                },
                "selector": "occultism",
                "type": "item",
                "value": 2
            },
            {
                "key": "FlatModifier",
                "predicate": {
                    "all": [
                        "action:learn-a-spell"
                    ]
                },
                "selector": "arcana",
                "type": "item",
                "value": 2
            },
            {
                "key": "FlatModifier",
                "predicate": {
                    "all": [
                        "action:learn-a-spell"
                    ]
                },
                "selector": "religion",
                "type": "item",
                "value": 2
            },
            {
                "key": "FlatModifier",
                "predicate": {
                    "all": [
                        "action:learn-a-spell"
                    ]
                },
                "selector": "nature",
                "type": "item",
                "value": 1
            }
        ],
        "size": {
            "value": "med"
        },
        "source": {
            "value": "Pathfinder Secrets of Magic"
        },
        "stackGroup": {
            "value": ""
        },
        "traits": {
            "custom": "",
            "rarity": "common",
            "value": [
                "divination",
                "grimoire",
                "magical"
            ]
        },
        "usage": {
            "value": "held-in-one-hand"
        },
        "weight": {
            "value": "L"
        }
    },
    "effects": [],
    "flags": {},
    "img": "systems/pf2e/icons/default-icons/equipment.svg",
    "name": "Endless Grimoire (Major)",
    "type": "equipment"
}
