{
    "_id": "Qqh586pudsEqITUk",
    "data": {
        "baseItem": null,
        "brokenThreshold": {
            "value": 0
        },
        "bulkCapacity": {
            "value": ""
        },
        "collapsed": {
            "value": false
        },
        "containerId": {
            "value": null
        },
        "description": {
            "value": "<p>A weapon with this rune can absorb energy damage to empower it.</p>\n<hr />\n<p><strong>Activate</strong> <span class=\"pf2-icon\">r</span> envision</p>\n<p><strong>Trigger</strong> You take acid, cold, electricity, fire, or sonic damage</p>\n<p><strong>Effect</strong> The weapon becomes imbued with the triggering energy type. It deals an additional 1d8 damage of the triggering type until the end of your next turn. As normal, if you use this reaction again during the duration, the damage doesn't combine; instead, change the 1d8 damage to the new triggering type of damage and change the duration to the end of your next turn.</p>\n<p>@Compendium[pf2e.equipment-effects.Effect: Energizing Rune (Acid)]{Effect: Energizing Rune (Acid)}</p>\n<p>@Compendium[pf2e.equipment-effects.Effect: Energizing Rune (Cold)]{Effect: Energizing Rune (Cold)}</p>\n<p>@Compendium[pf2e.equipment-effects.Effect: Energizing Rune (Electricity)]{Effect: Energizing Rune (Electricity)}</p>\n<p>@Compendium[pf2e.equipment-effects.Effect: Energizing Rune (Fire)]{Effect: Energizing Rune (Fire)}</p>\n<p>@Compendium[pf2e.equipment-effects.Effect: Energizing Rune (Sonic)]{Effect: Energizing Rune (Sonic)}</p>"
        },
        "equipped": {
            "value": false
        },
        "equippedBulk": {
            "value": ""
        },
        "hardness": {
            "value": 0
        },
        "hp": {
            "value": 0
        },
        "identification": {
            "misidentified": {},
            "status": "identified",
            "unidentified": {
                "data": {
                    "description": {
                        "value": ""
                    }
                },
                "img": "",
                "name": ""
            }
        },
        "invested": {
            "value": null
        },
        "level": {
            "value": 6
        },
        "maxHp": {
            "value": 0
        },
        "negateBulk": {
            "value": "0"
        },
        "preciousMaterial": {
            "value": null
        },
        "preciousMaterialGrade": {
            "value": null
        },
        "price": {
            "value": "250 gp"
        },
        "quantity": {
            "value": 1
        },
        "rules": [],
        "size": {
            "value": "med"
        },
        "source": {
            "value": "Pathfinder Lost Omens: The Grand Bazaar"
        },
        "stackGroup": {
            "value": ""
        },
        "traits": {
            "custom": "",
            "rarity": "uncommon",
            "value": [
                "abjuration",
                "magical"
            ]
        },
        "usage": {
            "value": "etched-onto-a-weapon"
        },
        "weight": {
            "value": "-"
        }
    },
    "effects": [],
    "flags": {},
    "img": "systems/pf2e/icons/default-icons/equipment.svg",
    "name": "Energizing",
    "type": "equipment"
}
