{
    "_id": "f6xV2LRekhoYJVwD",
    "data": {
        "baseItem": null,
        "brokenThreshold": {
            "value": 0
        },
        "bulkCapacity": {
            "value": ""
        },
        "collapsed": {
            "value": false
        },
        "containerId": {
            "value": null
        },
        "description": {
            "value": "<p>This tattoo typically consists of an image of a small animal or of a familiar's name written in runes. Your familiar can meld into your <em>familiar tattoo</em> to be carried in your skin. The familiar must spend a single action, which has the magical, move, and transmutation traits, to meld into or exit your tattoo. It must be adjacent to you to meld into your tattoo, and it exits your tattoo in an open space adjacent to you. Any of the familiar's companion items remain on it, but it can't carry any other items with it. This tattoo is non-magical if you don't have a familiar or if your familiar doesn't remain present for the entire tattooing process. If your familiar dies, this tattoo loses its magic and becomes a mundane tattoo.</p>"
        },
        "equipped": {
            "value": false
        },
        "equippedBulk": {
            "value": ""
        },
        "hardness": {
            "value": 0
        },
        "hp": {
            "value": 0
        },
        "identification": {
            "misidentified": {},
            "status": "identified",
            "unidentified": {
                "data": {
                    "description": {
                        "value": ""
                    }
                },
                "img": "",
                "name": ""
            }
        },
        "invested": {
            "value": null
        },
        "level": {
            "value": 3
        },
        "maxHp": {
            "value": 0
        },
        "negateBulk": {
            "value": "0"
        },
        "preciousMaterial": {
            "value": null
        },
        "preciousMaterialGrade": {
            "value": null
        },
        "price": {
            "value": "60 gp"
        },
        "quantity": {
            "value": 1
        },
        "rules": [],
        "size": {
            "value": "med"
        },
        "source": {
            "value": "Pathfinder Secrets of Magic"
        },
        "stackGroup": {
            "value": ""
        },
        "traits": {
            "custom": "",
            "rarity": "common",
            "value": [
                "invested",
                "magical",
                "tattoo",
                "transmutation"
            ]
        },
        "usage": {
            "value": "tattooed-on-the-body"
        },
        "weight": {
            "value": "-"
        }
    },
    "effects": [],
    "flags": {},
    "img": "systems/pf2e/icons/default-icons/equipment.svg",
    "name": "Familiar Tattoo",
    "type": "equipment"
}
