{
    "_id": "vLsoZKRzYQV6FQve",
    "data": {
        "baseItem": null,
        "brokenThreshold": {
            "value": 0
        },
        "bulkCapacity": {
            "value": "4"
        },
        "capacity": {
            "type": "weight",
            "value": 0,
            "weightless": false
        },
        "collapsed": {
            "value": false
        },
        "containerId": {
            "value": null
        },
        "currency": {
            "cp": 0,
            "gp": 0,
            "pp": 0,
            "sp": 0
        },
        "description": {
            "value": "<p>This incredibly spacious bandolier can hold up to 4 one-handed crossbows or firearms that take no more than 1 action to completely reload (typically meaning that weapons with the capacity or repeating traits won't fit in the bandolier's holsters). A <em>gunner's bandolier</em> can be etched with runes as though it were a ranged weapon. When you invest the <em>gunner's bandolier</em>, you can attune it to each of the 4 weapons holstered in it.</p>\n<hr />\n<p><strong>Activate</strong> <span class=\"pf2-icon\">1</span> envision</p>\n<p><strong>Effect</strong> You empower one of the attuned weapons in the bandolier, granting it the runes etched onto the gunner's bandolier and removing the runes from any previously drawn weapon. Then, you Interact to draw the weapon.</p>\n<hr />\n<p><strong>Activate</strong> <span class=\"pf2-icon\">3</span> envision</p>\n<p><strong>Effect</strong> All weapons that were attuned to the bandolier when you invested it, not including any weapons you're currently wielding, return to the bandolier, and one of the returned weapons is automatically reloaded.</p>"
        },
        "equipped": {
            "value": false
        },
        "equippedBulk": {
            "value": ""
        },
        "hardness": {
            "value": 0
        },
        "hp": {
            "value": 0
        },
        "identification": {
            "misidentified": {},
            "status": "identified",
            "unidentified": {
                "data": {
                    "description": {
                        "value": ""
                    }
                },
                "img": "",
                "name": ""
            }
        },
        "invested": {
            "value": null
        },
        "level": {
            "value": 3
        },
        "maxHp": {
            "value": 0
        },
        "negateBulk": {
            "value": "0"
        },
        "preciousMaterial": {
            "value": null
        },
        "preciousMaterialGrade": {
            "value": null
        },
        "price": {
            "value": "60 gp"
        },
        "quantity": {
            "value": 1
        },
        "rules": [],
        "size": {
            "value": "med"
        },
        "source": {
            "value": "Pathfinder Guns & Gears"
        },
        "stackGroup": {
            "value": ""
        },
        "stowing": false,
        "traits": {
            "custom": "",
            "rarity": "uncommon",
            "value": [
                "conjuration",
                "invested",
                "magical"
            ]
        },
        "usage": {
            "value": "worn"
        },
        "weight": {
            "value": "L"
        }
    },
    "effects": [],
    "flags": {},
    "img": "systems/pf2e/icons/default-icons/backpack.svg",
    "name": "Gunner's Bandolier",
    "type": "backpack"
}
