{
    "_id": "dFG2yWRg5yNCfugI",
    "data": {
        "baseItem": null,
        "brokenThreshold": {
            "value": 0
        },
        "bulkCapacity": {
            "value": ""
        },
        "collapsed": {
            "value": false
        },
        "containerId": {
            "value": null
        },
        "description": {
            "value": "<p>This deep red cloak fits lightly about your shoulders, and the edges perpetually twitch slightly, as though caught in a breeze. The cloth feels smoother than silk, rippling and swaying like liquid when in motion. You feel a lively energy infusing your arms and legs. You gain a +3 item bonus to Acrobatics and Stealth, and a +2 circumstance bonus to AC against attacks from reactions triggered by your movement.</p>\n<p>When you invest the cloak, you either increase your Dexterity score by 2 or increase it to 18, whichever would give you a higher score.</p>\n<hr />\n<p><strong>Activate</strong> <span class=\"pf2-icon\">r</span> Interact</p>\n<p><strong>Frequency</strong> once per hour</p>\n<p><strong>Trigger</strong> An enemy misses you with a melee Strike</p>\n<p><strong>Effect</strong> You slip around the attacking creature with ease. You Step, without moving away from the triggering enemy, and then make a melee Strike against the triggering enemy if it's within reach. If you do make a Strike, the target attempts a <span data-pf2-check=\"perception\" data-pf2-traits=\"apex,invested,magical,transmutation\" data-pf2-label=\"Detect Reaction DC\" data-pf2-dc=\"38\" data-pf2-show-dc=\"all\">Perception</span> check before you roll.</p>\n<p><strong>Failure</strong> This creature is @Compendium[pf2e.conditionitems.Flat-Footed]{Flat-Footed} against the Strike.</p>\n<p><strong>Critical Failure</strong> This creature is flat-footed against all your attacks until the end of their next turn.</p>\n<hr />\n<p><strong>Activate</strong> <span class=\"pf2-icon\">2</span> command, envision (conjuration, teleportation)</p>\n<p><strong>Frequency</strong> once per day</p>\n<p><strong>Effect</strong> The cloak hums with power as your whirl it around yourself, disappearing amid a brief flash of light. Teleport up to double your Speed to a location you can see. At the end of the teleportation, you can make a melee Strike against a creature within reach, if there is one.</p>"
        },
        "equipped": {
            "value": false
        },
        "equippedBulk": {
            "value": ""
        },
        "hardness": {
            "value": 0
        },
        "hp": {
            "value": 0
        },
        "identification": {
            "misidentified": {},
            "status": "identified",
            "unidentified": {
                "data": {
                    "description": {
                        "value": ""
                    }
                },
                "img": "",
                "name": ""
            }
        },
        "invested": {
            "value": null
        },
        "level": {
            "value": 18
        },
        "maxHp": {
            "value": 0
        },
        "negateBulk": {
            "value": "0"
        },
        "preciousMaterial": {
            "value": null
        },
        "preciousMaterialGrade": {
            "value": null
        },
        "price": {
            "value": "24000 gp"
        },
        "quantity": {
            "value": 1
        },
        "rules": [
            {
                "key": "FlatModifier",
                "selector": "acrobatics",
                "type": "item",
                "value": 3
            },
            {
                "key": "FlatModifier",
                "selector": "stealth",
                "type": "item",
                "value": 3
            },
            {
                "key": "FlatModifier",
                "label": "Attack from Enemy Reaction due to Movement",
                "predicate": {
                    "all": [
                        "reaction:movement"
                    ]
                },
                "selector": "ac",
                "type": "circumstance",
                "value": 2
            },
            {
                "key": "ToggleProperty",
                "label": "Attack from Enemy Reaction due to Movement",
                "property": "flags.pf2e.rollOptions.all.reaction:movement"
            },
            {
                "key": "ActiveEffectLike",
                "mode": "add",
                "path": "data.abilities.dex.value",
                "value": 2
            },
            {
                "key": "ActiveEffectLike",
                "mode": "upgrade",
                "path": "data.abilities.dex.value",
                "value": 18
            }
        ],
        "size": {
            "value": "med"
        },
        "source": {
            "value": "Pathfinder Secrets of Magic"
        },
        "stackGroup": {
            "value": ""
        },
        "traits": {
            "custom": "",
            "rarity": "common",
            "value": [
                "apex",
                "invested",
                "magical",
                "transmutation"
            ]
        },
        "usage": {
            "value": "worncloak"
        },
        "weight": {
            "value": "L"
        }
    },
    "effects": [],
    "flags": {},
    "img": "systems/pf2e/icons/default-icons/equipment.svg",
    "name": "Mercurial Mantle",
    "type": "equipment"
}
