{
    "_id": "y2nb4D6iQOoc5LEX",
    "data": {
        "baseItem": null,
        "brokenThreshold": {
            "value": 0
        },
        "bulkCapacity": {
            "value": ""
        },
        "collapsed": {
            "value": false
        },
        "containerId": {
            "value": null
        },
        "description": {
            "value": "<p>The crime lord Miogimo almost always appears with this special mask, crafted with a piece of his soul.</p>\n<p>It has two forms. In its first form, the mask depicts a silvery and angelic face; while wearing the mask in this form, your alignment appears as lawful good to creatures attempting to detect your alignment. In its second form, the mask depicts a gold-skinned demonic face; while wearing the mask in this form, your alignment appears as chaotic evil to creatures attempting to detect your alignment. If you die while wearing the mask, a fragment of your soul is trapped in the mask, forming a life link. If there was already a soul fragment in the mask when this happens, you roll a <span data-pf2-check=\"will\" data-pf2-show-dc=\"gm\">Will</span> save against the Will DC of the person who left the previous fragment. If you succeed, your soul fragment replaces the old one. On a failure, you die normally.</p>\n<hr />\n<p><strong>Activate</strong><span class=\"pf2-icon\">1</span> envision</p>\n<p><strong>Effect</strong> You switch the mask to its other form.</p>\n<hr />\n<p><strong>Activate</strong><span class=\"pf2-icon\">2</span> envision</p>\n<p><strong>Frequency</strong> once per day</p>\n<p><strong>Effect</strong> You cast <em>@Compendium[pf2e.spells-srd.Crisis of Faith]{Crisis of Faith}</em> (<span data-pf2-check=\"will\" data-pf2-label=\"Crisis of Faith DC\" data-pf2-traits=\"divine,enchantment,mental\" data-pf2-dc=\"34\">Will</span>), targeting up to four creatures within 30 feet. If the mask is in its angelic form, you can target only evil and neutral creatures. If the mask is in its demonic form, you can target only good and neutral creatures.</p>\n<hr />\n<p><strong>Activate</strong> 10 minutes (command, envision, Interact)</p>\n<p><strong>Requirements</strong> A soul fragment is in the mask</p>\n<p><strong>Effect</strong> You cast <em>@Compendium[pf2e.spells-srd.Talking Corpse]{Talking Corpse}</em> on the soul fragment, except you communicate telepathically and don't require the fragment's body to speak.</p>"
        },
        "equipped": {
            "value": false
        },
        "equippedBulk": {
            "value": ""
        },
        "hardness": {
            "value": 0
        },
        "hp": {
            "value": 0
        },
        "identification": {
            "misidentified": {},
            "status": "identified",
            "unidentified": {
                "data": {
                    "description": {
                        "value": ""
                    }
                },
                "img": "",
                "name": ""
            }
        },
        "invested": {
            "value": null
        },
        "level": {
            "value": 16
        },
        "maxHp": {
            "value": 0
        },
        "negateBulk": {
            "value": "0"
        },
        "preciousMaterial": {
            "value": null
        },
        "preciousMaterialGrade": {
            "value": null
        },
        "price": {
            "value": "9500 gp"
        },
        "quantity": {
            "value": 1
        },
        "rules": [],
        "size": {
            "value": "med"
        },
        "source": {
            "value": "Pathfinder #161: Belly of the Black Whale"
        },
        "stackGroup": {
            "value": ""
        },
        "traits": {
            "custom": "",
            "rarity": "rare",
            "value": [
                "invested",
                "magical",
                "necromancy"
            ]
        },
        "usage": {
            "value": "wornmask"
        },
        "weight": {
            "value": "L"
        }
    },
    "effects": [],
    "flags": {},
    "img": "systems/pf2e/icons/equipment/worn-items/other-worn-items/miogimos-mask.webp",
    "name": "Miogimo's Mask",
    "type": "equipment"
}
