{
    "_id": "YG6HRwfMVK3jdslZ",
    "data": {
        "baseItem": null,
        "brokenThreshold": {
            "value": 0
        },
        "bulkCapacity": {
            "value": ""
        },
        "collapsed": {
            "value": false
        },
        "containerId": {
            "value": null
        },
        "description": {
            "value": "<p>Intense blue water magically holds its shape-a perfect sphere. The spell DC of any spell cast by Activating this item is 29.</p>\n<ul>\n<li><strong>Armor</strong> You gain resistance 10 to water effects and attacks by water creatures.</li>\n<li><strong>Weapon</strong> After you cast a water spell by Activating the droplet, your body becomes mistlike. Until the end of the turn, you can move through enemies' spaces. You can't move through creatures that have the water trait in this way.</li>\n</ul>\n<p><strong>Activate</strong> Cast a Spell</p>\n<p><strong>Effect</strong> You cast <em>@Compendium[pf2e.spells-srd.Spout]{Spout}</em>.</p>\n<hr />\n<p><strong>Activate</strong> Cast a Spell</p>\n<p><strong>Frequency</strong> once per day</p>\n<p><strong>Effect</strong> You cast 4th-level <em>@Compendium[pf2e.spells-srd.Aqueous Orb]{Aqueous Orb}</em> or <em>@Compendium[pf2e.spells-srd.Feet to Fins]{Feet to Fins}</em>.</p>\n<hr />\n<p><strong>Activate</strong> Cast a Spell</p>\n<p><strong>Frequency</strong> once per day</p>\n<p><strong>Effect</strong> You cast <em>@Compendium[pf2e.spells-srd.Hydraulic Torrent]{Hydraulic Torrent}</em>.</p>"
        },
        "equipped": {
            "value": false
        },
        "equippedBulk": {
            "value": ""
        },
        "hardness": {
            "value": 0
        },
        "hp": {
            "value": 0
        },
        "identification": {
            "misidentified": {},
            "status": "identified",
            "unidentified": {
                "data": {
                    "description": {
                        "value": ""
                    }
                },
                "img": "",
                "name": ""
            }
        },
        "invested": {
            "value": null
        },
        "level": {
            "value": 12
        },
        "maxHp": {
            "value": 0
        },
        "negateBulk": {
            "value": "0"
        },
        "preciousMaterial": {
            "value": null
        },
        "preciousMaterialGrade": {
            "value": null
        },
        "price": {
            "value": "1800 gp"
        },
        "quantity": {
            "value": 1
        },
        "rules": [],
        "size": {
            "value": "med"
        },
        "source": {
            "value": "Pathfinder Secrets of Magic"
        },
        "stackGroup": {
            "value": ""
        },
        "traits": {
            "custom": "",
            "rarity": "common",
            "value": [
                "evocation",
                "magical",
                "spellheart",
                "water"
            ]
        },
        "usage": {
            "value": "held-in-one-hand"
        },
        "weight": {
            "value": "-"
        }
    },
    "effects": [],
    "flags": {},
    "img": "systems/pf2e/icons/default-icons/equipment.svg",
    "name": "Perfect Droplet (Major)",
    "type": "equipment"
}
