{
    "_id": "lqzVHgmpCDnOVZs3",
    "data": {
        "baseItem": null,
        "brokenThreshold": {
            "value": 0
        },
        "bulkCapacity": {
            "value": ""
        },
        "collapsed": {
            "value": false
        },
        "containerId": {
            "value": null
        },
        "description": {
            "value": "<p>This @Compendium[pf2e.equipment-srd.Lantern (Bull's Eye)]{Lantern (Bull's Eye)} is wrapped in decrepit leather skin. It constantly emits light in a @Template[type:cone|distance:60] (and dim light in the next 60 feet). You can close or open internal shutters with an Interact action to block or reveal the light.</p>\n<hr />\n<p><strong>Activate</strong> <span class=\"pf2-icon\">2</span> Interact</p>\n<p><strong>Frequency</strong> once per day</p>\n<p><strong>Effect</strong> You slide in a magical lens that causes the lantern to emit a pale green light and then aim the lantern. All creatures in the lantern's @Template[type:cone|distance:60] of bright light (but not those in the dim light), must attempt a <span data-pf2-check=\"fortitude\" data-pf2-traits=\"uncommon,light,magical,necromancy\" data-pf2-label=\"Queasy Lantern DC\" data-pf2-dc=\"29\" data-pf2-show-dc=\"all\">Fortitude</span> save. On a failure, a creature becomes @Compendium[pf2e.conditionitems.Sickened]{Sickened 2} (@Compendium[pf2e.conditionitems.Sickened]{Sickened 3} on a critical failure). The light then reverts to normal as the lens slides out of place.</p>"
        },
        "equipped": {
            "value": false
        },
        "equippedBulk": {
            "value": ""
        },
        "hardness": {
            "value": 0
        },
        "hp": {
            "value": 0
        },
        "identification": {
            "misidentified": {},
            "status": "identified",
            "unidentified": {
                "data": {
                    "description": {
                        "value": ""
                    }
                },
                "img": "",
                "name": ""
            }
        },
        "invested": {
            "value": null
        },
        "level": {
            "value": 12
        },
        "maxHp": {
            "value": 0
        },
        "negateBulk": {
            "value": "0"
        },
        "preciousMaterial": {
            "value": null
        },
        "preciousMaterialGrade": {
            "value": null
        },
        "price": {
            "value": "1700 gp"
        },
        "quantity": {
            "value": 1
        },
        "rules": [],
        "size": {
            "value": "med"
        },
        "source": {
            "value": "Pathfinder Lost Omens: The Grand Bazaar"
        },
        "stackGroup": {
            "value": ""
        },
        "traits": {
            "custom": "",
            "rarity": "uncommon",
            "value": [
                "light",
                "magical",
                "necromancy"
            ]
        },
        "usage": {
            "value": "held-in-one-hand"
        },
        "weight": {
            "value": "1"
        }
    },
    "effects": [],
    "flags": {},
    "img": "systems/pf2e/icons/default-icons/equipment.svg",
    "name": "Queasy Lantern (Moderate)",
    "type": "equipment"
}
