{
    "_id": "faKyy6ETkDgrUnvf",
    "data": {
        "baseItem": null,
        "brokenThreshold": {
            "value": 0
        },
        "bulkCapacity": {
            "value": ""
        },
        "collapsed": {
            "value": false
        },
        "containerId": {
            "value": ""
        },
        "description": {
            "value": "<p>This ring is made from the purest platinum and is covered in esoteric arcane symbols. It does nothing unless you have a spellcasting class feature with the arcane tradition. While wearing the ring of wizardry, you gain a +1 item bonus to Arcana checks and have two additional 1st-level arcane spell slots each day. You prepare spells in these slots or cast from them spontaneously, just as you normally cast your spells.</p>\n<p>If you take off the ring for any reason, you lose the additional spell slots. You can't gain spell slots from more than one ring of wizardry per day, nor can a single ring of wizardry grant spell slots more than once per day.</p>\n<p>If you can cast arcane spells in a variety of different ways (such as if you are a draconic bloodline sorcerer with the wizard multiclass archetype), you can divide the spell slots as you wish among your various sources of arcane spells.</p>\n<p><strong>Craft Requirements</strong> You have a spellcasting class feature with the arcane tradition.</p>\n<hr />\n<p>Automatically applied effects:</p>\n<ul>\n<li>+1 item bonus to Arcana checks </li>\n</ul>"
        },
        "equipped": {
            "value": false
        },
        "equippedBulk": {
            "value": ""
        },
        "hardness": {
            "value": 0
        },
        "hp": {
            "value": 0
        },
        "identification": {
            "misidentified": {},
            "status": "identified",
            "unidentified": {
                "data": {
                    "description": {
                        "value": ""
                    }
                },
                "img": "",
                "name": ""
            }
        },
        "invested": {
            "value": false
        },
        "level": {
            "value": 7
        },
        "maxHp": {
            "value": 0
        },
        "negateBulk": {
            "value": ""
        },
        "preciousMaterial": {
            "value": ""
        },
        "preciousMaterialGrade": {
            "value": ""
        },
        "price": {
            "value": "360 gp"
        },
        "quantity": {
            "value": 1
        },
        "rules": [
            {
                "key": "FlatModifier",
                "selector": "arcana",
                "type": "item",
                "value": 1
            }
        ],
        "size": {
            "value": "med"
        },
        "source": {
            "value": "Pathfinder Core Rulebook"
        },
        "stackGroup": {
            "value": ""
        },
        "traits": {
            "custom": "",
            "rarity": "uncommon",
            "value": [
                "arcane",
                "divination",
                "invested"
            ]
        },
        "usage": {
            "value": "worn"
        },
        "weight": {
            "value": "-"
        }
    },
    "effects": [],
    "flags": {},
    "img": "systems/pf2e/icons/equipment/worn-items/other-worn-items/ring-of-wizardry.webp",
    "name": "Ring of Wizardry (Type I)",
    "type": "equipment"
}
