{
    "_id": "6wVWwpL9pYr3yQtt",
    "data": {
        "baseItem": null,
        "brokenThreshold": {
            "value": 0
        },
        "bulkCapacity": {
            "value": ""
        },
        "collapsed": {
            "value": false
        },
        "containerId": {
            "value": ""
        },
        "description": {
            "value": "<p>This peculiar rod is strange and unpredictable. Each time it is activated, it produces one of a variety of effects at random.</p>\n<p><strong>Activate</strong> <span class=\"pf2-icon\">D</span> command, Interact</p>\n<p><strong>Effect</strong> Choose a creature within 60 feet and roll d% on the table below to determine the rod's effect. If an entry lists only a spell name, the rod casts that spell at its lowest level. You make any decisions for a spell cast by the rod unless otherwise indicated, except that it must target the creature you chose, or the creature you chose must be the center of the spell's area, if it has an area but no targets. If the spell's range is less than 60 feet, increase the range to 60 feet.</p>\n<p>Any spell DC required is DC 27, and any spell attack roll required is [[/r 1d20+17]]. If the rod casts a spell on you, you don't get a saving throw or other defense against it.</p>\n<p>Once activated, the rod can't be activated again for [[/r 1d4]] hours.</p>\n<p>Roll on the @Compendium[pf2e.rollable-tables.Rod of Wonder]{Rod of Wonder} table to determine the outcome.</p>"
        },
        "equipped": {
            "value": false
        },
        "equippedBulk": {
            "value": ""
        },
        "hardness": {
            "value": 0
        },
        "hp": {
            "value": 0
        },
        "identification": {
            "misidentified": {},
            "status": "identified",
            "unidentified": {
                "data": {
                    "description": {
                        "value": ""
                    }
                },
                "img": "",
                "name": ""
            }
        },
        "invested": {
            "value": false
        },
        "level": {
            "value": 8
        },
        "maxHp": {
            "value": 0
        },
        "negateBulk": {
            "value": ""
        },
        "preciousMaterial": {
            "value": ""
        },
        "preciousMaterialGrade": {
            "value": ""
        },
        "price": {
            "value": "465 gp"
        },
        "quantity": {
            "value": 1
        },
        "rules": [],
        "size": {
            "value": "med"
        },
        "source": {
            "value": "Pathfinder Core Rulebook"
        },
        "stackGroup": {
            "value": ""
        },
        "traits": {
            "custom": "",
            "rarity": "rare",
            "value": [
                "chaotic",
                "evocation",
                "magical"
            ]
        },
        "usage": {
            "value": "held-in-one-hand"
        },
        "weight": {
            "value": "L"
        }
    },
    "effects": [],
    "flags": {},
    "img": "systems/pf2e/icons/equipment/held-items/rod-of-wonder.webp",
    "name": "Rod of Wonder",
    "type": "equipment"
}
