{
    "_id": "jkYn89XREERA3V2e",
    "data": {
        "MAP": {
            "value": ""
        },
        "baseItem": null,
        "bonus": {
            "value": 0
        },
        "bonusDamage": {
            "value": 0
        },
        "brokenThreshold": {
            "value": 0
        },
        "bulkCapacity": {
            "value": ""
        },
        "category": "martial",
        "collapsed": {
            "value": false
        },
        "containerId": {
            "value": ""
        },
        "damage": {
            "damageType": "slashing",
            "dice": 1,
            "die": "d4",
            "value": ""
        },
        "description": {
            "value": "<p>These strange curved blades are jagged and deadly weapons made from the alchemically strengthened teeth of dead urdefhans. Each weapon is typically named for the urdefhan whose teeth were forged into the weapon, which are often carried (and revered) by that urdefhan's descendants. Magical shauth blades allow an urdefhan wielder to channel their Wicked Bite ability through shauth blade Strikes.</p>"
        },
        "equipped": {
            "value": false
        },
        "equippedBulk": {
            "value": ""
        },
        "group": "knife",
        "hands": {
            "value": ""
        },
        "hardness": {
            "value": 0
        },
        "hp": {
            "value": 0
        },
        "identification": {
            "misidentified": {},
            "status": "identified",
            "unidentified": {
                "data": {
                    "description": {
                        "value": ""
                    }
                },
                "img": "",
                "name": ""
            }
        },
        "invested": {
            "value": false
        },
        "level": {
            "value": 0
        },
        "maxHp": {
            "value": 0
        },
        "negateBulk": {
            "value": "0"
        },
        "potencyRune": {
            "value": null
        },
        "preciousMaterial": {
            "value": ""
        },
        "preciousMaterialGrade": {
            "value": ""
        },
        "price": {
            "value": "2 gp"
        },
        "property1": {
            "critDamage": "",
            "critDamageType": "",
            "critDice": 0,
            "critDie": "",
            "criticalConditionType": "",
            "criticalConditionValue": null,
            "damageType": "",
            "dice": 0,
            "die": "",
            "strikeConditionType": "",
            "strikeConditionValue": null,
            "value": ""
        },
        "propertyRune1": {
            "value": ""
        },
        "propertyRune2": {
            "value": ""
        },
        "propertyRune3": {
            "value": ""
        },
        "propertyRune4": {
            "value": ""
        },
        "quantity": {
            "value": 1
        },
        "range": null,
        "reload": {
            "value": ""
        },
        "rules": [],
        "size": {
            "value": "med"
        },
        "source": {
            "value": "Pathfinder #165: Eyes of Empty Death"
        },
        "splashDamage": {
            "value": 0
        },
        "stackGroup": {
            "value": ""
        },
        "strikingRune": {
            "value": ""
        },
        "traits": {
            "custom": "",
            "rarity": "uncommon",
            "value": [
                "agile",
                "deadly-d8",
                "finesse",
                "versatile-p"
            ]
        },
        "usage": {
            "value": "held-in-one-hand"
        },
        "weight": {
            "value": "L"
        }
    },
    "effects": [],
    "flags": {},
    "img": "systems/pf2e/icons/equipment/weapons/shauth-blade.webp",
    "name": "Shauth Blade",
    "type": "weapon"
}
