{
    "_id": "3ytZSLqXQdNCuV4l",
    "data": {
        "armor": {
            "value": 0
        },
        "baseItem": "explorers-clothing",
        "brokenThreshold": {
            "value": null
        },
        "bulkCapacity": {
            "value": ""
        },
        "category": "unarmored",
        "check": {
            "value": -1
        },
        "collapsed": {
            "value": false
        },
        "containerId": {
            "value": ""
        },
        "description": {
            "value": "<p>An impenetrable swarmsuit is made of expensive, finely crafted mesh designed to completely prevent swarms from getting inside. You gain resistance 10 to physical damage from swarms. Explorer's clothing altered in this way has a Dexterity cap of +2, check penalty of -1, and Speed penalty of -5 feet regardless of your Strength.</p>"
        },
        "dex": {
            "value": 2
        },
        "equipped": {
            "value": false
        },
        "equippedBulk": {
            "value": "L"
        },
        "group": null,
        "hardness": {
            "value": null
        },
        "hp": {
            "value": null
        },
        "identification": {
            "misidentified": {},
            "status": "identified",
            "unidentified": {
                "data": {
                    "description": {
                        "value": ""
                    }
                },
                "img": "",
                "name": ""
            }
        },
        "invested": {
            "value": false
        },
        "level": {
            "value": 8
        },
        "maxHp": {
            "value": null
        },
        "negateBulk": {
            "value": "0"
        },
        "potencyRune": {
            "value": 0
        },
        "preciousMaterial": {
            "value": null
        },
        "preciousMaterialGrade": {
            "value": null
        },
        "price": {
            "value": "420 gp"
        },
        "propertyRune1": {
            "value": ""
        },
        "propertyRune2": {
            "value": ""
        },
        "propertyRune3": {
            "value": ""
        },
        "propertyRune4": {
            "value": ""
        },
        "quantity": {
            "value": 1
        },
        "resiliencyRune": {
            "value": ""
        },
        "rules": [
            {
                "key": "FlatModifier",
                "predicate": {
                    "not": [
                        "armor:ignore-speed-penalty"
                    ]
                },
                "selector": "land-speed",
                "value": -5
            }
        ],
        "size": {
            "value": "med"
        },
        "source": {
            "value": "Pathfinder Lost Omens: The Grand Bazaar"
        },
        "speed": {
            "value": -5
        },
        "stackGroup": {
            "value": ""
        },
        "strength": {
            "value": 0
        },
        "traits": {
            "custom": "",
            "rarity": "common",
            "value": []
        },
        "usage": {
            "value": "wornarmor"
        },
        "weight": {
            "value": "1"
        }
    },
    "effects": [],
    "flags": {},
    "img": "systems/pf2e/icons/equipment/adventuring-gear/clothes-explorers.webp",
    "name": "Swarmsuit (Impenetrable)",
    "type": "armor"
}
