{
    "_id": "2VpuNz8EyXpvUf7P",
    "data": {
        "baseItem": null,
        "brokenThreshold": {
            "value": 0
        },
        "bulkCapacity": {
            "value": ""
        },
        "collapsed": {
            "value": false
        },
        "containerId": {
            "value": ""
        },
        "description": {
            "value": "<p>This gold necklace sports six bails, each with a different aeon stone. The backside of each bail is engraved with a single ancient Azlanti rune: Patience, Remembrance, Resilience, Tenacity, Wisdom, Invention.</p>\n<p>While a bail is active, you recall pieces of childhood memories, brief stories and lessons spoken to you by Aroden. The knowledge imparted by each bail carries a specific power but also allows you to access the invested and resonant powers of the<em>aeon stone</em>in the active bail's slot as though the stone orbited your head. Each day at dawn, a new bail becomes active; roll 1d6 to determine which bail is active, determined by the table below. Only one bail can be active at any time.</p>\n<p>Once per day, you can attempt to exchange the aeon stone in a given bail for another aeon stone with a successful DC 35 Arcana check.</p>\n<table class=\"pf2-table\">\n<thead>\n<tr>\n<th>1D6</th>\n<th>Bail</th>\n<th>Default Aeon Stone</th>\n</tr>\n</thead>\n<tbody>\n<tr>\n<td>1</td>\n<td>Patience</td>\n<td>Gold nodule</td>\n</tr>\n<tr>\n<td> </td>\n<td colspan=\"2\"><strong>Active Power</strong> Telepathy with a range of 100 feet</td>\n</tr>\n<tr>\n<td>2</td>\n<td>Rememberance</td>\n<td>Tourmaline sphere</td>\n</tr>\n<tr>\n<td> </td>\n<td colspan=\"2\"><strong>Active Power</strong> Cast <em>@Compendium[pf2e.spells-srd.Hypercognition]{Hypercognition}</em> at will</td>\n</tr>\n<tr>\n<td>3</td>\n<td>Resilience</td>\n<td>Clear spindle</td>\n</tr>\n<tr>\n<td> </td>\n<td colspan=\"2\"><strong>Active Power</strong> Worn armor gains the antimagic property rune</td>\n</tr>\n<tr>\n<td>4</td>\n<td>Tenacity</td>\n<td>Pink rhomboid</td>\n</tr>\n<tr>\n<td> </td>\n<td colspan=\"2\"><strong>Active Power</strong> Wielded weapons gain the vorpal property rune</td>\n</tr>\n<tr>\n<td>5</td>\n<td>Wisdom</td>\n<td>Orange prism</td>\n</tr>\n<tr>\n<td> </td>\n<td colspan=\"2\"><strong>Active Power</strong> Skill checks for downtime activities or to Recall Knowledge are one degree of success higher</td>\n</tr>\n<tr>\n<td>6</td>\n<td>Invention</td>\n<td>Lavender and green ellipsoid</td>\n</tr>\n<tr>\n<td> </td>\n<td colspan=\"2\"><strong>Active Power</strong> You can craft items up to 5 levels higher than your actual level</td>\n</tr>\n</tbody>\n</table>\n<p><strong>Destruction</strong> The memories and lessons that echo through the <em>Tears of the Last Azlanti</em> give clues about steps needed to destroy the artifact. After you have gained the power of each of the six aeon stones at least once, you are granted visions of six locations across Golarion. At each of these locations, you must replace one of the necklace's aeon stones with a <em>dull gray aeon stone</em>. Once the final stone is replaced, the powers of the necklace are drawn into its new stones. These stones become pieces of throneglass, and the chain and bails disintegrate.</p>"
        },
        "equipped": {
            "value": false
        },
        "equippedBulk": {
            "value": ""
        },
        "hardness": {
            "value": 0
        },
        "hp": {
            "value": 0
        },
        "identification": {
            "misidentified": {},
            "status": "identified",
            "unidentified": {
                "data": {
                    "description": {
                        "value": ""
                    }
                },
                "img": "",
                "name": ""
            }
        },
        "invested": {
            "value": false
        },
        "level": {
            "value": 25
        },
        "maxHp": {
            "value": 0
        },
        "negateBulk": {
            "value": "0"
        },
        "preciousMaterial": {
            "value": ""
        },
        "preciousMaterialGrade": {
            "value": ""
        },
        "price": {
            "value": "0 gp"
        },
        "quantity": {
            "value": 1
        },
        "rules": [],
        "size": {
            "value": "med"
        },
        "source": {
            "value": "Pathfinder #156: The Apocalypse Prophet"
        },
        "stackGroup": {
            "value": ""
        },
        "traits": {
            "custom": "",
            "rarity": "unique",
            "value": [
                "arcane",
                "artifact",
                "invested",
                "transmutation"
            ]
        },
        "usage": {
            "value": "wornnecklace"
        },
        "weight": {
            "value": "L"
        }
    },
    "effects": [],
    "flags": {},
    "img": "systems/pf2e/icons/equipment/artifacts/tears-of-the-last-azlanti.webp",
    "name": "Tears of the Last Azlanti",
    "type": "equipment"
}
