{
    "_id": "dlaDnZFsy4JCYmEO",
    "data": {
        "activation": {
            "condition": "",
            "cost": 0,
            "type": ""
        },
        "autoDestroy": {
            "_deprecated": true,
            "value": true
        },
        "autoUse": {
            "_deprecated": true,
            "value": true
        },
        "baseItem": null,
        "brokenThreshold": {
            "value": 0
        },
        "bulkCapacity": {
            "value": ""
        },
        "charges": {
            "_deprecated": true,
            "max": 0,
            "value": 0
        },
        "collapsed": {
            "value": false
        },
        "consumableType": {
            "value": "poison"
        },
        "consume": {
            "_deprecated": true,
            "value": ""
        },
        "containerId": {
            "value": null
        },
        "description": {
            "value": "<p>This thick, oily salve reacts with the air to exude a toxic mucus when applied to skin. Once it's applied, you can activate the salve in one of the two ways detailed below. After either reaction has been used, the remaining mucus loses its reactive properties and falls away as the effect ends. You can only have one dose applied at a time. If you don't use either reaction, after 1 hour, the mucus flakes away and the effect ends.</p>\n<hr />\n<p><strong>Activate</strong> <span class=\"pf2-icon\">r</span> Interact</p>\n<p><strong>Trigger</strong> You hit a creature with a melee Strike</p>\n<p><strong>Effect</strong> You fling mucus on the creature, dealing [[/r {3d4}[persistent,poison]]] @Compendium[pf2e.conditionitems.Persistent Damage]{Persistent Poison Damage}.</p>\n<hr />\n<p><strong>Activate</strong> <span class=\"pf2-icon\">r</span> Interact</p>\n<p><strong>Trigger</strong> You are hit with a melee attack that deals physical damage</p>\n<p><strong>Effect</strong> The mucus dulls the blow, granting you resistance 8 to physical damage against the triggering attack.</p>"
        },
        "duration": {
            "units": "",
            "value": null
        },
        "equipped": {
            "value": false
        },
        "equippedBulk": {
            "value": ""
        },
        "hardness": {
            "value": 0
        },
        "hp": {
            "value": 0
        },
        "identification": {
            "misidentified": {},
            "status": "identified",
            "unidentified": {
                "data": {
                    "description": {
                        "value": ""
                    }
                },
                "img": "",
                "name": ""
            }
        },
        "level": {
            "value": 11
        },
        "maxHp": {
            "value": 0
        },
        "negateBulk": {
            "value": "0"
        },
        "preciousMaterial": {
            "value": null
        },
        "preciousMaterialGrade": {
            "value": null
        },
        "price": {
            "value": "225 gp"
        },
        "quantity": {
            "value": 1
        },
        "range": {
            "long": null,
            "units": "",
            "value": null
        },
        "rules": [],
        "size": {
            "value": "med"
        },
        "source": {
            "value": "Pathfinder Lost Omens: The Grand Bazaar"
        },
        "spell": {
            "data": null,
            "heightenedLevel": null
        },
        "stackGroup": {
            "value": ""
        },
        "target": {
            "type": "",
            "units": "",
            "value": null
        },
        "traits": {
            "custom": "",
            "rarity": "uncommon",
            "value": [
                "alchemical",
                "consumable",
                "poison"
            ]
        },
        "usage": {
            "value": "held-in-one-hand"
        },
        "uses": {
            "autoDestroy": true,
            "autoUse": true,
            "max": 0,
            "per": null,
            "value": 0
        },
        "weight": {
            "value": "L"
        }
    },
    "effects": [],
    "flags": {},
    "img": "systems/pf2e/icons/default-icons/consumable.svg",
    "name": "Toadskin Salve (Major)",
    "type": "consumable"
}
