{
    "_id": "Z7xfDpdf1qwkJR94",
    "data": {
        "baseItem": null,
        "brokenThreshold": {
            "value": 0
        },
        "bulkCapacity": {
            "value": ""
        },
        "collapsed": {
            "value": false
        },
        "containerId": {
            "value": null
        },
        "description": {
            "value": "<p>A forked, lightning-like crack runs down the length of this ornate stone wand, which rumbles slightly with the peals of distant thunder.</p>\n<hr />\n<p><strong>Activate</strong> Cast a Spell</p>\n<p><strong>Frequency</strong> once per day, plus overcharge</p>\n<p><strong>Effect</strong> You cast <em>@Compendium[pf2e.spells-srd.Sound Burst]{Sound Burst}</em> of the indicated level. After you Cast the Spell, at the start of each of your turns, the sound echoes in the same area as if you had cast it again, though it deals one fewer d10. This effect lasts until the damage is reduced to below 2d10. The echoes don't affect structures or other items.</p>\n<hr />\n<p><strong>Craft Requirements</strong> Supply a casting of <em>sound burst</em> of the appropriate level.</p>"
        },
        "equipped": {
            "value": false
        },
        "equippedBulk": {
            "value": ""
        },
        "hardness": {
            "value": 0
        },
        "hp": {
            "value": 0
        },
        "identification": {
            "misidentified": {},
            "status": "identified",
            "unidentified": {
                "data": {
                    "description": {
                        "value": ""
                    }
                },
                "img": "",
                "name": ""
            }
        },
        "invested": {
            "value": null
        },
        "level": {
            "value": 19
        },
        "maxHp": {
            "value": 0
        },
        "negateBulk": {
            "value": "0"
        },
        "preciousMaterial": {
            "value": null
        },
        "preciousMaterialGrade": {
            "value": null
        },
        "price": {
            "value": "40000 gp"
        },
        "quantity": {
            "value": 1
        },
        "rules": [],
        "size": {
            "value": "med"
        },
        "source": {
            "value": "Pathfinder Lost Omens: The Grand Bazaar"
        },
        "stackGroup": {
            "value": ""
        },
        "traits": {
            "custom": "",
            "rarity": "uncommon",
            "value": [
                "evocation",
                "magical",
                "sonic",
                "wand"
            ]
        },
        "usage": {
            "value": "held-in-one-hand"
        },
        "weight": {
            "value": "L"
        }
    },
    "effects": [],
    "flags": {},
    "img": "systems/pf2e/icons/default-icons/equipment.svg",
    "name": "Wand of Thundering Echoes (8th-Level Spell)",
    "type": "equipment"
}
