{
    "_id": "uDQw7YPMiKPXCbaV",
    "data": {
        "actionCategory": {
            "value": ""
        },
        "actionType": {
            "value": "passive"
        },
        "actions": {
            "value": null
        },
        "description": {
            "value": "<p>Your eyes are imbued with an inner light that is not visible externally but that provides you with darkvision and the ability to distinguish color in darkness. You can also focus this inner light to manifest as a brilliant beam of energy from your eyes.</p>\n<hr />\n<p><strong>Activate</strong> <span class=\"pf2-icon\">2</span> envision</p>\n<p><strong>Frequency</strong> once per day</p>\n<p><strong>Effect</strong> You cast <em>@Compendium[pf2e.spells-srd.Searing Light]{Searing Light}</em> as an innate divine spell, heightened to a spell level equal to half your level rounded up.</p>"
        },
        "featType": {
            "value": "deityboon"
        },
        "level": {
            "value": 10
        },
        "location": "",
        "prerequisites": {
            "value": []
        },
        "rules": [
            {
                "acuity": "precise",
                "key": "Sense",
                "selector": "darkvision"
            }
        ],
        "source": {
            "value": "Pathfinder #153: Life's Long Shadows"
        },
        "traits": {
            "custom": "",
            "rarity": "common",
            "value": [
                "light",
                "magical",
                "transmutation"
            ]
        }
    },
    "effects": [],
    "flags": {},
    "img": "systems/pf2e/icons/features/classes/devotion-spells.webp",
    "name": "Resonant Reflection: Reflection of Light",
    "type": "feat"
}
