{
    "_id": "5DBYunGL2HV8aekO",
    "data": {
        "actionCategory": {
            "value": ""
        },
        "actionType": {
            "value": "passive"
        },
        "actions": {
            "value": null
        },
        "description": {
            "value": "<p>Your body is infused with the resilience and durability of stone. You are protected against the effects of severe cold and severe heat. In addition, you can also focus this durability to gain an additional effect.</p>\n<hr />\n<p><strong>Activate</strong> <span class=\"pf2-icon\">2</span> envision</p>\n<p><strong>Frequency</strong> once per day</p>\n<p><strong>Effect</strong> You cast <em>@Compendium[pf2e.spells-srd.Stoneskin]{Stoneskin}</em> as an innate divine spell, heightened to a spell level equal to half your level rounded up.</p>"
        },
        "featType": {
            "value": "deityboon"
        },
        "level": {
            "value": 10
        },
        "location": "",
        "prerequisites": {
            "value": []
        },
        "rules": [],
        "source": {
            "value": "Pathfinder #153: Life's Long Shadows"
        },
        "traits": {
            "custom": "",
            "rarity": "common",
            "value": [
                "abjuration",
                "earth",
                "magical"
            ]
        }
    },
    "effects": [],
    "flags": {},
    "img": "systems/pf2e/icons/features/classes/elemental.webp",
    "name": "Resonant Reflection: Reflection of Stone",
    "type": "feat"
}
