{
    "_id": "XUyHffBEQ7K2bsiP",
    "data": {
        "attributes": {
            "ac": {
                "value": 18
            },
            "hardness": 13,
            "hasHealth": true,
            "hp": {
                "details": "",
                "max": 50,
                "temp": 0,
                "value": 50
            },
            "stealth": {
                "details": "",
                "value": 8
            }
        },
        "creatureType": "",
        "details": {
            "description": "<p>A surge of abyssal energy creates a powerful wave pushing away from the monolith.</p>",
            "disable": "<p>DC 22 Arcana, Occultism, or Religion to magically alter the runes, or DC 25 Thievery to physically alter them. A PC that can read Abyssal or Cyclops is better able to identify key runes, gaining a +1 circumstance bonus to these check (+2 if they speak both). Each check requires two actions, and disabling the monolith requires three successful checks. A PC that critically succeeds earns two success. On a failed check, the attempting PC is exposed to the burning flames wreathing the monolith, taking [[/r {2d6}[fire]]]{2d6 fire damage} (<span data-pf2-check=\"reflex\" data-pf2-traits=\"damaging-effect\" data-pf2-dc=\"22\">basic Reflex</span> save).</p>",
            "isComplex": true,
            "level": {
                "value": 4
            },
            "reset": "",
            "routine": "<p>On the hazard's turn it sends a wave of water along the fork of the river (North, South, or East) that contains the nearest PC. Any creature along that fork in or on the surface of the water must attempt a <span data-pf2-check=\"fortitude\" data-pf2-label=\"Flooding Monolith DC\" data-pf2-dc=\"22\">Fortitude</span> save.</p>\n<p>The monolith's guardians are accustomed to these surges and are immune to this effect.</p>\n<hr />\n<p><strong>Critical Success</strong> The creature takes advantage of the undertow after the surge to reposition themselves. The creature can Step, ignoring difficult terrain caused by the water.</p>\n<p><strong>Success</strong> The creature is unaffected.</p>\n<p><strong>Failure</strong> The creature is pushed 10 feet away from the monolith.</p>\n<p><strong>Critical Failure</strong> The creature is pushed 15 feet away from the monolith and knocked @Compendium[pf2e.conditionitems.Prone]{Prone}.</p>"
        },
        "saves": {
            "fortitude": {
                "saveDetail": "",
                "value": 15
            },
            "reflex": {
                "saveDetail": "",
                "value": 8
            },
            "will": {
                "saveDetail": "",
                "value": 0
            }
        },
        "source": {
            "value": ""
        },
        "statusEffects": [],
        "traits": {
            "ci": [],
            "di": {
                "custom": "",
                "selected": {},
                "value": [
                    "precision",
                    "critical-hits",
                    "object-immunities"
                ]
            },
            "dr": [],
            "dv": [],
            "rarity": "common",
            "size": {
                "value": "med"
            },
            "traits": {
                "custom": "",
                "value": [
                    "environmental"
                ]
            }
        }
    },
    "effects": [],
    "flags": {},
    "img": "systems/pf2e/icons/default-icons/hazard.svg",
    "items": [
        {
            "_id": "X2ev5CVRF0E843MK",
            "data": {
                "actionCategory": {
                    "value": ""
                },
                "actionType": {
                    "value": "reaction"
                },
                "actions": {
                    "value": null
                },
                "description": {
                    "value": "<p data-visibility=\"gm\"><strong>Trigger</strong> A creature other than the monolith's guardians approaches within 40 feet of the monolith</p>\n<p><strong>Effect</strong> the flames wreathing the monolith flare with incandescent light. The triggering creature must attempt a <span data-pf2-check=\"fortitude\" data-pf2-label=\"Flare DC\" data-pf2-dc=\"22\" data-pf2-show-dc=\"gm\">Fortitude</span> save.</p>\n<p>On a failure, the creature is @Compendium[pf2e.conditionitems.Dazzled]{Dazzled} for one round.</p>\n<p>On a critical failure, the creature is @Compendium[pf2e.conditionitems.Blinded]{Blinded} for one round, then @Compendium[pf2e.conditionitems.Dazzled]{Dazzled} for one round.</p>\n<p>The hazard rolls initiative.</p>"
                },
                "requirements": {
                    "value": ""
                },
                "rules": [],
                "slug": null,
                "source": {
                    "value": ""
                },
                "traits": {
                    "custom": "",
                    "rarity": "common",
                    "value": []
                },
                "trigger": {
                    "value": ""
                },
                "weapon": {
                    "value": ""
                }
            },
            "effects": [],
            "flags": {},
            "img": "systems/pf2e/icons/actions/Reaction.webp",
            "name": "Flare",
            "sort": 100000,
            "type": "action"
        }
    ],
    "name": "Flooding Monolith (5-6)",
    "token": {
        "disposition": 0,
        "height": 1,
        "img": "systems/pf2e/icons/default-icons/hazard.svg",
        "name": "Flooding Monolith",
        "width": 1
    },
    "type": "hazard"
}
