{
    "_id": "1Mn1KhwyL6gU4TRl",
    "data": {
        "abilities": {
            "cha": {
                "mod": 3
            },
            "con": {
                "mod": 6
            },
            "dex": {
                "mod": 3
            },
            "int": {
                "mod": 4
            },
            "str": {
                "mod": 7
            },
            "wis": {
                "mod": 3
            }
        },
        "attributes": {
            "ac": {
                "details": "",
                "value": 28
            },
            "allSaves": {
                "value": ""
            },
            "hp": {
                "details": "regeneration 5 (deactivated by good)",
                "max": 180,
                "temp": 0,
                "value": 180
            },
            "initiative": {
                "ability": "perception"
            },
            "perception": {
                "value": 18
            },
            "shield": {
                "ac": 2,
                "brokenThreshold": 0,
                "hardness": 0,
                "max": 0,
                "value": 0
            },
            "speed": {
                "details": "",
                "otherSpeeds": [],
                "special": "",
                "value": "0"
            }
        },
        "details": {
            "alignment": {
                "value": "CE"
            },
            "blurb": "",
            "creatureType": "",
            "level": {
                "value": 9
            },
            "privateNotes": "",
            "publicNotes": "",
            "source": {
                "value": "Pathfinder Society Scenario 2-24: Breaking The Storm: Parting Clouds"
            }
        },
        "resources": {},
        "saves": {
            "fortitude": {
                "saveDetail": "",
                "value": 21
            },
            "reflex": {
                "saveDetail": "",
                "value": 16
            },
            "will": {
                "saveDetail": "",
                "value": 18
            }
        },
        "traits": {
            "ci": [],
            "di": {
                "custom": "",
                "value": [
                    "death-effects",
                    "disease",
                    "mental",
                    "poison"
                ]
            },
            "dr": [
                {
                    "exceptions": "",
                    "type": "fire",
                    "value": 10
                }
            ],
            "dv": [
                {
                    "type": "coldiron",
                    "value": 10
                },
                {
                    "type": "good",
                    "value": 10
                }
            ],
            "languages": {
                "custom": "",
                "selected": [],
                "value": []
            },
            "rarity": "unique",
            "senses": {
                "value": ""
            },
            "size": {
                "value": "lg"
            },
            "traits": {
                "custom": "",
                "value": [
                    "demon",
                    "fiend"
                ]
            }
        }
    },
    "effects": [],
    "flags": {},
    "img": "systems/pf2e/icons/default-icons/npc.svg",
    "items": [
        {
            "_id": "8kxrqlfm8cj2whva",
            "data": {
                "attack": {
                    "value": ""
                },
                "attackEffects": {
                    "custom": "",
                    "value": []
                },
                "bonus": {
                    "value": 19
                },
                "damageRolls": {
                    "oNl3u4nK7lhFL32K": {
                        "damage": "2d12+17",
                        "damageType": "slashing"
                    }
                },
                "description": {
                    "value": ""
                },
                "rules": [],
                "slug": null,
                "source": {
                    "value": ""
                },
                "traits": {
                    "custom": "",
                    "rarity": "common",
                    "value": [
                        "agile",
                        "reach-1000"
                    ]
                },
                "weaponType": {
                    "value": "melee"
                }
            },
            "effects": [],
            "flags": {},
            "img": "systems/pf2e/icons/default-icons/melee.svg",
            "name": "Grasping Claw",
            "sort": 100000,
            "type": "melee"
        },
        {
            "_id": "7vmhgd9oifizfpwo",
            "data": {
                "actionCategory": {
                    "value": "interaction"
                },
                "actionType": {
                    "value": "passive"
                },
                "actions": {
                    "value": null
                },
                "description": {
                    "value": "<p>The hand of Urxehl begins with 4 fingers embedded outside of the rift. At the beginning of the encounter, the hand is @Compendium[pf2e.conditionitems.Quickened]{Quickened 1}, and can use this additional action to make grasping claw Strikes. For every 45 damage the hand of Urxehl takes, one of these fingers recedes and the hand loses 1 action, first losing the quickened condition, then becoming @Compendium[pf2e.conditionitems.Slowed]{Slowed 1} and @Compendium[pf2e.conditionitems.Slowed]{Slowed 2} before being defeated at 0 Hit Points.</p>"
                },
                "requirements": {
                    "value": ""
                },
                "rules": [],
                "slug": null,
                "source": {
                    "value": ""
                },
                "traits": {
                    "custom": "",
                    "rarity": "common",
                    "value": []
                },
                "trigger": {
                    "value": ""
                }
            },
            "effects": [],
            "flags": {},
            "img": "systems/pf2e/icons/actions/Passive.webp",
            "name": "Grasping Fingers",
            "sort": 200000,
            "type": "action"
        },
        {
            "_id": "0BCKC4XkbrvMsHMK",
            "data": {
                "actionCategory": {
                    "value": "defensive"
                },
                "actionType": {
                    "value": "passive"
                },
                "actions": {
                    "value": null
                },
                "description": {
                    "value": "<p>@Localize[PF2E.NPC.Abilities.Glossary.Regeneration]</p>"
                },
                "requirements": {
                    "value": ""
                },
                "rules": [],
                "slug": "regeneration",
                "source": {
                    "value": ""
                },
                "traits": {
                    "custom": "",
                    "rarity": "common",
                    "value": []
                },
                "trigger": {
                    "value": ""
                },
                "weapon": {
                    "value": ""
                }
            },
            "effects": [],
            "flags": {
                "core": {
                    "sourceId": "Compendium.pf2e.bestiary-ability-glossary-srd.lR9R5Vld8Eu2Dha5"
                }
            },
            "img": "systems/pf2e/icons/actions/Passive.webp",
            "name": "Regeneration 5 (Deactivated by Good)",
            "sort": 300000,
            "type": "action"
        },
        {
            "_id": "2ph7hoq3gg2wr6kx",
            "data": {
                "actionCategory": {
                    "value": "defensive"
                },
                "actionType": {
                    "value": "passive"
                },
                "actions": {
                    "value": null
                },
                "description": {
                    "value": "<p>@Template[type:emanation|distance:10]{10 feet} @Compendium[pf2e.bestiary-ability-glossary-srd.Aura]{Aura}.</p>\n<hr />\n<p>A creature that enters the area must attempt a <span data-pf2-check=\"will\" data-pf2-traits=\"aura,divine,enchantment,mental,fear\" data-pf2-label=\"Dominating Will DC\" data-pf2-dc=\"28\" data-pf2-show-dc=\"gm\">Will</span> save.</p>\n<div data-visibility=\"gm\">\n<hr /><p><strong>Critical Success</strong> The creature is unaffected.</p>\n<p><strong>Success</strong> The creature takes [[/r {2d6}[evil]]]{2d6 evil damage}.</p>\n<p><strong>Failure</strong> The creature takes [[/r {4d6}[evil]]]{4d6 evil damage} and is @Compendium[pf2e.conditionitems.Frightened]{Frightened 1} for 1 round.</p>\n<p><strong>Critical Failure</strong> The creature takes [[/r {8d6}[evil]]]{8d6 evil damage} and is frightened 1 as long as the portal to the Abyss remains open.</p>\n</div>"
                },
                "requirements": {
                    "value": ""
                },
                "rules": [],
                "slug": null,
                "source": {
                    "value": ""
                },
                "traits": {
                    "custom": "",
                    "rarity": "common",
                    "value": [
                        "aura",
                        "divine",
                        "enchantment",
                        "mental",
                        "fear"
                    ]
                },
                "trigger": {
                    "value": ""
                }
            },
            "effects": [],
            "flags": {},
            "img": "systems/pf2e/icons/actions/Passive.webp",
            "name": "Dominating Will",
            "sort": 400000,
            "type": "action"
        },
        {
            "_id": "kkibcb6my2j14udj",
            "data": {
                "actionCategory": {
                    "value": "defensive"
                },
                "actionType": {
                    "value": "reaction"
                },
                "actions": {
                    "value": null
                },
                "description": {
                    "value": "<p data-visibility=\"gm\"><strong>Trigger</strong> The hand takes enough damage to lose an action</p>\n<hr />\n<p><strong>Effect</strong> the hand thrashes about in pain, causing a minor earthquake. Creatures within 60 feet of the portal must succeed at a <span data-pf2-check=\"reflex\" data-pf2-label=\"Thrash About DC\" data-pf2-dc=\"28\" data-pf2-show-dc=\"gm\">Reflex</span> save or be knocked @Compendium[pf2e.conditionitems.Prone]{Prone}.</p>"
                },
                "requirements": {
                    "value": ""
                },
                "rules": [],
                "slug": null,
                "source": {
                    "value": ""
                },
                "traits": {
                    "custom": "",
                    "rarity": "common",
                    "value": []
                },
                "trigger": {
                    "value": ""
                }
            },
            "effects": [],
            "flags": {},
            "img": "systems/pf2e/icons/actions/Reaction.webp",
            "name": "Thrash About",
            "sort": 500000,
            "type": "action"
        },
        {
            "_id": "0ql8m8wtu6ocdq97",
            "data": {
                "description": {
                    "value": ""
                },
                "mod": {
                    "value": 21
                },
                "proficient": {
                    "value": 0
                },
                "rules": [],
                "slug": null,
                "source": {
                    "value": ""
                },
                "traits": {
                    "custom": "",
                    "rarity": "common",
                    "value": []
                }
            },
            "effects": [],
            "flags": {},
            "img": "systems/pf2e/icons/default-icons/lore.svg",
            "name": "Athletics",
            "sort": 600000,
            "type": "lore"
        }
    ],
    "name": "Hand Of Urxehl (7-8)",
    "token": {
        "disposition": -1,
        "height": 2,
        "img": "systems/pf2e/icons/default-icons/npc.svg",
        "name": "Hand Of Urxehl",
        "width": 2
    },
    "type": "npc"
}
