{
    "_id": "PFRXopyGSJmdYE6Y",
    "data": {
        "abilities": {
            "cha": {
                "mod": -5
            },
            "con": {
                "mod": 6
            },
            "dex": {
                "mod": -1
            },
            "int": {
                "mod": -5
            },
            "str": {
                "mod": 6
            },
            "wis": {
                "mod": 0
            }
        },
        "attributes": {
            "ac": {
                "details": "(22 when broken); construct armor",
                "value": 26
            },
            "allSaves": {
                "value": ""
            },
            "hp": {
                "details": "Hardness 10",
                "max": 130,
                "temp": 0,
                "value": 130
            },
            "initiative": {
                "ability": "perception"
            },
            "perception": {
                "value": 14
            },
            "speed": {
                "otherSpeeds": [],
                "value": "30"
            }
        },
        "details": {
            "alignment": {
                "value": "N"
            },
            "blurb": "",
            "creatureType": "",
            "level": {
                "value": 7
            },
            "privateNotes": "",
            "publicNotes": "",
            "source": {
                "value": "Pathfinder Society Scenario 2-02: Mountain of Sea and Sky"
            }
        },
        "resources": {},
        "saves": {
            "fortitude": {
                "saveDetail": "",
                "value": 17
            },
            "reflex": {
                "saveDetail": "",
                "value": 11
            },
            "will": {
                "saveDetail": "",
                "value": 10
            }
        },
        "traits": {
            "attitude": {
                "value": "hostile"
            },
            "ci": [],
            "di": {
                "custom": "",
                "value": [
                    "bleed",
                    "death-effects",
                    "disease",
                    "doomed",
                    "drained",
                    "fatigued",
                    "healing",
                    "mental",
                    "necromancy",
                    "nonlethal-attacks",
                    "paralyzed",
                    "poison",
                    "sickened",
                    "unconscious"
                ]
            },
            "dr": [],
            "dv": [],
            "languages": {
                "custom": "",
                "selected": [],
                "value": []
            },
            "rarity": "unique",
            "senses": {
                "value": "darkvision"
            },
            "size": {
                "value": "huge"
            },
            "traits": {
                "custom": "",
                "value": [
                    "construct",
                    "earth",
                    "mindless"
                ]
            }
        }
    },
    "effects": [],
    "flags": {},
    "img": "systems/pf2e/icons/default-icons/npc.svg",
    "items": [
        {
            "_id": "uG9Xf5mQy36f7njW",
            "data": {
                "attack": {
                    "value": ""
                },
                "attackEffects": {
                    "value": []
                },
                "bonus": {
                    "value": 19
                },
                "damageRolls": {
                    "bxpw7h10i8zge6wyqqyv": {
                        "damage": "2d12+6",
                        "damageType": "bludgeoning"
                    }
                },
                "description": {
                    "value": ""
                },
                "rules": [],
                "slug": null,
                "source": {
                    "value": ""
                },
                "traits": {
                    "custom": "",
                    "rarity": "common",
                    "value": [
                        "magical",
                        "reach-10",
                        "versatile-p"
                    ]
                },
                "weaponType": {
                    "value": "melee"
                }
            },
            "effects": [],
            "flags": {},
            "img": "systems/pf2e/icons/default-icons/melee.svg",
            "name": "Energized Fist",
            "sort": 100000,
            "type": "melee"
        },
        {
            "_id": "zpKCgmkpmuMWqS4I",
            "data": {
                "attack": {
                    "value": ""
                },
                "attackEffects": {
                    "value": []
                },
                "bonus": {
                    "value": 14
                },
                "damageRolls": {
                    "lsedtgjewjc5h8ukimaq": {
                        "damage": "4d6+10",
                        "damageType": "fire"
                    }
                },
                "description": {
                    "value": ""
                },
                "rules": [],
                "slug": null,
                "source": {
                    "value": ""
                },
                "traits": {
                    "custom": "",
                    "rarity": "common",
                    "value": [
                        "fire",
                        "magical",
                        "range-increment-80"
                    ]
                },
                "weaponType": {
                    "value": "ranged"
                }
            },
            "effects": [],
            "flags": {},
            "img": "systems/pf2e/icons/default-icons/melee.svg",
            "name": "Eye Beam",
            "sort": 200000,
            "type": "melee"
        },
        {
            "_id": "nU0bG4d5v1PmJVdP",
            "data": {
                "actionCategory": {
                    "value": "interaction"
                },
                "actionType": {
                    "value": "passive"
                },
                "actions": {
                    "value": null
                },
                "description": {
                    "value": "<p>@Localize[PF2E.NPC.Abilities.Glossary.Darkvision]</p>"
                },
                "requirements": {
                    "value": ""
                },
                "rules": [],
                "slug": "darkvision",
                "source": {
                    "value": ""
                },
                "traits": {
                    "custom": "",
                    "rarity": "common",
                    "value": []
                },
                "trigger": {
                    "value": ""
                },
                "weapon": {
                    "value": ""
                }
            },
            "effects": [],
            "flags": {
                "core": {
                    "sourceId": "Compendium.pf2e.bestiary-ability-glossary-srd.qCCLZhnp2HhP3Ex6"
                }
            },
            "img": "systems/pf2e/icons/actions/Passive.webp",
            "name": "Darkvision",
            "sort": 300000,
            "type": "action"
        },
        {
            "_id": "icMP8x2L8sLVpCPP",
            "data": {
                "actionCategory": {
                    "value": "defensive"
                },
                "actionType": {
                    "value": "passive"
                },
                "actions": {
                    "value": null
                },
                "description": {
                    "value": "<p>Like normal objects, the guardian dogu has Hardness. This Hardness reduces any damage it takes by an amount equal to the Hardness. Once the guardian is reduced to less than half its Hit Points, or immediately upon being damaged by a critical hit, its construct armor breaks and its Armor Class is reduced to 22.</p>"
                },
                "requirements": {
                    "value": ""
                },
                "rules": [
                    {
                        "key": "ToggleProperty",
                        "label": "Broken",
                        "property": "flags.pf2e.rollOptions.all.construct-armor"
                    },
                    {
                        "key": "FlatModifier",
                        "predicate": {
                            "all": [
                                "construct-armor"
                            ]
                        },
                        "selector": "ac",
                        "value": -4
                    }
                ],
                "slug": null,
                "source": {
                    "value": ""
                },
                "traits": {
                    "custom": "",
                    "rarity": "common",
                    "value": []
                },
                "trigger": {
                    "value": ""
                },
                "weapon": {
                    "value": ""
                }
            },
            "effects": [],
            "flags": {},
            "img": "systems/pf2e/icons/actions/Passive.webp",
            "name": "Construct Armor",
            "sort": 400000,
            "type": "action"
        },
        {
            "_id": "RurmrfKLGW9f3iez",
            "data": {
                "actionCategory": {
                    "value": "offensive"
                },
                "actionType": {
                    "value": "action"
                },
                "actions": {
                    "value": 1
                },
                "description": {
                    "value": "<p><span class=\"pf2-icon\">A</span> to <span class=\"pf2-icon\">T</span></p>n<p data-visibility=\"gm\"><strong>Frequency</strong> once per day</p>\n<p><strong>Effect</strong> The Kayajima guardian pulses with mystical energies that emit a pale blue glow before it emits a wave of force. If the Kayajima guardian uses 1 action to use , it unleashes a powerful blast that deals [[/r {4d6}[force]]]{4d6 force damage} to all creatures in a @Template[type:cone|distance:15]. If the Kayajima guardian uses 2 actions to use Ley Line Surge, increase the size of the cone to @Template[type:cone|distance:30] and the damage to [[/r {6d6}[force]]]{6d6 force damage}. If the Kayajima guardian uses 3 actions to use Ley Line Surge, increase the size of the cone to @Template[type:cone|distance:60] and the damage to [[/r {8d6}[force]]]{8d6 force damage}.</p>\n<p>Each creature in the area must attempt a <span data-pf2-check=\"fortitude\" data-pf2-dc=\"22\" data-pf2-traits=\"evocation,primal,force,damaging-effect\" data-pf2-label=\"Ley Line Surge DC\" data-pf2-show-dc=\"gm\">Fortitude</span> save.</p>\n<div data-visibility=\"gm\"><hr />\n<p><strong>Critical Success</strong> The creature is unaffected.</p>\n<p><strong>Success</strong> The creature takes half damage.</p>\n<p><strong>Failure</strong> The creature takes full damage and is pushed 5 feet.</p>\n<p><strong>Critical Failure</strong> The creature takes double damage and is pushed 10 feet.</p>\n</div>"
                },
                "requirements": {
                    "value": ""
                },
                "rules": [],
                "slug": null,
                "source": {
                    "value": ""
                },
                "traits": {
                    "custom": "",
                    "rarity": "common",
                    "value": [
                        "evocation",
                        "primal",
                        "force"
                    ]
                },
                "trigger": {
                    "value": ""
                },
                "weapon": {
                    "value": ""
                }
            },
            "effects": [],
            "flags": {},
            "img": "systems/pf2e/icons/actions/OneAction.webp",
            "name": "Ley Line Surge",
            "sort": 500000,
            "type": "action"
        },
        {
            "_id": "Frpc0KRkdnPN6zjA",
            "data": {
                "actionCategory": {
                    "value": "offensive"
                },
                "actionType": {
                    "value": "action"
                },
                "actions": {
                    "value": 2
                },
                "description": {
                    "value": "<p>The Kayajima guardian propels itself with jets of blue energy from its feet, dashing up to a foe and swinging its fist. It Strides twice. If it ends its movement within melee range of at least one enemy, it can make an energized fist Strike against that enemy.</p>"
                },
                "requirements": {
                    "value": ""
                },
                "rules": [],
                "slug": null,
                "source": {
                    "value": ""
                },
                "traits": {
                    "custom": "",
                    "rarity": "common",
                    "value": []
                },
                "trigger": {
                    "value": ""
                },
                "weapon": {
                    "value": ""
                }
            },
            "effects": [],
            "flags": {},
            "img": "systems/pf2e/icons/actions/TwoActions.webp",
            "name": "Sudden Charge",
            "sort": 600000,
            "type": "action"
        },
        {
            "_id": "i0gwmFeK4HOJL7TP",
            "data": {
                "description": {
                    "value": ""
                },
                "item": {
                    "value": 0
                },
                "mod": {
                    "value": 17
                },
                "proficient": {
                    "value": 0
                },
                "rules": [],
                "slug": null,
                "source": {
                    "value": ""
                },
                "traits": {
                    "custom": "",
                    "rarity": "common",
                    "value": []
                }
            },
            "effects": [],
            "flags": {},
            "img": "systems/pf2e/icons/default-icons/lore.svg",
            "name": "Athletics",
            "sort": 700000,
            "type": "lore"
        }
    ],
    "name": "Kayajima Guardian Dogu (5-6)",
    "token": {
        "disposition": -1,
        "height": 3,
        "img": "systems/pf2e/icons/default-icons/npc.svg",
        "name": "Kayajima Guardian Dogu",
        "width": 3
    },
    "type": "npc"
}
