{
    "_id": "m6teF5ADh7vuM8Zr",
    "data": {
        "actionCategory": {
            "value": "offensive"
        },
        "actionType": {
            "value": "action"
        },
        "actions": {
            "value": 1
        },
        "description": {
            "value": "<p><strong>Requirements</strong> The ghast is adjacent to the corpse of a creature that died within the last hour.</p>\n<p><strong>Effect</strong> The ghast devours a chunk of the corpse and regains [[/r {2d6}[healing]]]{2d6 Hit Points} plus 1d6 for every 2 levels it has.</p>\n<p>It can regain Hit Points from any given corpse only once.</p>"
        },
        "requirements": {
            "value": ""
        },
        "rules": [],
        "source": {
            "value": "Pathfinder Bestiary"
        },
        "traits": {
            "custom": "",
            "rarity": "common",
            "value": [
                "manipulate"
            ]
        },
        "trigger": {
            "value": ""
        },
        "weapon": {
            "value": ""
        }
    },
    "effects": [],
    "flags": {},
    "img": "systems/pf2e/icons/actions/OneAction.webp",
    "name": "(Ghast) Consume Flesh",
    "type": "action"
}
