{
    "_id": "KcUHCVhHnkMD8j3k",
    "data": {
        "actionCategory": {
            "value": "offensive"
        },
        "actionType": {
            "value": "action"
        },
        "actions": {
            "value": 2
        },
        "description": {
            "value": "<p>The barghest breathes a cloud of toxic gas that deals [[/r {8d6}[poison]]]{8d6 poison damage} to all creatures in a @Template[type:cone|distance:30] (<span data-pf2-check=\"fortitude\" data-pf2-traits=\"damaging-effect,divine,evocation,poison\" data-pf2-label=\"Toxic Breath DC\" data-pf2-dc=\"25\" data-pf2-show-dc=\"gm\">basic Fortitude</span> save).</p>\n<p data-visibility=\"gm\">It can't use Toxic Breath again for [[/br 1d4 #rounds]]{1d4 rounds}.</p>"
        },
        "requirements": {
            "value": ""
        },
        "rules": [],
        "source": {
            "value": "Pathfinder Bestiary"
        },
        "traits": {
            "custom": "",
            "rarity": "common",
            "value": [
                "divine",
                "evocation",
                "poison"
            ]
        },
        "trigger": {
            "value": ""
        }
    },
    "effects": [],
    "flags": {},
    "img": "systems/pf2e/icons/actions/TwoActions.webp",
    "name": "(Greater Barghest) Mutation - Toxic Breath",
    "type": "action"
}
