{
    "_id": "UOqq8lkBPcPtKoCN",
    "data": {
        "actionCategory": {
            "value": "offensive"
        },
        "actionType": {
            "value": "action"
        },
        "actions": {
            "value": 2
        },
        "description": {
            "value": "<p>The Melfesh Monster sprays flaming gas in a @Template[type:cone|distance:15] or a @Template[type:line|distance:30]. Creatures in the area take [[/r {4d6}[fire]]]{4d6 fire damage} (<span data-pf2-check=\"reflex\" data-pf2-traits=\"damaging-effect\" data-pf2-label=\"Flame Lash DC\" data-pf2-dc=\"21\" data-pf2-show-dc=\"gm\">basic Reflex</span> save). This ability replaces the firelance ranged Strike.</p>"
        },
        "requirements": {
            "value": ""
        },
        "rules": [],
        "source": {
            "value": "Pathfinder Lost Omens: Monsters of Myth"
        },
        "traits": {
            "custom": "",
            "rarity": "common",
            "value": []
        },
        "trigger": {
            "value": ""
        }
    },
    "effects": [],
    "flags": {},
    "img": "systems/pf2e/icons/actions/TwoActions.webp",
    "name": "(Melfish Monster) Flame Lash",
    "type": "action"
}
