{
    "_id": "hEWAzlIoJg3NzA7Q",
    "data": {
        "actionCategory": {
            "value": "offensive"
        },
        "actionType": {
            "value": "action"
        },
        "actions": {
            "value": 1
        },
        "description": {
            "value": "<p>Spring-Heeled Jack takes on the appearance of a Medium humanoid dressed in exquisite finery. This doesn't change his Speed or his attack and damage modifiers with his Strikes. When in this form, Spring-Heeled Jack gains a Diplomacy modifier equal to his Intimidation modifier.</p>\n<p>@Localize[PF2E.NPC.Abilities.Glossary.ChangeShape]</p>"
        },
        "requirements": {
            "value": ""
        },
        "rules": [],
        "source": {
            "value": "Pathfinder Lost Omens: Monsters of Myth"
        },
        "traits": {
            "custom": "",
            "rarity": "common",
            "value": [
                "concentrate",
                "polymorph",
                "primal",
                "transmutation"
            ]
        },
        "trigger": {
            "value": ""
        },
        "weapon": {
            "value": ""
        }
    },
    "effects": [],
    "flags": {},
    "img": "systems/pf2e/icons/actions/OneAction.webp",
    "name": "(Spring-Heeled Jack) Change Shape",
    "type": "action"
}
