{
    "_id": "QuHeuVNDnmOCS9M1",
    "data": {
        "actionCategory": {
            "value": "offensive"
        },
        "actionType": {
            "value": "passive"
        },
        "actions": {
            "value": null
        },
        "description": {
            "value": "<p>If a creature dies after being reduced to 0 HP by Drink Blood, a vrykolakas master can turn this creature into a @Compendium[pf2e.pathfinder-bestiary-2.Vrykolakas Spawn]{Vrykolakas Spawn} by donating some of its own blood to the creature and burying it in earth for 3 nights.</p>\n<p>Such vrykolakas spawn are generally friendly to the vrykolakas that created them, but they are not under its control and typically wander off on their own rampage within [[/r 1d6 #days]]{1d6 days} of their creation.</p>"
        },
        "requirements": {
            "value": ""
        },
        "rules": [],
        "source": {
            "value": "Pathfinder Bestiary 2"
        },
        "traits": {
            "custom": "",
            "rarity": "common",
            "value": [
                "divine",
                "downtime",
                "necromancy"
            ]
        },
        "trigger": {
            "value": ""
        }
    },
    "effects": [],
    "flags": {},
    "img": "systems/pf2e/icons/actions/Passive.webp",
    "name": "(Vampire, Vrykolakas Master) Create Spawn",
    "type": "action"
}
