{
    "_id": "X2mdpb1Dhl890YbA",
    "data": {
        "actionCategory": {
            "value": "offensive"
        },
        "actionType": {
            "value": "action"
        },
        "actions": {
            "value": 1
        },
        "description": {
            "value": "<p>The worm that walks collapses into a shapeless swarm of worms. It drops all held, worn, and carried items.</p>\n<p>While discorporated, the worm that walks can't use attack actions and can't cast spells, but it can move through areas small enough for its individual worms to fit without having to Squeeze. It can use the same action to coalesce back into its normal form.</p>"
        },
        "requirements": {
            "value": ""
        },
        "rules": [],
        "source": {
            "value": "Pathfinder Bestiary 2"
        },
        "traits": {
            "custom": "",
            "rarity": "common",
            "value": [
                "concentrate"
            ]
        },
        "trigger": {
            "value": ""
        }
    },
    "effects": [],
    "flags": {},
    "img": "systems/pf2e/icons/actions/OneAction.webp",
    "name": "(Worm That Walks) Swarm Shape",
    "type": "action"
}
