{
    "_id": "VQiBBu6D2srK6Fmj",
    "data": {
        "attributes": {
            "ac": {
                "value": 30
            },
            "hardness": 18,
            "hasHealth": true,
            "hp": {
                "details": "",
                "max": 72,
                "temp": 0,
                "tempmax": 0,
                "value": 72
            },
            "stealth": {
                "details": "<p>(expert) to notice subtle vapors of magical energy seething across the doors</p>",
                "value": 22
            }
        },
        "creatureType": "",
        "details": {
            "description": "<p>These heavy doors, carved with an image of Dahak, echo with a hatred so powerful that it can kill anyone who comes nearby, manifesting a vision of Dahak's head emerging from the doors to strike at a foe.</p>",
            "disable": "<p><span data-pf2-check=\"thievery\" data-pf2-traits=\"complex,magical,trap,hazard\" data-pf2-label=\"Disrupt the Divine Magic DC\" data-pf2-dc=\"29\" data-pf2-show-dc=\"gm\">Thievery</span> (expert) to disrupt the divine magic, <span data-pf2-check=\"religion\" data-pf2-traits=\"complex,magical,trap,hazard\" data-pf2-label=\"Placate Wrathful Energies DC\" data-pf2-dc=\"29\" data-pf2-show-dc=\"gm\">Religion</span> (expert) to placate the wrathful energies, or <em>@Compendium[pf2e.spells-srd.Dispel Magic]{Dispel Magic}</em> (5th level; counteract DC 26).</p>",
            "isComplex": true,
            "level": {
                "value": 10
            },
            "reset": "<p>The trap deactivates and resets if 1 minute passes without any creature being in range.</p>",
            "routine": "<p>(1 action) On its initiative, the wrath of the destroyer targets the closest target in area <strong>C6</strong> with Face of the Fatal Divine.</p>"
        },
        "saves": {
            "fortitude": {
                "saveDetail": "",
                "value": 22
            },
            "reflex": {
                "saveDetail": "",
                "value": 14
            },
            "will": {
                "saveDetail": "",
                "value": 0
            }
        },
        "source": {
            "value": ""
        },
        "statusEffects": [],
        "traits": {
            "ci": [],
            "di": {
                "custom": "",
                "selected": {},
                "value": [
                    "critical-hits",
                    "fire",
                    "object-immunities",
                    "precision"
                ]
            },
            "dr": [],
            "dv": [],
            "rarity": "common",
            "size": {
                "value": "med"
            },
            "traits": {
                "custom": "",
                "value": [
                    "magical",
                    "trap"
                ]
            }
        }
    },
    "effects": [],
    "flags": {},
    "img": "systems/pf2e/icons/default-icons/hazard.svg",
    "items": [
        {
            "_id": "fINveZMkSiZN9kMX",
            "data": {
                "actionCategory": {
                    "value": "defensive"
                },
                "actionType": {
                    "value": "reaction"
                },
                "actions": {
                    "value": null
                },
                "description": {
                    "value": "<p data-visibility=\"gm\"><strong>Trigger</strong> A non-worshipper of Dahak touches either door leading to <strong>C7</strong></p>\n<p><strong>Effect</strong> The hazard targets the creature with Face of the Fatal Divine, then rolls initiative.</p>"
                },
                "requirements": {
                    "value": ""
                },
                "rules": [],
                "slug": null,
                "source": {
                    "value": ""
                },
                "traits": {
                    "custom": "",
                    "rarity": "common",
                    "selected": {},
                    "value": []
                },
                "trigger": {
                    "value": ""
                },
                "weapon": {
                    "value": ""
                }
            },
            "effects": [],
            "flags": {},
            "img": "systems/pf2e/icons/actions/Reaction.webp",
            "name": "Expunge",
            "sort": 100000,
            "type": "action"
        },
        {
            "_id": "LnwQpnNyyd6h5Xx0",
            "data": {
                "actionCategory": {
                    "value": "offensive"
                },
                "actionType": {
                    "value": "action"
                },
                "actions": {
                    "value": 1
                },
                "description": {
                    "value": "<p>The creature beholds the face of Dahak as it emerges to bite with its burning jaws, targeting the creature with <em>@Compendium[pf2e.spells-srd.Phantasmal Killer]{Phantasmal Killer}</em> (5th level, <span data-pf2-check=\"will\" data-pf2-dc=\"29\" data-pf2-traits=\"death,divine,emotion,fear,illusion,mental,complex,hazard,magical,trap\" data-pf2-label=\"Face of the Fatal Divine DC\" data-pf2-show-dc=\"gm\">Will</span>).</p>"
                },
                "requirements": {
                    "value": ""
                },
                "rules": [],
                "slug": null,
                "source": {
                    "value": ""
                },
                "traits": {
                    "custom": "",
                    "rarity": "common",
                    "value": [
                        "death",
                        "divine",
                        "emotion",
                        "fear",
                        "illusion",
                        "mental"
                    ]
                },
                "trigger": {
                    "value": ""
                },
                "weapon": {
                    "value": ""
                }
            },
            "effects": [],
            "flags": {},
            "img": "systems/pf2e/icons/actions/OneAction.webp",
            "name": "Face of the Fatal Divine",
            "sort": 200000,
            "type": "action"
        }
    ],
    "name": "Wrath of the Destroyer",
    "token": {
        "disposition": 0,
        "height": 1,
        "img": "systems/pf2e/icons/default-icons/hazard.svg",
        "name": "Wrath of the Destroyer",
        "width": 1
    },
    "type": "hazard"
}
