{
    "_id": "mwz1Ukw9laGyRocF",
    "content": "<table class=\"pf2-table\">\n<thead>\n<tr>\n<th>\n<h3><strong>Name</strong></h3>\n</th>\n<th>\n<h3><strong>Crit Effect</strong></h3>\n</th>\n<th>\n<h3><strong>Type</strong></h3>\n</th>\n</tr>\n</thead>\n<tbody>\n<tr>\n<td>Fog of War</td>\n<td>You are dazzled until the end of your next turn.</td>\n<td>\n<h3>Melee</h3>\n</td>\n</tr>\n<tr>\n<td>Bull's Eye</td>\n<td>Your attack ricochets and hits you near the eye. You are blinded until the end of your next turn.</td>\n<td>\n<h3>Ranged</h3>\n</td>\n</tr>\n<tr>\n<td>Jam a Finger</td>\n<td>You the the target for the minimum amount of damage you can deal with the attack. You take the attack's normal damage.</td>\n<td>\n<h3>Unarmed</h3>\n</td>\n</tr>\n<tr>\n<td>Everything to Fear</td>\n<td>You are frightened 3.</td>\n<td>\n<h3>Spell</h3>\n</td>\n</tr>\n</tbody>\n</table>\n<h3 style=\"text-align: left;\"> </h3>",
    "flags": {},
    "name": "Critical Fumble Deck #51",
    "permission": {
        "default": 0
    }
}
