{
    "_id": "AXZZ59kX1JNpIjKo",
    "content": "<table class=\"pf2-table\">\n<thead>\n<tr>\n<th>\n<h3><strong>Name</strong></h3>\n</th>\n<th>\n<h3><strong>Crit Effect</strong></h3>\n</th>\n<th>\n<h3><strong>Type</strong></h3>\n</th>\n</tr>\n</thead>\n<tbody>\n<tr>\n<td>Too much Stuff!</td>\n<td>You get tangled in your gear and rare encumbered until you spend 2 Interact actions to free yourself.</td>\n<td>\n<h3>Melee</h3>\n</td>\n</tr>\n<tr>\n<td>Sprain</td>\n<td>Until healed, you are clumsy 2.</td>\n<td>\n<h3>Ranged</h3>\n</td>\n</tr>\n<tr>\n<td>Bleeding Fist</td>\n<td>You take 1d6 persistent bleed damage.</td>\n<td>\n<h3>Unarmed</h3>\n</td>\n</tr>\n<tr>\n<td>Vertigo</td>\n<td>You are sickened 2.</td>\n<td>\n<h3>Spell</h3>\n</td>\n</tr>\n</tbody>\n</table>\n<h3 style=\"text-align: left;\"> </h3>",
    "flags": {},
    "name": "Critical Fumble Deck #24",
    "permission": {
        "default": 0
    }
}
