{
    "_id": "0BESWYMP9vEbG3cr",
    "content": "<table class=\"pf2-table\">\n<thead>\n<tr>\n<th>\n<h3><strong>Name</strong></h3>\n</th>\n<th>\n<h3><strong>Crit Effect</strong></h3>\n</th>\n<th>\n<h3><strong>Type</strong></h3>\n</th>\n</tr>\n</thead>\n<tbody>\n<tr>\n<td>Attack the Darkness</td>\n<td>Your enemies are concealed from you until the end of your next turn.</td>\n<td>\n<h3>Melee</h3>\n</td>\n</tr>\n<tr>\n<td>Aim Carefully Next Time</td>\n<td>Until the end of your next turn, your attacks require and extra action to use.</td>\n<td>\n<h3>Ranged</h3>\n</td>\n</tr>\n<tr>\n<td>Brutal Collision</td>\n<td>Attempt a Fortitude saving throw. If you succeed, you're stunned 1. If you fail, you're stunned 2.</td>\n<td>\n<h3>Unarmed</h3>\n</td>\n</tr>\n<tr>\n<td>Power Transfer</td>\n<td>The highest-level spell effect currently affecting you is transferred to your target.</td>\n<td>\n<h3>Spell</h3>\n</td>\n</tr>\n</tbody>\n</table>\n<h3 style=\"text-align: left;\"> </h3>",
    "flags": {},
    "name": "Critical Fumble Deck #9",
    "permission": {
        "default": 0
    }
}
