{
    "_id": "EpWswZucGxXiLNyP",
    "content": "<table class=\"pf2-table\">\n<thead>\n<tr>\n<th>\n<h3><strong>Name</strong></h3>\n</th>\n<th>\n<h3><strong>Crit Effect</strong></h3>\n</th>\n<th>\n<h3><strong>Type</strong></h3>\n</th>\n</tr>\n</thead>\n<tbody>\n<tr>\n<td>\n<h3>My Teef!</h3>\n</td>\n<td>\n<h3>The target must succeed at a Dc 5 flat check to cast spells with the verbal component until healed.</h3>\n</td>\n<td>\n<h3>Bludgeoning</h3>\n</td>\n</tr>\n<tr>\n<td>\n<h3>Gusher</h3>\n</td>\n<td>\n<h3>The target takes 1d6 persistent bleed damage.</h3>\n</td>\n<td>\n<h3>Piercing</h3>\n</td>\n</tr>\n<tr>\n<td>\n<h3>Terrible Cut</h3>\n</td>\n<td>\n<h3>Triple damage.</h3>\n</td>\n<td>\n<h3>Slashing</h3>\n</td>\n</tr>\n<tr>\n<td>\n<h3>Excruciating</h3>\n</td>\n<td>\n<h3>The target is sicked 3.</h3>\n</td>\n<td>\n<h3>Bomb or Spell</h3>\n</td>\n</tr>\n</tbody>\n</table>\n<h3 style=\"text-align: left;\"> </h3>",
    "flags": {},
    "name": "Critical Hit Deck #43",
    "permission": {
        "default": 0
    }
}
