{
    "_id": "RZAYqAHzFxnbD01e",
    "content": "<table class=\"pf2-table\">\n<thead>\n<tr>\n<th>\n<h3><strong>Name</strong></h3>\n</th>\n<th>\n<h3><strong>Crit Effect</strong></h3>\n</th>\n<th>\n<h3><strong>Type</strong></h3>\n</th>\n</tr>\n</thead>\n<tbody>\n<tr>\n<td>Grave Miscalculation</td>\n<td>You critically hit yourself with the attack.</td>\n<td>\n<h3>Melee</h3>\n</td>\n</tr>\n<tr>\n<td>Kickback like a Mule</td>\n<td>You fall prone.</td>\n<td>\n<h3>Ranged</h3>\n</td>\n</tr>\n<tr>\n<td>Can't find an Opening</td>\n<td>You can't use this attack until the end of your next turn.</td>\n<td>\n<h3>Unarmed</h3>\n</td>\n</tr>\n<tr>\n<td>Drawing a Blank</td>\n<td>Until healed, you are stupefied 1.</td>\n<td>\n<h3>Spell</h3>\n</td>\n</tr>\n</tbody>\n</table>\n<h3 style=\"text-align: left;\"> </h3>",
    "flags": {},
    "name": "Critical Fumble Deck #30",
    "permission": {
        "default": 0
    }
}
