{
    "_id": "1urnmEt4sn4ATDRL",
    "content": "<table class=\"pf2-table\">\n<thead>\n<tr>\n<th>\n<h3><strong>Name</strong></h3>\n</th>\n<th>\n<h3><strong>Crit Effect</strong></h3>\n</th>\n<th>\n<h3><strong>Type</strong></h3>\n</th>\n</tr>\n</thead>\n<tbody>\n<tr>\n<td>\n<h3>Caved Skull</h3>\n</td>\n<td>\n<h3>Triple damage. The target must succeed at a Fortitude save or die.</h3>\n</td>\n<td>\n<h3>Bludgeoning</h3>\n</td>\n</tr>\n<tr>\n<td>\n<h3>Overreaction</h3>\n</td>\n<td>\n<h3>Normal damage. The target triggers reactions as if it just used a move action. It is also flat-footed until the end of its next turn.</h3>\n</td>\n<td>\n<h3>Piercing</h3>\n</td>\n</tr>\n<tr>\n<td>\n<h3>Paper Cut</h3>\n</td>\n<td>\n<h3>The target takes a -2 status penalty to attack rolls until the end of its next turn.</h3>\n</td>\n<td>\n<h3>Slashing</h3>\n</td>\n</tr>\n<tr>\n<td>\n<h3>Unnatural Selection</h3>\n</td>\n<td>\n<h3>Triple damage to aberrations, celestials, fiends, and monitors. Double damage to all other creatures.</h3>\n</td>\n<td>\n<h3>Bomb or Spell</h3>\n</td>\n</tr>\n</tbody>\n</table>\n<h3 style=\"text-align: left;\"> </h3>",
    "flags": {},
    "name": "Critical Hit Deck #29",
    "permission": {
        "default": 0
    }
}
