{
    "_id": "a47Npi5XHXo47y49",
    "data": {
        "actionCategory": {
            "value": "defensive"
        },
        "actionType": {
            "value": "reaction"
        },
        "actions": {
            "value": null
        },
        "description": {
            "value": "<p><strong>Frequency</strong> once per day</p>\n<p><strong>Trigger</strong> You take 40 or more physical damage from a single attack</p>\n<p><strong>Effect</strong> You discorporate into a whirling blizzard for up to 3 rounds. During this time, you gain resistance 10 to physical damage and weakness 10 to force damage. You gain a fly speed of 40 feet, but the only action you can take is to @Compendium[pf2e.actionspf2e.Fly]{Fly}. The first time each round you enter another creature's space while discorporated, or the first time a creature enters your space, that creature takes [[/r {4d8}[cold]]]{4d8 cold damage} and must succeed at a Fortitude saving throw against your class DC or spell DC, whichever is higher, or else be @Compendium[pf2e.conditionitems.Stunned]{Stunned 1}. At the start of your turn, you can end this effect as a free action.</p>\n<p>@Compendium[pf2e.feat-effects.Effect: Blizzard Evasion]{Effect: Blizzard Evasion}</p>"
        },
        "requirements": {
            "value": ""
        },
        "rules": [],
        "source": {
            "value": "Pathfinder Lost Omens: Monsters of Myth"
        },
        "traits": {
            "custom": "",
            "rarity": "common",
            "value": []
        },
        "trigger": {
            "value": ""
        }
    },
    "effects": [],
    "flags": {},
    "img": "systems/pf2e/icons/actions/Reaction.webp",
    "name": "Blizzard Evasion",
    "type": "action"
}
