{
    "_id": "pAMyEbJzWBoYoGhs",
    "data": {
        "description": {
            "value": "<p>Granted by activating @Compendium[pf2e.equipment-srd.Diplomat's Badge]{Diplomat's Badge}.</p>\n<hr />\n<p>Automatically applied effects:</p>\n<ul>\n<li>+2 item bonus to Diplomacy with a specific group</li>\n</ul>"
        },
        "duration": {
            "expiry": "turn-start",
            "sustained": false,
            "unit": "days",
            "value": 1
        },
        "level": {
            "value": 5
        },
        "rules": [
            {
                "key": "FlatModifier",
                "label": "Diplomat's Badge (specific group)",
                "predicate": {
                    "all": [
                        "group"
                    ]
                },
                "selector": "diplomacy",
                "type": "item",
                "value": 2
            }
        ],
        "source": {
            "value": ""
        },
        "start": {
            "initiative": null,
            "value": 0
        },
        "target": null,
        "tokenIcon": {
            "show": true
        },
        "traits": {
            "custom": "",
            "rarity": "common",
            "value": []
        }
    },
    "effects": [],
    "flags": {},
    "img": "systems/pf2e/icons/equipment/worn-items/other-worn-items/diplomats-badge.webp",
    "name": "Effect: Diplomat's Badge",
    "type": "effect"
}
