{
    "_id": "exwQF6E1FWmuxwBc",
    "data": {
        "description": {
            "value": "<p>Granted by Vontho's Golden Bridge</p>\n<p>While the swirling rings of the vehicle don't fully cover the pilot, they offer incredible protection, magically maintaining the temperature within and ablating physical attacks. The pilot is protected from severe cold, severe heat, extreme cold, and extreme heat. The pilot also gains resistance 10 to all physical damage (except adamantine).</p>"
        },
        "duration": {
            "expiry": "turn-start",
            "sustained": false,
            "unit": "unlimited",
            "value": -1
        },
        "level": {
            "value": 17
        },
        "rules": [
            {
                "except": "adamantine",
                "key": "Resistance",
                "type": "all",
                "value": 10
            }
        ],
        "source": {
            "value": "Pathfinder Guns & Gears"
        },
        "start": {
            "initiative": null,
            "value": 0
        },
        "target": null,
        "tokenIcon": {
            "show": true
        },
        "traits": {
            "custom": "",
            "rarity": "common",
            "value": []
        }
    },
    "effects": [],
    "flags": {},
    "img": "systems/pf2e/icons/default-icons/effect.svg",
    "name": "Effect: Protective Barrier",
    "type": "effect"
}
