{
    "_id": "Hx4MOTujp5z6SlQu",
    "data": {
        "description": {
            "value": "<p>The targets take a -10-foot circumstance penalty to their Speeds as roots rapidly sprout from their wounds, which lasts until they @Compendium[pf2e.actionspf2e.Escape]{Escape} (DC 20).</p>"
        },
        "duration": {
            "expiry": "turn-start",
            "sustained": false,
            "unit": "unlimited",
            "value": -1
        },
        "level": {
            "value": 6
        },
        "rules": [
            {
                "key": "FlatModifier",
                "selector": "speed",
                "type": "circumstance",
                "value": -10
            }
        ],
        "source": {
            "value": "Pathfinder Guns & Gears"
        },
        "start": {
            "initiative": null,
            "value": 0
        },
        "target": null,
        "tokenIcon": {
            "show": true
        },
        "traits": {
            "custom": "",
            "rarity": "common",
            "value": []
        }
    },
    "effects": [],
    "flags": {},
    "img": "systems/pf2e/icons/default-icons/effect.svg",
    "name": "Effect: Arboreal's Revenge (Speed Penalty)",
    "type": "effect"
}
