{
    "_id": "Zb8RYgmzCI6fQE0o",
    "data": {
        "description": {
            "value": "<p>Granted by @Compendium[pf2e.gmg-srd.Throne]{Throne} from the @Compendium[pf2e.equipment-srd.Deck of Many Things]{Deck of Many Things}</p>\n<p>Automatically applied effects:</p>\n<ul>\n<li>a +4 status bonus to Diplomacy.</li>\n</ul>"
        },
        "duration": {
            "expiry": "turn-start",
            "sustained": false,
            "unit": "unlimited",
            "value": -1
        },
        "level": {
            "value": 0
        },
        "rules": [
            {
                "key": "FlatModifier",
                "label": "Throne Card",
                "selector": "diplomacy",
                "type": "status",
                "value": 4
            }
        ],
        "source": {
            "value": ""
        },
        "start": {
            "initiative": null,
            "value": 0
        },
        "target": null,
        "tokenIcon": {
            "show": true
        },
        "traits": {
            "custom": "",
            "rarity": "common",
            "value": []
        }
    },
    "effects": [],
    "flags": {},
    "img": "systems/pf2e/icons/equipment/held-items/rune-card.webp",
    "name": "Effect: Throne Card",
    "type": "effect"
}
