{
    "_id": "lgvjbbQiHBGKR3C6",
    "data": {
        "description": {
            "value": "<p>On a successful Strike, the attack deals an additional 2d6 force damage, and the target must succeed at a DC 19 Fortitude save or be knocked @Compendium[pf2e.conditionitems.Prone]{Prone}. If the hit with the <em>rhino shot</em> was a critical success, the target is knocked prone unless it critically succeeds at its save.</p>"
        },
        "duration": {
            "expiry": "turn-end",
            "sustained": false,
            "unit": "rounds",
            "value": 1
        },
        "level": {
            "value": 1
        },
        "rules": [
            {
                "damageType": "force",
                "diceNumber": 2,
                "dieSize": "d6",
                "key": "DamageDice",
                "label": "Rhino Shot",
                "selector": "damage"
            },
            {
                "key": "Note",
                "outcome": [
                    "success"
                ],
                "selector": "damage",
                "text": "<p class='compact-text'><strong>Rhino Shot</strong> The target must succeed at a <span data-pf2-check='fortitude' data-pf2-traits='damaging-effect,force,conjuration,consumable,magical' data-pf2-label='Rhino Shot DC' data-pf2-dc='19' data-pf2-show-dc='all'>Fortitude</span> save or be knocked @Compendium[pf2e.conditionitems.Prone]{Prone}.</p>"
            },
            {
                "key": "Note",
                "outcome": [
                    "criticalSuccess"
                ],
                "selector": "damage",
                "text": "<p class='compact-text'><strong>Rhino Shot</strong> The target must critically succeed at a <span data-pf2-check='fortitude' data-pf2-traits='damaging-effect,force,conjuration,consumable,magical' data-pf2-label='Rhino Shot DC' data-pf2-dc='19' data-pf2-show-dc='all'>Fortitude</span> save or be knocked @Compendium[pf2e.conditionitems.Prone]{Prone}.</p>"
            }
        ],
        "source": {
            "value": ""
        },
        "start": {
            "initiative": null,
            "value": 0
        },
        "target": null,
        "tokenIcon": {
            "show": true
        },
        "traits": {
            "custom": "",
            "rarity": "common",
            "value": []
        }
    },
    "effects": [],
    "flags": {},
    "img": "systems/pf2e/icons/default-icons/effect.svg",
    "name": "Effect: Rhino Shot",
    "type": "effect"
}
