{
    "_id": "7p9HtLzWBHc18JDW",
    "data": {
        "ancestry": {
            "name": "Ratfolk",
            "uuid": "Compendium.pf2e.ancestries.P6PcVnCkh4XMdefw"
        },
        "description": {
            "value": "<p>Your ancestors lived deeper underground than other ratfolk, granting you the ability to see in the dark. You gain @Compendium[pf2e.ancestryfeatures.Darkvision]{Darkvision}.</p>"
        },
        "rules": [
            {
                "key": "Sense",
                "label": "PF2E.SensesDarkvision",
                "selector": "darkvision"
            }
        ],
        "source": {
            "value": ""
        },
        "traits": {
            "custom": "",
            "rarity": "common",
            "value": []
        }
    },
    "effects": [],
    "flags": {},
    "img": "systems/pf2e/icons/features/ancestry/deep-rat.webp",
    "name": "Deep Rat",
    "type": "heritage"
}
