{
    "_id": "6JKdAZGa8odFzleS",
    "data": {
        "ancestry": {
            "name": "Goloma",
            "uuid": "Compendium.pf2e.ancestries.c4secsSNG2AO7I5i"
        },
        "description": {
            "value": "<p>Your eyes have adapted to see more in less than favorable conditions. You gain @Compendium[pf2e.ancestryfeatures.Low-Light Vision]{Low-Light Vision}.</p>"
        },
        "rules": [
            {
                "key": "Sense",
                "label": "PF2E.SensesLowLightVision",
                "selector": "lowLightVision"
            }
        ],
        "source": {
            "value": ""
        },
        "traits": {
            "custom": "",
            "rarity": "common",
            "value": []
        }
    },
    "effects": [],
    "flags": {},
    "img": "systems/pf2e/icons/default-icons/heritage.svg",
    "name": "Farsight Goloma",
    "type": "heritage"
}
