{
    "_id": "HpqQ5VQ0w4HqYgVC",
    "data": {
        "ancestry": {
            "name": "Catfolk",
            "uuid": "Compendium.pf2e.ancestries.972EkpJOPv9KkQIW"
        },
        "description": {
            "value": "<p>You're descended from jungle stalkers and can move swiftly through scrub and underbrush. You ignore difficult terrain from undergrowth, and greater difficult terrain from undergrowth is only difficult terrain for you.</p>"
        },
        "rules": [],
        "source": {
            "value": ""
        },
        "traits": {
            "custom": "",
            "rarity": "common",
            "value": []
        }
    },
    "effects": [],
    "flags": {},
    "img": "systems/pf2e/icons/features/ancestry/jungle-catfolk.webp",
    "name": "Jungle Catfolk",
    "type": "heritage"
}
