{
    "_id": "hOPOyyt7qZXYYCOU",
    "data": {
        "ancestry": {
            "name": "Catfolk",
            "uuid": "Compendium.pf2e.ancestries.972EkpJOPv9KkQIW"
        },
        "description": {
            "value": "<p>Your family has always seemed to bound back from disaster, not through physical hardiness or specialized skill, but from sheer luck. Other catfolk whisper that you have nine lives.</p>\n<p>If you are reduced to 0 Hit Points by a critical hit on an attack roll, you become @Compendium[pf2e.conditionitems.Dying]{Dying 1} instead of dying 2.</p>"
        },
        "rules": [],
        "source": {
            "value": ""
        },
        "traits": {
            "custom": "",
            "rarity": "common",
            "value": []
        }
    },
    "effects": [],
    "flags": {},
    "img": "systems/pf2e/icons/features/ancestry/nine-lives-catfolk.webp",
    "name": "Nine Lives Catfolk",
    "type": "heritage"
}
