{
    "_id": "bmA9JK06rnOKpNLr",
    "data": {
        "ancestry": {
            "name": "Grippli",
            "uuid": "Compendium.pf2e.ancestries.hXM5jXezIki1cMI2"
        },
        "description": {
            "value": "<p>You may be small, but the poison glands concealed across your body hide a deadly defense. You gain the @Compendium[pf2e.actionspf2e.Toxic Skin]{Toxic Skin} reaction.</p>"
        },
        "rules": [
            {
                "key": "GrantItem",
                "uuid": "Compendium.pf2e.actionspf2e.Toxic Skin"
            }
        ],
        "source": {
            "value": ""
        },
        "traits": {
            "custom": "",
            "rarity": "common",
            "value": []
        }
    },
    "effects": [],
    "flags": {},
    "img": "systems/pf2e/icons/default-icons/heritage.svg",
    "name": "Poisonhide Grippli",
    "type": "heritage"
}
