{
    "_id": "MUujYQYWg6PNVaaN",
    "data": {
        "ancestry": {
            "name": "Strix",
            "uuid": "Compendium.pf2e.ancestries.GXcC6oVa5quzgNHD"
        },
        "description": {
            "value": "<p>You come from a line of strix with exceptionally broad wings and lengthy talons. You gain a talon melee unarmed attack that deals [[/r {1d4}[slashing]]]{1d4 slashing damage}. Your talon attack is in the brawling group and has the agile, finesse, and unarmed traits.</p>"
        },
        "rules": [
            {
                "category": "unarmed",
                "damage": {
                    "base": {
                        "damageType": "slashing",
                        "dice": 1,
                        "die": "d4"
                    }
                },
                "group": "brawling",
                "img": "systems/pf2e/icons/unarmed-attacks/talon.webp",
                "key": "Strike",
                "label": "PF2E.BattleForm.Attack.Talon",
                "range": null,
                "traits": [
                    "agile",
                    "finesse",
                    "unarmed"
                ]
            }
        ],
        "source": {
            "value": ""
        },
        "traits": {
            "custom": "",
            "rarity": "common",
            "value": []
        }
    },
    "effects": [],
    "flags": {},
    "img": "systems/pf2e/icons/default-icons/heritage.svg",
    "name": "Predator Strix",
    "type": "heritage"
}
