{
    "_id": "GpnHIonrLN8TFZci",
    "data": {
        "ancestry": {
            "name": "Conrasu",
            "uuid": "Compendium.pf2e.ancestries.tZn4qIHCUA6wCdnI"
        },
        "description": {
            "value": "<p>You augmented your exoskeleton with magic. You gain one cantrip from the arcane or occult spell list. You can cast this spell as an innate spell at will. A cantrip is heightened to a spell level equal to half your level rounded up.</p>"
        },
        "rules": [],
        "source": {
            "value": ""
        },
        "traits": {
            "custom": "",
            "rarity": "common",
            "value": []
        }
    },
    "effects": [],
    "flags": {},
    "img": "systems/pf2e/icons/default-icons/heritage.svg",
    "name": "Rite of Invocation",
    "type": "heritage"
}
