{
    "_id": "faLb2rczsrxAuOTt",
    "data": {
        "ancestry": {
            "name": "Conrasu",
            "uuid": "Compendium.pf2e.ancestries.tZn4qIHCUA6wCdnI"
        },
        "description": {
            "value": "<p>You enhanced your exoskeleton with a connection to Axis, allowing you to tap into the infinite knowledge of the plane. You gain the @Compendium[pf2e.actionspf2e.Call to Axis]{Call to Axis} action.</p>"
        },
        "rules": [
            {
                "key": "GrantItem",
                "uuid": "Compendium.pf2e.actionspf2e.Call to Axis"
            }
        ],
        "source": {
            "value": ""
        },
        "traits": {
            "custom": "",
            "rarity": "common",
            "value": []
        }
    },
    "effects": [],
    "flags": {},
    "img": "systems/pf2e/icons/default-icons/heritage.svg",
    "name": "Rite of Knowing",
    "type": "heritage"
}
