{
    "_id": "q2omqJ9t0skGTYki",
    "data": {
        "ancestry": {
            "name": "Conrasu",
            "uuid": "Compendium.pf2e.ancestries.tZn4qIHCUA6wCdnI"
        },
        "description": {
            "value": "<p>Your woven exoskeleton rivals the hardest armors that can be found. Your exoskeleton is medium armor in the plate armor group that grants a +4 item bonus to AC, a Dex cap of +1, a check penalty of -2, a speed penalty of -5 feet, and a Strength value of 16, and has the comfort trait. You can never wear other armor or remove your exoskeleton. You can etch armor runes onto your exoskeleton as normal.</p>\n<p>@Compendium[pf2e.equipment-srd.Rite of Reinforcement Exoskeleton]{Rite of Reinforcement Exoskeleton}</p>"
        },
        "rules": [
            {
                "key": "GrantItem",
                "uuid": "Compendium.pf2e.equipment-srd.Rite of Reinforcement Exoskeleton"
            }
        ],
        "source": {
            "value": ""
        },
        "traits": {
            "custom": "",
            "rarity": "common",
            "value": []
        }
    },
    "effects": [],
    "flags": {},
    "img": "systems/pf2e/icons/default-icons/heritage.svg",
    "name": "Rite of Reinforcement",
    "type": "heritage"
}
