{
    "_id": "uxtcKTkD62SmrUoh",
    "data": {
        "ancestry": {
            "name": "Fleshwarp",
            "uuid": "Compendium.pf2e.ancestries.FXlXmNBFiiz9oasi"
        },
        "description": {
            "value": "<p>A victim of fleshwarping, you likely bear loose flesh, bony spurs, or features of inhuman creatures sprouting from your skin. You have nevertheless turned the psychic toll of your transformation into a strength. You gain resistance to mental damage equal to half your level (minimum 1).</p>"
        },
        "rules": [
            {
                "key": "Resistance",
                "type": "mental",
                "value": "max(1,floor(@actor.level/2))"
            }
        ],
        "source": {
            "value": "Pathfinder Lost Omens: Ancestry Guide"
        },
        "traits": {
            "custom": "",
            "rarity": "common",
            "value": []
        }
    },
    "effects": [],
    "flags": {},
    "img": "systems/pf2e/icons/default-icons/heritage.svg",
    "name": "Shapewrought Fleshwarp",
    "type": "heritage"
}
