{
    "_id": "ZW8GX14n3ZGievK1",
    "data": {
        "ancestry": {
            "name": "Kobold",
            "uuid": "Compendium.pf2e.ancestries.7oQxL6wgsokD3QXG"
        },
        "description": {
            "value": "<p>You grew up in a warren crisscrossed by underwater passages, whether natural or excavated. You gain a swim Speed of 15 feet.</p>"
        },
        "rules": [
            {
                "key": "BaseSpeed",
                "selector": "swim-speed",
                "value": 15
            }
        ],
        "source": {
            "value": ""
        },
        "traits": {
            "custom": "",
            "rarity": "common",
            "value": []
        }
    },
    "effects": [],
    "flags": {},
    "img": "systems/pf2e/icons/default-icons/heritage.svg",
    "name": "Tunnelflood Kobold",
    "type": "heritage"
}
