{
    "_id": "kTlJqhC7ZSE8P8lu",
    "data": {
        "ancestry": {
            "name": "Anadi",
            "uuid": "Compendium.pf2e.ancestries.TQEqWqc7BYiadUdY"
        },
        "description": {
            "value": "<p>Your natural form's fangs are capable of injecting foes with venom. You gain the @Compendium[pf2e.actionspf2e.Anadi Venom]{Anadi Venom} ability.</p>"
        },
        "rules": [
            {
                "key": "GrantItem",
                "uuid": "Compendium.pf2e.actionspf2e.Anadi Venom"
            }
        ],
        "source": {
            "value": ""
        },
        "traits": {
            "custom": "",
            "rarity": "common",
            "value": []
        }
    },
    "effects": [],
    "flags": {},
    "img": "systems/pf2e/icons/default-icons/heritage.svg",
    "name": "Venomous Anadi",
    "type": "heritage"
}
