{
    "_id": "WEzgrxBRFBGdj8Hx",
    "data": {
        "ancestry": {
            "name": "Tengu",
            "uuid": "Compendium.pf2e.ancestries.18xDKYPDBLEv2myX"
        },
        "description": {
            "value": "<p>You're one of the rare tengu who can cut through water like a bird through air, and you often lurk in rivers or oceans where few expect you. You gain a swim Speed of 15 feet.</p>"
        },
        "rules": [
            {
                "key": "BaseSpeed",
                "selector": "swim",
                "value": 15
            }
        ],
        "source": {
            "value": ""
        },
        "traits": {
            "custom": "",
            "rarity": "common",
            "value": []
        }
    },
    "effects": [],
    "flags": {},
    "img": "systems/pf2e/icons/default-icons/heritage.svg",
    "name": "Wavediver Tengu",
    "type": "heritage"
}
