{
    "_id": "w5801ArZQCU8IXnU",
    "data": {
        "ancestry": {
            "name": "Poppet",
            "uuid": "Compendium.pf2e.ancestries.6F2fSFC1Eo1JdpY4"
        },
        "description": {
            "value": "<p>You were wished to life, either by a powerful spellcaster or by the earnest desire of an innocent person who loved you very much. You're living proof that a hopeful spirit can overcome any obstacle. If you roll a success on a saving throw against an emotion or fear effect, you get a critical success instead.</p>"
        },
        "rules": [
            {
                "adjustment": {
                    "success": "one-degree-better"
                },
                "key": "AdjustDegreeOfSuccess",
                "predicate": {
                    "any": [
                        "emotion",
                        "fear"
                    ]
                },
                "selector": "saving-throw",
                "type": "save"
            }
        ],
        "source": {
            "value": "Pathfinder Lost Omens: The Grand Bazaar"
        },
        "traits": {
            "custom": "",
            "rarity": "common",
            "value": []
        }
    },
    "effects": [],
    "flags": {},
    "img": "systems/pf2e/icons/default-icons/heritage.svg",
    "name": "Wishborn Poppet",
    "type": "heritage"
}
