{
    "_id": "kXp8qRh5AgtD4Izi",
    "data": {
        "ancestry": {
            "name": "Gnoll",
            "uuid": "Compendium.pf2e.ancestries.vxbQ1Yw4qwgjTzqo"
        },
        "description": {
            "value": "<p>You're a shaggy, dark-furred gnoll capable of making some truly uncanny sounds. You can cast the <em>@Compendium[pf2e.spells-srd.Ghost Sound]{Ghost Sound}</em> cantrip as an occult innate spell at will. A cantrip is heightened to a spell level equal to half your level rounded up. In addition, you gain a +1 circumstance bonus to checks to Impersonate and Create a Diversion when using only your voice.</p>"
        },
        "rules": [
            {
                "key": "FlatModifier",
                "label": "Witch Gnoll (voice bonus only)",
                "predicate": {
                    "all": [
                        "auditory"
                    ],
                    "any": [
                        "action:impersonate",
                        "action:create-a-diversion"
                    ]
                },
                "selector": "deception",
                "type": "circumstance",
                "value": 1
            }
        ],
        "source": {
            "value": ""
        },
        "traits": {
            "custom": "",
            "rarity": "common",
            "value": []
        }
    },
    "effects": [],
    "flags": {},
    "img": "systems/pf2e/icons/default-icons/heritage.svg",
    "name": "Witch Gnoll",
    "type": "heritage"
}
