{
    "_id": "zj3s5CUsTjRRiROd",
    "data": {
        "attributes": {
            "ac": {
                "value": 10
            },
            "hardness": 0,
            "hasHealth": true,
            "hp": {
                "details": "",
                "max": 10,
                "temp": 0,
                "value": 10
            },
            "stealth": {
                "details": "<p>+20 (master) to notice cracks forming in the walls of the structure as Mogaru approaches</p>",
                "value": 20
            }
        },
        "creatureType": "",
        "details": {
            "description": "<p>Mogaru brushes against a structure, severely compromising the building's stability and possibly causing it to collapse.</p>",
            "disable": "<p><span data-pf2-check=\"athletics\" data-pf2-label=\"Brace the Structure DC\" data-pf2-dc=\"43\" data-pf2-show-dc=\"gm\">Athletics</span> (master), <span data-pf2-check=\"crafting\" data-pf2-label=\"Brace the Structure DC\" data-pf2-dc=\"43\" data-pf2-show-dc=\"gm\">Crafting</span>(master), or <span data-pf2-check=\"engineering-lore\" data-pf2-label=\"Brace the Structure DC\" data-pf2-dc=\"43\" data-pf2-show-dc=\"gm\">Engineering Lore</span> (master) to brace the structure to reduce the risk of collapse until the end of the creature's next turn. The DC of the flat check for this round (see Routine) is increased by 4 on a success, or by 8 on a critical success. Increasing the flat check DC to 21 or higher stabilizes the structure, ending this hazard.</p>",
            "isComplex": true,
            "level": {
                "value": 15
            },
            "reset": "<p>The building becomes susceptible to Shake Apart again [[/r 1d6]]{1d6 rounds} after it is stabilized.</p>",
            "routine": "<p>(1 action) The GM rolls a DC 9 flat check to determine if the building collapses, increasing the DC as listed above. On a successful check, dust and debris fall within the building and 30 feet around it, providing concealment and dealing [[/r {6d6}[bludgeoning]]]{6d6 bludgeoning damage} to [[/r 1d4]] randomly chosen targets (<span data-pf2-check=\"reflex\" data-pf2-traits=\"damaging-effect\" data-pf2-label=\"Collapsing Structure DC\" data-pf2-dc=\"35\" data-pf2-show-dc=\"gm\">basic Reflex</span> save; on a critically failed save, the creature is knocked @Compendium[pf2e.conditionitems.Prone]{Prone}). On a critical success, the effect is the same, but the debris deals [[/r {12d6}[bludgeoning]]]{12d6 bludgeoning damage} to [[/r 2d4]] randomly chosen targets instead (<span data-pf2-check=\"reflex\" data-pf2-traits=\"damaging-effect\" data-pf2-label=\"Collapsing Structure DC\" data-pf2-dc=\"35\" data-pf2-show-dc=\"gm\">basic Reflex</span> save; on a critically failed Reflex save, the creature is restrained by rubble until freed [Force Open DC 38, Escape DC 35]).</p>"
        },
        "saves": {
            "fortitude": {
                "saveDetail": "",
                "value": 0
            },
            "reflex": {
                "saveDetail": "",
                "value": 0
            },
            "will": {
                "saveDetail": "",
                "value": 0
            }
        },
        "source": {
            "value": "Pathfinder #167: Ready? Fight!"
        },
        "statusEffects": [],
        "traits": {
            "ci": [],
            "di": {
                "custom": "",
                "selected": {},
                "value": []
            },
            "dr": [],
            "dv": [],
            "rarity": "common",
            "size": {
                "value": "med"
            },
            "traits": {
                "custom": "",
                "value": [
                    "environmental"
                ]
            }
        }
    },
    "effects": [],
    "flags": {},
    "img": "systems/pf2e/icons/default-icons/hazard.svg",
    "items": [
        {
            "_id": "2HYs6bwPR6eSgF5p",
            "data": {
                "actionCategory": {
                    "value": "offensive"
                },
                "actionType": {
                    "value": "reaction"
                },
                "actions": {
                    "value": null
                },
                "description": {
                    "value": "<p data-visibility=\"gm\"><strong>Trigger</strong> Mogaru applies any amount of force to the structure</p>\n<p><strong>Effect</strong> The building trembles. The floors of the building and the streets within 30 feet of the building become difficult terrain; creatures on this difficult terrain take a -2 circumstance penalty to attack rolls, AC, and skill checks. The hazard rolls initiative.</p>"
                },
                "requirements": {
                    "value": ""
                },
                "rules": [],
                "slug": null,
                "source": {
                    "value": ""
                },
                "traits": {
                    "custom": "",
                    "rarity": "common",
                    "value": []
                },
                "trigger": {
                    "value": ""
                },
                "weapon": {
                    "value": ""
                }
            },
            "effects": [],
            "flags": {},
            "img": "systems/pf2e/icons/actions/Reaction.webp",
            "name": "Shake Apart",
            "sort": 0,
            "type": "action"
        }
    ],
    "name": "Collapsing Structure",
    "token": {
        "disposition": 0,
        "height": 1,
        "img": "systems/pf2e/icons/default-icons/hazard.svg",
        "name": "Collapsing Structure",
        "width": 1
    },
    "type": "hazard"
}
