{
    "_id": "KeKlBbO3hfT5mzqO",
    "data": {
        "attributes": {
            "ac": {
                "value": 10
            },
            "hardness": 0,
            "hasHealth": false,
            "hp": {
                "details": "",
                "max": 0,
                "temp": 0,
                "value": 0
            },
            "stealth": {
                "details": "",
                "value": 0
            }
        },
        "creatureType": "",
        "details": {
            "description": "Ebeshra aligns its crystalline form to produce a blast of lightning that charges the surrounding area with electrical energy.",
            "disable": "<p><span data-pf2-check=\"nature\" data-pf2-traits=\"divine,electricity,environmental,evocation,kaiju,hazard\" data-pf2-label=\"Balance the Electrical Charges DC\" data-pf2-dc=\"45\" data-pf2-show-dc=\"gm\">Nature</span> (master) to balance the electrical charges in the area or <span data-pf2-check=\"deception\" data-pf2-traits=\"divine,electricity,environmental,evocation,kaiju,hazard\" data-pf2-label=\"Divert Ebeshra's Attention DC\" data-pf2-dc=\"48\" data-pf2-show-dc=\"gm\">Deception</span> (expert) to momentarily divert Ebeshra's attention</p>",
            "isComplex": false,
            "level": {
                "value": 18
            },
            "reset": "<p>Ebeshra waits [[/br 1d4 #Lightning Blast Wait]] rounds before another blast.</p>",
            "routine": ""
        },
        "flavourText": "",
        "nethysUrl": "",
        "recallKnowledgeText": "",
        "saves": {
            "fortitude": {
                "saveDetail": "",
                "value": 0
            },
            "reflex": {
                "saveDetail": "",
                "value": 0
            },
            "will": {
                "saveDetail": "",
                "value": 0
            }
        },
        "sidebarText": "",
        "source": {
            "value": ""
        },
        "statusEffects": [],
        "traits": {
            "ci": [],
            "di": {
                "custom": "",
                "selected": {},
                "value": []
            },
            "dr": [],
            "dv": [],
            "rarity": "rare",
            "size": {
                "value": "med"
            },
            "traits": {
                "custom": "",
                "value": [
                    "divine",
                    "electricity",
                    "environmental",
                    "evocation",
                    "kaiju"
                ]
            }
        }
    },
    "effects": [],
    "flags": {},
    "img": "systems/pf2e/icons/default-icons/hazard.svg",
    "items": [
        {
            "_id": "twl0rallmt9sftkf",
            "data": {
                "actionCategory": {
                    "value": "offensive"
                },
                "actionType": {
                    "value": "reaction"
                },
                "actions": {
                    "value": null
                },
                "description": {
                    "value": "<p data-visibility=\"gm\"><strong>Trigger</strong> A creature takes a hostile action against Ebeshra, produces a visible area effect, or flies within 120 feet of Ebeshra</p>\n<p><strong>Effect</strong> Ebeshra unleashes a @Template[type:line|distance:240] of electricity toward the triggering creature. Creatures in the line take [[/r {16d8}[electricity]]]{16d8 electricity damage} (<span data-pf2-check=\"reflex\" data-pf2-traits=\"damaging-effect,divine,electricity,environmental,evocation,kaiju,hazard\" data-pf2-label=\"Lightning Blast DC\" data-pf2-dc=\"42\" data-pf2-show-dc=\"gm\">basic Reflex</span> save). The electricity creates a static field in all squares that the line passed through and all adjacent squares. For 1 round, any creatures that enter a space in the static field take [[/r {4d8}[electricity]]]{4d8 electricity damage} (<span data-pf2-check=\"reflex\" data-pf2-traits=\"damaging-effect,divine,electricity,environmental,evocation,kaiju,hazard\" data-pf2-label=\"Static Field DC\" data-pf2-dc=\"38\" data-pf2-show-dc=\"gm\">basic Reflex</span> save).</p>"
                },
                "requirements": {
                    "value": ""
                },
                "rules": [],
                "slug": null,
                "source": {
                    "value": ""
                },
                "traits": {
                    "custom": "",
                    "rarity": "common",
                    "value": []
                },
                "trigger": {
                    "value": ""
                }
            },
            "effects": [],
            "flags": {},
            "img": "systems/pf2e/icons/actions/Reaction.webp",
            "name": "Lightning Blast",
            "sort": 0,
            "type": "action"
        }
    ],
    "name": "Storm Discharge",
    "token": {
        "disposition": 0,
        "height": 1,
        "img": "systems/pf2e/icons/default-icons/npc.svg",
        "name": "Storm Discharge",
        "width": 1
    },
    "type": "hazard"
}
