{
    "_id": "C87bRxKDTuJXGkPG",
    "data": {
        "abilities": {
            "cha": {
                "mod": 4
            },
            "con": {
                "mod": 4
            },
            "dex": {
                "mod": 5
            },
            "int": {
                "mod": 4
            },
            "str": {
                "mod": 8
            },
            "wis": {
                "mod": 6
            }
        },
        "attributes": {
            "ac": {
                "details": "",
                "value": 32
            },
            "allSaves": {
                "value": "+2 status to all saves vs. water"
            },
            "hp": {
                "details": "Hardness 10 (Ship Armor)",
                "max": 200,
                "temp": 0,
                "value": 200
            },
            "initiative": {
                "ability": "perception"
            },
            "perception": {
                "value": 26
            },
            "speed": {
                "details": "",
                "otherSpeeds": [
                    {
                        "type": "swim",
                        "value": "60"
                    }
                ],
                "special": "",
                "value": "30"
            }
        },
        "details": {
            "alignment": {
                "value": "CN"
            },
            "blurb": "",
            "creatureType": "",
            "level": {
                "value": 13
            },
            "privateNotes": "",
            "publicNotes": "<p>Though her current form is but a small and pale shell of her former glory, Tehialai is a legend even in her waning days. The titanic crustacean wears the hulls of ruined ships as her shell, ripped into shape by vessel-rending claws, as nothing else in Golarion's oceans is large enough to shield her body-or perhaps nothing else will satisfy her. Few ships can withstand her might, and fewer still are prepared for her appearance. Those who don't know of the thief of ships won't know to watch for her coming, and those who do know Tehialai offer her tribute to ward off her predation.</p>",
            "source": {
                "value": "Pathfinder Lost Omens: Monsters of Myth"
            }
        },
        "resources": {},
        "saves": {
            "fortitude": {
                "saveDetail": "",
                "value": 26
            },
            "reflex": {
                "saveDetail": "",
                "value": 20
            },
            "will": {
                "saveDetail": "",
                "value": 23
            }
        },
        "traits": {
            "ci": [],
            "di": {
                "custom": "",
                "value": []
            },
            "dr": [],
            "dv": [],
            "languages": {
                "custom": "",
                "selected": [],
                "value": [
                    "aquan",
                    "okaiyan"
                ]
            },
            "rarity": "unique",
            "senses": {
                "value": "darkvision, wavesense 60"
            },
            "size": {
                "value": "grg"
            },
            "traits": {
                "custom": "",
                "value": [
                    "amphibious",
                    "aquatic",
                    "beast"
                ]
            }
        }
    },
    "effects": [],
    "flags": {},
    "img": "systems/pf2e/icons/default-icons/npc.svg",
    "items": [
        {
            "_id": "diguc9iuf3fbbrci",
            "data": {
                "attack": {
                    "value": ""
                },
                "attackEffects": {
                    "custom": "",
                    "value": []
                },
                "bonus": {
                    "value": 27
                },
                "damageRolls": {
                    "89x4rdgq9sUOKdQS": {
                        "damage": "4d8+10",
                        "damageType": "bludgeoning"
                    }
                },
                "description": {
                    "value": ""
                },
                "rules": [],
                "slug": null,
                "source": {
                    "value": ""
                },
                "traits": {
                    "custom": "",
                    "rarity": "common",
                    "value": [
                        "magical",
                        "reach-10"
                    ]
                },
                "weaponType": {
                    "value": "melee"
                }
            },
            "effects": [],
            "flags": {},
            "img": "systems/pf2e/icons/default-icons/melee.svg",
            "name": "Mandibles",
            "sort": 100000,
            "type": "melee"
        },
        {
            "_id": "YXR28hbIeP6ll9gK",
            "data": {
                "attack": {
                    "value": ""
                },
                "attackEffects": {
                    "custom": "",
                    "value": [
                        "exoskeletal-armory"
                    ]
                },
                "bonus": {
                    "value": 27
                },
                "damageRolls": {
                    "1di2fi2hkfhbbybeucou": {
                        "damage": "4d8+12",
                        "damageType": "piercing"
                    }
                },
                "description": {
                    "value": "<p>This long claw comes to a fine point, with barbs that can grip onto flesh and cloth alike.</p>"
                },
                "rules": [],
                "slug": null,
                "source": {
                    "value": ""
                },
                "traits": {
                    "custom": "",
                    "rarity": "common",
                    "value": [
                        "magical",
                        "reach-15"
                    ]
                },
                "weaponType": {
                    "value": "melee"
                }
            },
            "effects": [],
            "flags": {},
            "img": "systems/pf2e/icons/default-icons/melee.svg",
            "name": "Barbed Spear",
            "sort": 200000,
            "type": "melee"
        },
        {
            "_id": "dI9ScvFKMRsdda3p",
            "data": {
                "attack": {
                    "value": ""
                },
                "attackEffects": {
                    "custom": "",
                    "value": [
                        "exoskeletal-armory"
                    ]
                },
                "bonus": {
                    "value": 25
                },
                "damageRolls": {
                    "x77kj9b3wylt20ykgn8v": {
                        "damage": "4d12+12",
                        "damageType": "bludgeoning"
                    },
                    "d5iuns6ii3aowz12sgdu": {
                        "damage": "1d6",
                        "damageType": "fire"
                    }
                },
                "description": {
                    "value": "<p>The head of this short, blunt claw has a pattern not unlike a human face.</p>"
                },
                "rules": [],
                "slug": null,
                "source": {
                    "value": ""
                },
                "traits": {
                    "custom": "",
                    "rarity": "common",
                    "value": [
                        "magical"
                    ]
                },
                "weaponType": {
                    "value": "melee"
                }
            },
            "effects": [],
            "flags": {},
            "img": "systems/pf2e/icons/default-icons/melee.svg",
            "name": "Boiling Club",
            "sort": 300000,
            "type": "melee"
        },
        {
            "_id": "JUW1nW4hD8rjUIcs",
            "data": {
                "attack": {
                    "value": ""
                },
                "attackEffects": {
                    "custom": "",
                    "value": [
                        "exoskeletal-armory"
                    ]
                },
                "bonus": {
                    "value": 27
                },
                "damageRolls": {
                    "1i7ilsap1h5k46xq5wes": {
                        "damage": "4d6+12",
                        "damageType": "slashing"
                    }
                },
                "description": {
                    "value": "<p>This chitinous disk bears numerous serrated protrusions, like a wheel of sharks’ teeth.</p>"
                },
                "rules": [],
                "slug": null,
                "source": {
                    "value": ""
                },
                "traits": {
                    "custom": "",
                    "rarity": "common",
                    "value": [
                        "fatal-d10",
                        "magical",
                        "reach-15"
                    ]
                },
                "weaponType": {
                    "value": "melee"
                }
            },
            "effects": [],
            "flags": {},
            "img": "systems/pf2e/icons/default-icons/melee.svg",
            "name": "Toothed Shredder",
            "sort": 400000,
            "type": "melee"
        },
        {
            "_id": "gpmno9ye3gdiyugd",
            "data": {
                "attack": {
                    "value": ""
                },
                "attackEffects": {
                    "custom": "",
                    "value": []
                },
                "bonus": {
                    "value": 25
                },
                "damageRolls": {
                    "BWO873JBdoUug21o": {
                        "damage": "4d6+10",
                        "damageType": "piercing"
                    }
                },
                "description": {
                    "value": ""
                },
                "rules": [],
                "slug": null,
                "source": {
                    "value": ""
                },
                "traits": {
                    "custom": "",
                    "rarity": "common",
                    "value": [
                        "magical",
                        "range-120",
                        "water"
                    ]
                },
                "weaponType": {
                    "value": "ranged"
                }
            },
            "effects": [],
            "flags": {},
            "img": "systems/pf2e/icons/default-icons/melee.svg",
            "name": "Water Spit",
            "sort": 500000,
            "type": "melee"
        },
        {
            "_id": "MQmgEthHZisQ9xf2",
            "data": {
                "attack": {
                    "value": ""
                },
                "attackEffects": {
                    "custom": "",
                    "value": [
                        "exoskeletal-armory"
                    ]
                },
                "bonus": {
                    "value": 26
                },
                "damageRolls": {
                    "tl77m9uuruyoo5yekjh2": {
                        "damage": "2d8+12",
                        "damageType": "piercing"
                    },
                    "3mql7ezl4m1bzpvyopqk": {
                        "damage": "2d8",
                        "damageType": "acid"
                    }
                },
                "description": {
                    "value": "<p>A cluster of jagged salt crystals break off and regrow constantly as they draw salinity from the sea.</p>"
                },
                "rules": [],
                "slug": null,
                "source": {
                    "value": ""
                },
                "traits": {
                    "custom": "",
                    "rarity": "common",
                    "value": [
                        "magical",
                        "range-120"
                    ]
                },
                "weaponType": {
                    "value": "ranged"
                }
            },
            "effects": [],
            "flags": {},
            "img": "systems/pf2e/icons/default-icons/melee.svg",
            "name": "Salt Darts",
            "sort": 600000,
            "type": "melee"
        },
        {
            "_id": "puKhUADYgUkKESYL",
            "data": {
                "attack": {
                    "value": ""
                },
                "attackEffects": {
                    "custom": "",
                    "value": [
                        "exoskeletal-armory"
                    ]
                },
                "bonus": {
                    "value": 36
                },
                "damageRolls": {
                    "iiee7249zvaysg0ysprl": {
                        "damage": "2d8+4",
                        "damageType": "bludgeoning"
                    },
                    "yhxc9pqymnu7z9cnp3y9": {
                        "damage": "2d8",
                        "damageType": "cold"
                    }
                },
                "description": {
                    "value": "<p>This spherical, transparent growth sprouts vesicles of frigid water that detach and fly like sling stones.</p>"
                },
                "rules": [],
                "slug": null,
                "source": {
                    "value": ""
                },
                "traits": {
                    "custom": "",
                    "rarity": "common",
                    "value": [
                        "magical",
                        "thrown-60",
                        "water"
                    ]
                },
                "weaponType": {
                    "value": "ranged"
                }
            },
            "effects": [],
            "flags": {},
            "img": "systems/pf2e/icons/default-icons/melee.svg",
            "name": "Tidal Gourd",
            "sort": 700000,
            "type": "melee"
        },
        {
            "_id": "M5d0cFGYLOpO7AXZ",
            "data": {
                "actionCategory": {
                    "value": "interaction"
                },
                "actionType": {
                    "value": "passive"
                },
                "actions": {
                    "value": null
                },
                "description": {
                    "value": "<p>@Localize[PF2E.NPC.Abilities.Glossary.Darkvision]</p>"
                },
                "requirements": {
                    "value": ""
                },
                "rules": [],
                "slug": "darkvision",
                "source": {
                    "value": ""
                },
                "traits": {
                    "custom": "",
                    "rarity": "common",
                    "value": []
                },
                "trigger": {
                    "value": ""
                },
                "weapon": {
                    "value": ""
                }
            },
            "effects": [],
            "flags": {
                "core": {
                    "sourceId": "Compendium.pf2e.bestiary-ability-glossary-srd.qCCLZhnp2HhP3Ex6"
                }
            },
            "img": "systems/pf2e/icons/actions/Passive.webp",
            "name": "Darkvision",
            "sort": 800000,
            "type": "action"
        },
        {
            "_id": "V6hj5nopxwUZDllT",
            "data": {
                "actionCategory": {
                    "value": "interaction"
                },
                "actionType": {
                    "value": "passive"
                },
                "actions": {
                    "value": null
                },
                "description": {
                    "value": "<p>@Localize[PF2E.NPC.Abilities.Glossary.Wavesense]</p>"
                },
                "requirements": {
                    "value": ""
                },
                "rules": [],
                "slug": "wavesense",
                "source": {
                    "value": ""
                },
                "traits": {
                    "custom": "",
                    "rarity": "common",
                    "value": []
                },
                "trigger": {
                    "value": ""
                },
                "weapon": {
                    "value": ""
                }
            },
            "effects": [],
            "flags": {
                "core": {
                    "sourceId": "Compendium.pf2e.bestiary-ability-glossary-srd.VdSMQ6yRZ3YXNXHL"
                }
            },
            "img": "systems/pf2e/icons/actions/Passive.webp",
            "name": "Wavesense 60 feet",
            "sort": 900000,
            "type": "action"
        },
        {
            "_id": "9IXGhh3OaOGmrPGe",
            "data": {
                "actionCategory": {
                    "value": "defensive"
                },
                "actionType": {
                    "value": "passive"
                },
                "actions": {
                    "value": null
                },
                "description": {
                    "value": ""
                },
                "requirements": {
                    "value": ""
                },
                "rules": [
                    {
                        "key": "FlatModifier",
                        "predicate": {
                            "any": [
                                "water"
                            ]
                        },
                        "selector": "saving-throw",
                        "type": "status",
                        "value": 2
                    }
                ],
                "slug": "1-status-to-all-saves-vs-magic",
                "source": {
                    "value": ""
                },
                "traits": {
                    "custom": "",
                    "rarity": "common",
                    "value": []
                },
                "trigger": {
                    "value": ""
                },
                "weapon": {
                    "value": ""
                }
            },
            "effects": [],
            "flags": {
                "core": {
                    "sourceId": "Compendium.pf2e.bestiary-ability-glossary-srd.kquBnQ0kObZztnBc"
                }
            },
            "img": "systems/pf2e/icons/actions/Passive.webp",
            "name": "+2 Status to All Saves vs Water",
            "sort": 1000000,
            "type": "action"
        },
        {
            "_id": "u52cjf9y21r8dnvp",
            "data": {
                "actionCategory": {
                    "value": "defensive"
                },
                "actionType": {
                    "value": "passive"
                },
                "actions": {
                    "value": null
                },
                "description": {
                    "value": "<p>At the beginning of each day, Tehialai can molt to change the morph of her two massive striking claws. She chooses two morphs and adds their Strikes and Release Claw effects to the stat block presented here. Tehialai can molt two different claws or two copies of the same claw.</p>"
                },
                "requirements": {
                    "value": ""
                },
                "rules": [],
                "slug": null,
                "source": {
                    "value": ""
                },
                "traits": {
                    "custom": "",
                    "rarity": "common",
                    "value": []
                },
                "trigger": {
                    "value": ""
                }
            },
            "effects": [],
            "flags": {},
            "img": "systems/pf2e/icons/actions/Passive.webp",
            "name": "Exoskeletal Armory",
            "sort": 1100000,
            "type": "action"
        },
        {
            "_id": "q2iuziax4xgfwgdf",
            "data": {
                "actionCategory": {
                    "value": "defensive"
                },
                "actionType": {
                    "value": "passive"
                },
                "actions": {
                    "value": null
                },
                "description": {
                    "value": "<p>Tehialai hides within a shell made of all the ships she has stolen. This ship armor reduces any damage Tehialai takes by an amount equal to its Hardness. Once Tehialai is reduced to fewer than half her Hit Points, or immediately upon being damaged by a critical hit, her ship armor breaks, removing her Hardness and reducing her Armor Class to 32.</p>"
                },
                "requirements": {
                    "value": ""
                },
                "rules": [
                    {
                        "key": "ToggleProperty",
                        "property": "flags.pf2e.rollOptions.all.ship-armor"
                    },
                    {
                        "key": "FlatModifier",
                        "predicate": {
                            "all": [
                                "ship-armor"
                            ]
                        },
                        "selector": "ac",
                        "type": "untyped",
                        "value": 4
                    }
                ],
                "slug": null,
                "source": {
                    "value": ""
                },
                "traits": {
                    "custom": "",
                    "rarity": "common",
                    "value": []
                },
                "trigger": {
                    "value": ""
                }
            },
            "effects": [],
            "flags": {},
            "img": "systems/pf2e/icons/actions/Passive.webp",
            "name": "Ship Armor",
            "sort": 1200000,
            "type": "action"
        },
        {
            "_id": "dxsqr0b9tubc939l",
            "data": {
                "actionCategory": {
                    "value": "offensive"
                },
                "actionType": {
                    "value": "action"
                },
                "actions": {
                    "value": 1
                },
                "description": {
                    "value": "<p>Tehialai attempts to capsize an aquatic vessel of her size or smaller that she's adjacent to. She must succeed at a <span data-pf2-check=\"athletics\" data-pf2-traits=\"\" data-pf2-label=\"\" data-pf2-dc=\"33\" data-pf2-show-dc=\"gm\">Athletics</span> check (reduced by 5 for each size smaller the vessel is) or the pilot's Sailing Lore DC, whichever is higher.</p>"
                },
                "requirements": {
                    "value": ""
                },
                "rules": [],
                "slug": null,
                "source": {
                    "value": ""
                },
                "traits": {
                    "custom": "",
                    "rarity": "common",
                    "value": [
                        "attack"
                    ]
                },
                "trigger": {
                    "value": ""
                }
            },
            "effects": [],
            "flags": {},
            "img": "systems/pf2e/icons/actions/OneAction.webp",
            "name": "Capsize",
            "sort": 1300000,
            "type": "action"
        },
        {
            "_id": "8bomge5fn1w3f0ne",
            "data": {
                "actionCategory": {
                    "value": "offensive"
                },
                "actionType": {
                    "value": "action"
                },
                "actions": {
                    "value": 3
                },
                "description": {
                    "value": "<div data-visibility=\"gm\"><strong>Requirements</strong> Tehialai is adjacent to a broken ship, and her ship armor is broken</div> <hr /><p><strong>Effect</strong> Tehialai claims nearby ship pieces to rebuild her home. She destroys the adjacent ship and rebuilds her ship armor, restoring her Hardness and increasing her AC back to 36.</p>"
                },
                "requirements": {
                    "value": ""
                },
                "rules": [],
                "slug": null,
                "source": {
                    "value": ""
                },
                "traits": {
                    "custom": "",
                    "rarity": "common",
                    "value": [
                        "manipulate"
                    ]
                },
                "trigger": {
                    "value": ""
                }
            },
            "effects": [],
            "flags": {},
            "img": "systems/pf2e/icons/actions/ThreeActions.webp",
            "name": "Move Home",
            "sort": 1400000,
            "type": "action"
        },
        {
            "_id": "vecml12tnguxl9xv",
            "data": {
                "actionCategory": {
                    "value": "offensive"
                },
                "actionType": {
                    "value": "action"
                },
                "actions": {
                    "value": 1
                },
                "description": {
                    "value": "<p data-visibility=\"gm\"><strong>Requirements</strong> Tehialai's claw isn't currently Pressurized</p>\n<hr />\n<p><strong>Effect</strong> Tehialai draws water into the base of one of her claws, building immense hydraulic pressure as she prepares to attack. The claw remains loaded until she Releases that Claw or 1 minute has passed, whichever comes first. While the claw is Pressurized, Tehialai can't use that claw to Strike. If Tehialai isn't at least partially within a body of water when she Pressurizes her Claw, she takes a -2 penalty to any attack rolls and DCs when she Releases that Claw.</p>"
                },
                "requirements": {
                    "value": ""
                },
                "rules": [],
                "slug": null,
                "source": {
                    "value": ""
                },
                "traits": {
                    "custom": "",
                    "rarity": "common",
                    "value": []
                },
                "trigger": {
                    "value": ""
                }
            },
            "effects": [],
            "flags": {},
            "img": "systems/pf2e/icons/actions/OneAction.webp",
            "name": "Pressurize Claw",
            "sort": 1500000,
            "type": "action"
        },
        {
            "_id": "pjzoiugkyyj7xsm8",
            "data": {
                "actionCategory": {
                    "value": "offensive"
                },
                "actionType": {
                    "value": "action"
                },
                "actions": {
                    "value": 1
                },
                "description": {
                    "value": "<div data-visibility=\"gm\"><strong>Requirements</strong> Tehialai has Pressurized a Claw</div>\n<hr />\n<p><strong>Effect</strong> Tehialai lashes out with the force of the sea. See each claw for its released effect; the DC for any effect is 33. After Releasing a Claw, the claw depressurizes.</p>"
                },
                "requirements": {
                    "value": ""
                },
                "rules": [],
                "slug": null,
                "source": {
                    "value": ""
                },
                "traits": {
                    "custom": "",
                    "rarity": "common",
                    "value": []
                },
                "trigger": {
                    "value": ""
                }
            },
            "effects": [],
            "flags": {},
            "img": "systems/pf2e/icons/actions/OneAction.webp",
            "name": "Release Claw",
            "sort": 1600000,
            "type": "action"
        },
        {
            "_id": "YLCOS3JpOrj20Jkd",
            "data": {
                "actionCategory": {
                    "value": "offensive"
                },
                "actionType": {
                    "value": "action"
                },
                "actions": {
                    "value": 1
                },
                "description": {
                    "value": "<div data-visibility=\"gm\"><strong>Requirements</strong> Tehialai has Pressurized a Claw</div>\n<hr />\n<p>Tehialai's spear shoots out, impaling prey and reeling them back. All creatures in a @Template[type:line|distance:40] take [[/r {8d6}[piercing]]]{8d6 piercing damage} (<span data-pf2-check=\"reflex\" data-pf2-traits=\"\" data-pf2-label=\"\" data-pf2-dc=\"33\" data-pf2-show-dc=\"gm\">basic Reflex save</span>); creatures that critically fail are @Compendium[pf2e.conditionitems.Grabbed]{Grabbed} until the end of Tehialai's next turn.</p>\n<hr />\n<p>After Releasing a Claw, the claw depressurizes.</p>"
                },
                "requirements": {
                    "value": ""
                },
                "rules": [],
                "slug": null,
                "source": {
                    "value": ""
                },
                "traits": {
                    "custom": "",
                    "rarity": "common",
                    "value": []
                },
                "trigger": {
                    "value": ""
                }
            },
            "effects": [],
            "flags": {},
            "img": "systems/pf2e/icons/actions/OneAction.webp",
            "name": "Release Claw (Barbed Spear)",
            "sort": 1700000,
            "type": "action"
        },
        {
            "_id": "WzhwwGOM13tr9gwg",
            "data": {
                "actionCategory": {
                    "value": "offensive"
                },
                "actionType": {
                    "value": "action"
                },
                "actions": {
                    "value": 1
                },
                "description": {
                    "value": "<div data-visibility=\"gm\"><strong>Requirements</strong> Tehialai has Pressurized a Claw</div>\n<hr />\n<p>The impact of Tehialai's claw begets a burning vacuum. Tehialai makes a boiling club Strike against one target within 15 feet. If she hits, a shock wave booms out, dealing [[/r {3d6}[fire]]]{3d6 fire damage} and [[/r {3d6}[sonic]]]{3d6 sonic damage} to all creatures except her within @Template[type:burst|distance:15]{15 feet of the target}, including the target itself (<span data-pf2-check=\"fortitude\" data-pf2-traits=\"\" data-pf2-label=\"\" data-pf2-dc=\"33\" data-pf2-show-dc=\"gm\">basic Fortitude save</span>). If the Strike was a critical hit, the target uses the degree of success one lower than it rolled on its save. Unlike most fire abilities, this ability can be used underwater, and the typical 5 fire resistance for being underwater doesn't apply.</p>\n<hr />\n<p>After Releasing a Claw, the claw depressurizes.</p>"
                },
                "requirements": {
                    "value": ""
                },
                "rules": [],
                "slug": null,
                "source": {
                    "value": ""
                },
                "traits": {
                    "custom": "",
                    "rarity": "common",
                    "value": [
                        "fire",
                        "range-15",
                        "sonic"
                    ]
                },
                "trigger": {
                    "value": ""
                }
            },
            "effects": [],
            "flags": {},
            "img": "systems/pf2e/icons/actions/OneAction.webp",
            "name": "Release Claw (Boiling Club)",
            "sort": 1800000,
            "type": "action"
        },
        {
            "_id": "2x4ewpu3Y11IBT0F",
            "data": {
                "actionCategory": {
                    "value": "offensive"
                },
                "actionType": {
                    "value": "action"
                },
                "actions": {
                    "value": 1
                },
                "description": {
                    "value": "<p>Tehialai launches a flurry of darts. She makes two salt dart Strikes against two different creatures. Both attacks count towards her multiple attack penalty, but she doesn't increase her penalty until after she has made both attacks.</p>"
                },
                "requirements": {
                    "value": ""
                },
                "rules": [],
                "slug": null,
                "source": {
                    "value": ""
                },
                "traits": {
                    "custom": "",
                    "rarity": "common",
                    "value": []
                },
                "trigger": {
                    "value": ""
                }
            },
            "effects": [],
            "flags": {},
            "img": "systems/pf2e/icons/actions/OneAction.webp",
            "name": "Release Claw (Salt Darts)",
            "sort": 1900000,
            "type": "action"
        },
        {
            "_id": "IDy4fmJtZId9WB5R",
            "data": {
                "actionCategory": {
                    "value": "offensive"
                },
                "actionType": {
                    "value": "action"
                },
                "actions": {
                    "value": 1
                },
                "description": {
                    "value": "<p>Tehialai atomizes the water in her claw to create a mist that fills a @Template[type:emanation|distance:40] centered on her and that lasts until the end of her next turn or until dispersed by a strong wind. All creatures within the mist become @Compendium[pf2e.conditionitems.Concealed]{Concealed}, and all creatures outside the mist become concealed to creatures within it. Wavesense functions through the mist and ignores the concealment.</p>"
                },
                "requirements": {
                    "value": ""
                },
                "rules": [],
                "slug": null,
                "source": {
                    "value": ""
                },
                "traits": {
                    "custom": "",
                    "rarity": "common",
                    "value": [
                        "water"
                    ]
                },
                "trigger": {
                    "value": ""
                }
            },
            "effects": [],
            "flags": {},
            "img": "systems/pf2e/icons/actions/OneAction.webp",
            "name": "Release Claw (Tidal Gourd)",
            "sort": 2000000,
            "type": "action"
        },
        {
            "_id": "RGHcdv0xct9SrTCI",
            "data": {
                "actionCategory": {
                    "value": "offensive"
                },
                "actionType": {
                    "value": "action"
                },
                "actions": {
                    "value": 1
                },
                "description": {
                    "value": "<p>Tehialai's claw whirs and spins to cut through armor and ship hulls. Tehialai makes a toothed shredder Strike. On a hit, the target becomes @Compendium[pf2e.conditionitems.Flat-Footed]{Flat-Footed} until the end of Tehialai's next turn and takes [[/r {2d12}[persistent,bleed]]]{2d12} @Compendium[pf2e.conditionitems.Persistent Damage]{Persistent bleed Damage}.</p>"
                },
                "requirements": {
                    "value": ""
                },
                "rules": [],
                "slug": null,
                "source": {
                    "value": ""
                },
                "traits": {
                    "custom": "",
                    "rarity": "common",
                    "value": []
                },
                "trigger": {
                    "value": ""
                }
            },
            "effects": [],
            "flags": {},
            "img": "systems/pf2e/icons/actions/OneAction.webp",
            "name": "Release Claw (Toothed Shredder)",
            "sort": 2100000,
            "type": "action"
        },
        {
            "_id": "y7x7ub70cs92o53h",
            "data": {
                "description": {
                    "value": ""
                },
                "mod": {
                    "value": 27
                },
                "proficient": {
                    "value": 0
                },
                "rules": [],
                "slug": null,
                "source": {
                    "value": ""
                },
                "traits": {
                    "custom": "",
                    "rarity": "common",
                    "value": []
                }
            },
            "effects": [],
            "flags": {},
            "img": "systems/pf2e/icons/default-icons/lore.svg",
            "name": "Acrobatics",
            "sort": 2200000,
            "type": "lore"
        },
        {
            "_id": "nb0i716d3ogb13qm",
            "data": {
                "description": {
                    "value": ""
                },
                "mod": {
                    "value": 28
                },
                "proficient": {
                    "value": 0
                },
                "rules": [],
                "slug": null,
                "source": {
                    "value": ""
                },
                "traits": {
                    "custom": "",
                    "rarity": "common",
                    "value": []
                }
            },
            "effects": [],
            "flags": {},
            "img": "systems/pf2e/icons/default-icons/lore.svg",
            "name": "Athletics",
            "sort": 2300000,
            "type": "lore"
        },
        {
            "_id": "ksw4gozbz5l2xec0",
            "data": {
                "description": {
                    "value": ""
                },
                "mod": {
                    "value": 30
                },
                "proficient": {
                    "value": 0
                },
                "rules": [],
                "slug": null,
                "source": {
                    "value": ""
                },
                "traits": {
                    "custom": "",
                    "rarity": "common",
                    "value": []
                }
            },
            "effects": [],
            "flags": {},
            "img": "systems/pf2e/icons/default-icons/lore.svg",
            "name": "Ocean Lore",
            "sort": 2400000,
            "type": "lore"
        },
        {
            "_id": "fy3rrcvdxlmci4ct",
            "data": {
                "description": {
                    "value": ""
                },
                "mod": {
                    "value": 24
                },
                "proficient": {
                    "value": 0
                },
                "rules": [],
                "slug": null,
                "source": {
                    "value": ""
                },
                "traits": {
                    "custom": "",
                    "rarity": "common",
                    "value": []
                }
            },
            "effects": [],
            "flags": {},
            "img": "systems/pf2e/icons/default-icons/lore.svg",
            "name": "Stealth",
            "sort": 2500000,
            "type": "lore"
        },
        {
            "_id": "1x8caokzp66dglxm",
            "data": {
                "description": {
                    "value": ""
                },
                "mod": {
                    "value": 27
                },
                "proficient": {
                    "value": 0
                },
                "rules": [
                    {
                        "key": "FlatModifier",
                        "label": "PF2E.SkillVariant.Navigate",
                        "predicate": {
                            "any": [
                                "action:navigate"
                            ]
                        },
                        "selector": "survival",
                        "value": 3
                    }
                ],
                "slug": null,
                "source": {
                    "value": ""
                },
                "traits": {
                    "custom": "",
                    "rarity": "common",
                    "value": []
                },
                "variants": {
                    "0": {
                        "label": "+30 to navigate",
                        "options": "action:navigate"
                    }
                }
            },
            "effects": [],
            "flags": {},
            "img": "systems/pf2e/icons/default-icons/lore.svg",
            "name": "Survival",
            "sort": 2600000,
            "type": "lore"
        }
    ],
    "name": "Tehialai-Thief-of-Ships",
    "token": {
        "disposition": -1,
        "height": 1,
        "img": "systems/pf2e/icons/default-icons/npc.svg",
        "name": "Tehialai-thief-of-ships",
        "width": 1
    },
    "type": "npc"
}
