{
    "_id": "pCtJONJlhAugUXaG",
    "content": "<h1>Ahriman (Lord of the Divs) [NE]</h1><p>The dread shadow known as Ahriman counts servants mainly among div as well as a scattering of followers throughout the mortal realm.</p>\n<p><strong>Edicts</strong> Foil rulers, the proud, and the powerful; ruin anything created by mortals</p>\n<p><strong>Anathema</strong> create arts or crafts, serve a mortal, assist in mortal aims except to subvert and corrupt them</p>\n<p><strong>Follower Alignments</strong> LE, NE, CE</p><h2>Devotee Benefits</h2><p><strong>Divine Font</strong> <em>harm</em></p>\n<p><strong>Divine Skill</strong> Deception</p>\n<p><strong>Favored Weapon</strong> whip<u></u></p>\n<p><strong>Domains</strong> darkness, death, destruction, trickery</p>\n<p><strong>Cleric Spells</strong> 1st: <em>ill omen</em>, 3rd: <em>nondetection</em>, 5th: <em>chrushing despair</em></p>",
    "flags": {},
    "name": "Ahriman",
    "permission": {
        "default": 0
    }
}
