{
    "_id": "8DXel4AvpyUy6oJ0",
    "content": "<h1>Eritrice (Heart-Speaker) [NG]</h1><p>The Heart-Speaker Eritrice represents honest debate, opinions, and truth. Facts and information are important to Eritrice, but truths and wisdom gained through discussion are far more valuable to her than those gained through books. She maintains there is nothing wrong with disagreeing so long as the disagreement is respectful, and that it is crucial to be open to discussion, willing to consider new information, and receptive to forming new opinions. Opinions are valuable in that they help understand other views, but Eritrice reminds her followers that opinions are not facts and can be incorrect and even harmful. When lies are spoken or become the rule of the land, those that follow Eritrice work through networks of like-minded individuals to spread the truth using messages sent to all who will listen.</p>\n<p>In her mortal form, the Heart-Speaker appears as a muscular, 8-foot-tall woman with a female lion's head. She wears a rose-colored breastplate over a short kilt. When she speaks, her voice is so entrancing and compelling that those she appears to often don't take note of any of her other features. Those who value truth, from debaters to town criers to lawmakers, are among the followers of Eritrice.</p>\n<p><strong>Edicts</strong> Spread truth, debate contentious issues, aid messengers</p>\n<p><strong>Anathema</strong> Sow or perpetuate lies, obstruct discussion, argue in bad faith</p>\n<p><strong>Areas of Concern</strong> honest debate, opinions, and truth</p>\n<p><strong>Follower Alignments</strong> LG, NG, CG</p><h2>Devotee Benefits</h2><div><div><strong>Divine Ability</strong> Intelligence or Charisma</div><div><strong>Divine Font</strong> heal</div><div><strong>Divine Skill</strong> Diplomacy</div><div><strong>Favored Weapon</strong> dagger</div><div><strong>Domains</strong> confidence, glyph, knowledge, truth</div><div><strong>Cleric Spells</strong> 1st: mindlink, 2nd: comprehend language, 3rd: enthrall</div></div>",
    "flags": {},
    "name": "Eritrice",
    "permission": {
        "default": 0
    }
}
