{
    "_id": "zlJGKpeLBwajP91o",
    "content": "<h1>Gyronna (The Angry Hag) [CE]</h1><p>The goddess <strong>Gyronna</strong> is also known as the Angry Hag, and for good reason.</p>\n<p><strong>Edicts</strong> Expose hypocrisy (real or imagined) in others, make other creatures miserable, demand bribes to spare creatures from your torments</p>\n<p><strong>Anathema</strong> Allow others to slight you without retaliation, seek the approval of society, forgive those who have wronged you</p>\n<p><strong>Follower Alignments</strong> NE, CE</p><h2>Devotee Benefits</h2><div><div><strong>Divine Ability</strong> Wisdom or Charisma</div><div><strong>Divine Font</strong> harm</div><div><strong>Divine Skill</strong> Intimidation</div><div><strong>Favored Weapon</strong> dagger</div><div><strong>Domains</strong> ambition, nightmares, pain, zeal</div><div><strong>Cleric Spells</strong> 1st: ill omen, 2nd: paranoia, 6th: feeblemind</div></div>",
    "flags": {},
    "name": "Gyronna",
    "permission": {
        "default": 0
    }
}
