{
    "_id": "DEKKbg6riAdL2ARf",
    "content": "<h1>Hei Feng (Duke of Thunder) [CN]</h1><p>Hei Feng, the tengu god of storms, is as unpredictable as the sea, as destructive as a hurricane, and, more often than not, as drunk and foulmouthed as the sailors who pray to him. Impulsive and passionate, his heart moves between joy, sorrow, and anger in the time it takes him to finish his cup, though whatever his mood, he rarely feels it lightly. He may be so moved by a fisher's prayer that he blesses her with a catch large enough to feed her village, while later unleashing torrential waves against that same village for a slight. This unpredictability leads the rest of the Heavenly Court to regard him as troublesome, and mortals to view him with wary respect.</p>\n<p><strong>Edicts</strong> follow your passions, make token attempts to apologize to those you have wronged, respect the power of the sea and sky, encourage flashy entertainment</p>\n<p><strong>Anathema</strong> fake friendship with those you despise, disrespect Hei Feng or Hei Feng's estranged wife Lady Jingxi, ignore an affront to you or Hei Feng</p>\n<p><strong>Areas of Concern</strong> sea, storms, tengu, sailors</p>\n<p><strong>Follower Alignments</strong> CG, CN, CE</p><h2>Devotee Benefits</h2><div><div><strong>Divine Ability</strong> Constitution or Charisma</div><div><strong>Divine Font</strong> harm or heal</div><div><strong>Divine Skill</strong> Performance</div><div><strong>Favored Weapon</strong> nine-ring sword</div><div><strong>Domains</strong> air, indulgence, lightning, water</div><div><strong>Alternate Domains</strong> destruction, travel</div><div><strong>Cleric Spells</strong> 1st: gust of wind, 4th: hydraulic torrent, 6th: chain lightning</div></div><h2>Divine Intercession</h2><p>The Duke of Thunder's intercessions are seen more commonly than other deities' because of the god's closeness to mortals, but also because of his tendency to dispense both boons and curses while in the depths of his drink.</p>\n<p><strong>Minor Boon</strong> The Heavenly Court's most boastful deity ensures your boasts hit home. Once, when you fail an Intimidation check, you critically succeed instead. Hei Feng grants this boon capriciously based on his mood, sometimes even for trivial or inconsequential boasts, and he sometimes grants it for other skill checks related to boasts.</p>\n<p><strong>Moderate Boon</strong> Fair winds and currents speed your passage. Any vessel you use to travel over the sea gains a +10-foot status bonus to its Speeds.</p>\n<p><strong>Major Boon</strong> The instruments of the storm spare you from their fury. You ignore all effects and penalties caused by precipitation and winds, and you can see normally through fog, rain, and other weather conditions.</p>\n<p><strong>Minor Curse</strong> Hei Feng's belligerence hangs over you like a thunderhead. You take a -1 status penalty to checks with Charisma-based skills. If you consume even a drop of alcohol, this penalty becomes -3 until the next sunrise.</p>\n<p><strong>Moderate Curse</strong> Your heart is as quick to change as Hei Feng's. If you roll a failure on a saving throw against an emotion effect, you get a critical failure instead.</p>\n<p><strong>Major Curse</strong> The Duke of Thunder's ire follows you wherever you go. The weather in a 500-foot radius around you is always stormy. Roughly twice each minute you are outside, you are struck by a bolt of lightning that deals 10d6 electricity damage (DC 40 basic Reflex save).</p>",
    "flags": {},
    "name": "Hei Feng",
    "permission": {
        "default": 0
    }
}
