{
    "_id": "VvxEvEKhCGRwrMJp",
    "content": "<h1>Imbrex (The Twins) [LN]</h1><p>Known as the Twins, Imbrex is the mysterious Eldest of twins, statues, and endings. Appearing as two immense stone statues hundreds of feet tall holding hands and looking outward, Imbrex neither moves nor speaks. The Eldest sometimes communicates with telepathic utterances that rend minds or deliver psychic enlightenment, but they more often express their will through startlingly realistic dreams that sometimes manifest into strange life. An entire city named Anophaeus sprawls at Imbrex's four feet, populated by jaded urbanites, eager aspirants, and prowling dream-creatures made real. An unusually high proportion of those born in Anophaeu are twins, and twins are also common among Imbrex's worshippers. Although Imbrex appears timeless in form, they are intrigued by dramatic endings, particularly apocalypses, and have foreknowledge of disasters to come.</p>\n<p><strong>Edicts</strong> Pursue your own goals, bring things to their proper ending, split things in half or otherwise create pairs</p>\n<p><strong>Anathema</strong> Offend Imbrex</p>\n<p><strong>Areas of Concern</strong> twins, statues, and endings</p>\n<p><strong>Follower Alignments</strong> LN, N, LE</p><h2>Devotee Benefits</h2><div><div><strong>Divine Ability</strong> Constitution or Wisdom</div><div><strong>Divine Font</strong> harm or heal</div><div><strong>Divine Skill</strong> Occultism</div><div><strong>Favored Weapon</strong> war flail</div><div><strong>Domains</strong> dreams, earth, family, might</div><div><strong>Cleric Spells</strong> 1st: mindlink, 2nd: mirror image, 4th: stoneskin</div></div>",
    "flags": {},
    "name": "Imbrex",
    "permission": {
        "default": 0
    }
}
