{
    "_id": "lUFMwdv1UOyzFhIM",
    "content": "<h1>Likha (The Teller) [N]</h1><p><strong>Edicts</strong> Tell history to others, sponsor or perform in plays and recitals, adapt ancient works into modern language</p>\n<p><strong>Anathema</strong> Begin a performance or tale without first inviting the gods to watch, act out a death on stage</p>\n<p><strong>Follower Alignments</strong> NG, LN, N, CN</p><h2>Devotee Benefits</h2><div><div><strong>Divine Ability</strong> Intelligence or Charisma</div><div><strong>Divine Font</strong> harm or heal</div><div><strong>Divine Skill</strong> Performance</div><div><strong>Favored Weapon</strong> hatchet</div><div><strong>Domains</strong> creation, knowledge, passion, sorrow</div><div><strong>Cleric Spells</strong> 1st: illusory disguise, 3rd: enthrall, 5th: illusory scene</div></div>",
    "flags": {},
    "name": "Likha",
    "permission": {
        "default": 0
    }
}
