{
    "_id": "g1VxllMjs2YRIJAm",
    "content": "<h1>Moloch (The Ashen Bull) [LE]</h1><p>The general of Hell's armies, Moloch, embodies infernal discipline and incomparable destructive power. Across his ream of Malebolge, the sixth layer of Hell, the Ashen Bull trains countless legions of devils to wage unending war. He not only teaches obedience, but demands it, punishing even the slightest misstep or insurrection with immediate, fiery retribution. Despite his harsh nature, Moloch is the most widely worshipped of the archdevils among mortals, as he is the most likely to answer supplicants' mundane pleas. In exchange, he asks only their souls to add to his endless armies-a price many are willing to pay.</p>\n<p><strong>Edicts</strong> Spread Hell's order through war, convert communities to sole worship of Moloch, sacrifice creatures in fire</p>\n<p><strong>Anathema</strong> Defy a military superior, flee in battle [unless ordered to do so], lose your combat edge due to your vices</p>\n<p><strong>Follower Alignments</strong> LE</p><h2>Devotee Benefits</h2><div><div><strong>Divine Ability</strong> Strength or Constitution</div><div><strong>Divine Font</strong> harm</div><div><strong>Divine Skill</strong> Athletics</div><div><strong>Favored Weapon</strong> whip</div><div><strong>Domains</strong> destruction, duty, fire, might</div><div><strong>Cleric Spells</strong> 1st: burning hands, 5th: acid storm, 7th: fiery body</div></div>",
    "flags": {},
    "name": "Moloch",
    "permission": {
        "default": 0
    }
}
