{
    "_id": "GX6PF9ifR47Xyjg9",
    "content": "<h1>Norgorber (Blackfingers, Father Skinsaw, The Gray Master, Reaper of Reputation) [NE]</h1><p>Norgorber is the most mysterious of the Ascended, the group of mortals who assumed godhood after passing the Test of the Starstone. Unlike Iomedae's and Cayden Cailean's mortal existences, Norgorber's life before his ascension is a mystery; the god himself has shrouded details of his mortal life in secrecy. This is no surprise to those familiar with Norgorber-he is the master of all secrets, a calculating manipulator who cleverly and ruthlessly wields the power of hidden knowledge to achieve his own ends. Only his most trusted worshippers know enough about his goals to assist in the god's plans, and even those worshippers often have their memories modified after their parts in Norgorber's schemes are complete.</p>\n<p><strong>Edicts</strong> keep your true identity secret, sacrifice anyone necessary, take every advantage in a fight, work from the shadows</p>\n<p><strong>Anathema</strong> allow your true identity to be connected to your dark dealings, share a secret freely, show mercy</p>\n<p><strong>Areas of Concern</strong> greed, murder, poison, secrets</p>\n<p><strong>Follower Alignments</strong> LE, NE, CE plus N if following the Reaper of Reputation</p><h2>Devotee Benefits</h2><div><div><strong>Divine Ability</strong> Dexterity or Intelligence</div><div><strong>Divine Font</strong> harm</div><div><strong>Divine Skill S</strong> tealth</div><div><strong>Favored Weapon</strong> shortsword</div><div><strong>Domains</strong> death, secrecy, trickery, wealth</div><div><strong>Cleric Spells</strong> 1st: illusory disguise, 2nd: invisibility, 4th: phantasmal killer</div></div><h2>Divine Intercession</h2><p>Norgorber's favor and displeasure are subtle, yet powerful.</p>\n<p><strong>Minor Boon</strong> Norgorber protects your secrets and lies. Once, when you roll a failure at a Deception check to tell a Lie, you get a critical success instead. Norgorber typically chooses to grant this boon to protect an extremely consequential lie.</p>\n<p><strong>Moderate Boon</strong> Your poisons are everlasting. If your Strike with a poisoned weapon critically fails, or succeeds but fails to deal slashing or piercing damage, the poison is not spent. The poison is still spent once successfully applied to a creature.</p>\n<p><strong>Major Boon</strong> You become a living secret. You are immune to divination effects and attempts to magically alter your memory, unless you choose to be affected or those effects come from a deity, artifact, or similarly powerful source. You also can never be tricked or forced by mundane means into uttering a secret you wish to keep.</p>\n<p><strong>Minor Curse</strong> Norgorber allows thieves to get the better of you. Whenever you Earn Income, you earn money as if the task were 2 levels lower due to theft, loss, or bad fortune.</p>\n<p><strong>Moderate Curse</strong> Poisons are quick to debilitate you. When you roll a failure at a Fortitude save against a poison, you get a critical failure instead.</p>\n<p><strong>Major Curse</strong> Norgorber steals away your memories. Once each day when you awake from rest, roll 1d4. On a 1, you forget the events of the previous day forever. On a 2, you temporarily experience complete retrograde amnesia for that day, unable to recall information from the past, including who you are. On a 3, you temporarily forget a single important subject for that day (Norgorber tends to intentionally chooses a memory to cause distress, such as making you forget your spouse on your anniversary). On a 4, you temporarily remember false memories on a single important subject for that day, blended seamlessly into your true memories.</p>",
    "flags": {},
    "name": "Norgorber",
    "permission": {
        "default": 0
    }
}
