{
    "_id": "EUOAV02rHz96jMPh",
    "content": "<h1>Whispering Way</h1><p>These cultists believe undeath is the truest form of existence, and life is meant to be spent in preparation for transition to a more glorious unlife after death.</p>\n<p><strong>Edicts</strong> seek methods to become undead (a lich if possible), oppose those who seek to destroy undead, protect necromantic secrets, serve the Whispering Tyrant</p>\n<p><strong>Anathema</strong> destroy necromantic texts (unless they reveal secrets of the Whispering Way), teach others of the Whispering Way other than by whispering, use positive energy to harm undead</p>\n<p><strong>Follower Alignments</strong> LE, NE, CE</p>",
    "flags": {},
    "name": "Whispering Way",
    "permission": {
        "default": 0
    }
}
