{
    "_id": "NA4v0iwIPgkde8DP",
    "content": "<p><strong>Deities</strong>@Compendium[pf2e.deities.Baalzebul]{Baalzebul}, @Compendium[pf2e.deities.Casandalee]{Casandalee}, @Compendium[pf2e.deities.Eiseth]{Eiseth}, @Compendium[pf2e.deities.Fumeiyoshi]{Fumeiyoshi}, @Compendium[pf2e.deities.Gyronna]{Gyronna}, @Compendium[pf2e.deities.Mammon]{Mammon}, @Compendium[pf2e.deities.Ravithra]{Ravithra}, @Compendium[pf2e.deities.Shax]{Shax}, @Compendium[pf2e.deities.Szuriel]{Szuriel}, @Compendium[pf2e.deities.Thamir]{Thamir}, @Compendium[pf2e.deities.Ydersius]{Ydersius}, @Compendium[pf2e.deities.Zohls]{Zohls}, @Compendium[pf2e.deities.Zon-Kuthon]{Zon-Kuthon}</p>\n<p><strong>Domain Spell</strong> @Compendium[pf2e.spells-srd.Blind Ambition]{Blind Ambition}; <strong>Advanced Domain Spell</strong> @Compendium[pf2e.spells-srd.Competitive Edge]{Competitive Edge}</p>\n<p>You strive to keep up with and outpace the competition.</p>",
    "flags": {},
    "name": "Ambition Domain",
    "permission": {
        "default": 0
    }
}
