{
    "_id": "c9odhpRoKId5dXmn",
    "content": "<p><strong>Deities</strong> @Compendium[pf2e.deities.Arshea]{Arshea}, @Compendium[pf2e.deities.Casandalee]{Casandalee}, @Compendium[pf2e.deities.Gruhastha]{Gruhastha}, @Compendium[pf2e.deities.Irori]{Irori}, @Compendium[pf2e.deities.Narriseminek]{Narriseminek}, @Compendium[pf2e.deities.Otolmens]{Otolmens}, @Compendium[pf2e.deities.Pillars of Knowledge]{Pillars of Knowledge}, @Compendium[pf2e.deities.Ragdya]{Ragdya}, @Compendium[pf2e.deities.Shei]{Shei}, @Compendium[pf2e.deities.Shizuru]{Shizuru}, @Compendium[pf2e.deities.The Godclaw]{The Godclaw}</p>\n<p><strong>Domain Spell</strong> @Compendium[pf2e.spells-srd.Perfected Mind]{Perfected Mind}; <strong>Advanced Domain Spell</strong> @Compendium[pf2e.spells-srd.Perfected Form]{Perfected Form}</p>\n<p>You strive to perfect your mind, body, and spirit.</p>",
    "flags": {},
    "name": "Perfection Domain",
    "permission": {
        "default": 0
    }
}
