{
    "_id": "1VLOhyq0IFMY2rqh",
    "data": {
        "actionCategory": {
            "value": ""
        },
        "actionType": {
            "value": "action"
        },
        "actions": {
            "value": 1
        },
        "description": {
            "value": "<p>You transform into your animal.</p>\n<p>You gain the effects of the 3rd-level <em>@Compendium[pf2e.spells-srd.Animal Form]{Animal Form}</em> spell except you use your own statistics, temporary Hit Points, and unarmed attacks instead of those granted by animal form. You also retain the constant abilities of your gear.</p>\n<p>If your animal is a frog, your tongue's reach increases to 15 feet. Dismissing the transformation gains the rage trait.</p>"
        },
        "featType": {
            "value": "class"
        },
        "level": {
            "value": 8
        },
        "location": "",
        "prerequisites": {
            "value": []
        },
        "rules": [],
        "source": {
            "value": "Pathfinder Core Rulebook"
        },
        "traits": {
            "custom": "",
            "rarity": "common",
            "value": [
                "barbarian",
                "concentrate",
                "polymorph",
                "primal",
                "rage",
                "transmutation"
            ]
        }
    },
    "effects": [],
    "flags": {},
    "img": "systems/pf2e/icons/features/feats/feats.webp",
    "name": "Animal Rage",
    "type": "feat"
}
