{
    "_id": "dmXd68ilbuGR6eUP",
    "data": {
        "actionCategory": {
            "value": ""
        },
        "actionType": {
            "value": "passive"
        },
        "actions": {
            "value": null
        },
        "description": {
            "value": "<p><strong>Frequency</strong> once per hour</p>\n<p><strong>Trigger</strong> You fail a check against a trap, such as a Thievery check to @Compendium[pf2e.actionspf2e.Disable Device]{Disable} the trap or a Reflex save to avoid its effects.</p>\n<hr />\n<p>You are more than just skillful; your drive to find the secrets of the past manifests as a strange kind of luck. Reroll the failed check and use the new result.</p>"
        },
        "featType": {
            "value": "archetype"
        },
        "level": {
            "value": 8
        },
        "location": "",
        "prerequisites": {
            "value": [
                {
                    "value": "Archaeologist Dedication"
                }
            ]
        },
        "rules": [
            {
                "key": "Note",
                "outcome": [
                    "failure"
                ],
                "predicate": {
                    "all": [
                        "trap"
                    ]
                },
                "selector": "all",
                "text": "<p class='compact-text'><strong>Failure</strong> <em>Once per hour</em>: Reroll the failed check and use the new result.</p>"
            }
        ],
        "source": {
            "value": "Pathfinder Advanced Player's Guide"
        },
        "traits": {
            "custom": "",
            "rarity": "common",
            "value": [
                "archetype",
                "fortune"
            ]
        }
    },
    "effects": [],
    "flags": {},
    "img": "systems/pf2e/icons/features/feats/feats.webp",
    "name": "Archaeologist's Luck",
    "type": "feat"
}
