{
    "_id": "YawVDUc9uzREIAnO",
    "data": {
        "actionCategory": {
            "value": ""
        },
        "actionType": {
            "value": "passive"
        },
        "actions": {
            "value": null
        },
        "description": {
            "value": "<p>Your aura protects against necromantic effects. You and all allies within 15 feet gain resistance 5 to negative energy and a +1 status bonus to saves against necromancy effects.</p>\n<p>@Compendium[pf2e.feat-effects.Effect: Aura of Life]{Effect: Aura of Life}</p>"
        },
        "featType": {
            "value": "class"
        },
        "level": {
            "value": 14
        },
        "location": "",
        "prerequisites": {
            "value": [
                {
                    "value": "Shining Oath"
                }
            ]
        },
        "rules": [
            {
                "key": "FlatModifier",
                "predicate": {
                    "all": [
                        "necromancy"
                    ]
                },
                "selector": "saving-throw",
                "type": "status",
                "value": 1
            },
            {
                "key": "Resistance",
                "type": "negative",
                "value": 5
            }
        ],
        "source": {
            "value": "Pathfinder Core Rulebook"
        },
        "traits": {
            "custom": "",
            "rarity": "common",
            "value": [
                "champion"
            ]
        }
    },
    "effects": [],
    "flags": {},
    "img": "systems/pf2e/icons/features/feats/feats.webp",
    "name": "Aura of Life",
    "type": "feat"
}
