{
    "_id": "nLidn7L2z61Ktjzk",
    "data": {
        "actionCategory": {
            "value": ""
        },
        "actionType": {
            "value": "passive"
        },
        "actions": {
            "value": null
        },
        "description": {
            "value": "<p>Your mind and body can, for a short time, withstand the devastation of overdrawing your curse.</p>\n<p>When you would become overwhelmed by your curse, you can forestall the effects for up to 1 minute. On each of your turns during that time, you can cast one revelation spell granted by your mystery (but not domain spells, spells from Diverse Mystery, or other revelation spells you gained from other abilities) without spending Focus Points or taking any further negative effects.</p>\n<p>At the end of the minute, the durations of any revelation spells you cast during that time end, you take the normal effects from being overwhelmed by your curse, and you must attempt a <span data-pf2-check=\"fortitude\" data-pf2-label=\"Blaze Of Revelation DC\" data-pf2-dc=\"40\" data-pf2-show-dc=\"all\">Fortitude</span> save.</p>\n<hr />\n<p><strong>Critical Success</strong> You aren't otherwise affected.</p>\n<p><strong>Success</strong> You are @Compendium[pf2e.conditionitems.Drained]{Drained 2} and can't reduce or remove this condition until your next preparations.</p>\n<p><strong>Failure</strong> You are @Compendium[pf2e.conditionitems.Drained]{Drained 4} and can't reduce or remove this condition until your next preparations.</p>\n<p><strong>Critical Failure</strong> You die.</p>"
        },
        "featType": {
            "value": "class"
        },
        "level": {
            "value": 18
        },
        "location": "",
        "prerequisites": {
            "value": []
        },
        "rules": [],
        "source": {
            "value": "Pathfinder Advanced Player's Guide"
        },
        "traits": {
            "custom": "",
            "rarity": "common",
            "value": [
                "oracle"
            ]
        }
    },
    "effects": [],
    "flags": {},
    "img": "systems/pf2e/icons/features/feats/feats.webp",
    "name": "Blaze Of Revelation",
    "type": "feat"
}
