{
    "_id": "AlhyF8LCW011w9kq",
    "data": {
        "actionCategory": {
            "value": ""
        },
        "actionType": {
            "value": "passive"
        },
        "actions": {
            "value": null
        },
        "description": {
            "value": "<p>You have a particular elasticity that makes it easy for you to bounce and squish. You gain the trained proficiency rank in Acrobatics (or another skill of your choice, if you were already trained in Acrobatics). You also gain a +2 circumstance bonus to Acrobatics checks to Tumble Through a foe's space.</p>"
        },
        "featType": {
            "value": "ancestry"
        },
        "level": {
            "value": 1
        },
        "prerequisites": {
            "value": [
                {
                    "value": "unbreakable goblin heritage"
                }
            ]
        },
        "rules": [],
        "source": {
            "value": "Pathfinder Lost Omens: Character Guide"
        },
        "traits": {
            "custom": "",
            "rarity": "common",
            "value": [
                "goblin"
            ]
        }
    },
    "effects": [],
    "flags": {},
    "img": "systems/pf2e/icons/features/feats/feats.webp",
    "name": "Bouncy Goblin",
    "type": "feat"
}
