{
    "_id": "XWmlGnFNfxyJWw9V",
    "data": {
        "actionCategory": {
            "value": ""
        },
        "actionType": {
            "value": "passive"
        },
        "actions": {
            "value": null
        },
        "description": {
            "value": "<p>When you cast fireball heightened to at least 6th level, you can modify the spell's standard effects as follows: Reduce the spell's damage by 6d6. Your fireball leaves behind a lingering cloud of toxic smoke in its area. While it's smoke instead of mist, this cloud otherwise has the effects of stinking cloud.</p>"
        },
        "featType": {
            "value": "archetype"
        },
        "level": {
            "value": 12
        },
        "location": "",
        "prerequisites": {
            "value": [
                {
                    "value": "Smoldering Explosion"
                }
            ]
        },
        "rules": [],
        "source": {
            "value": ""
        },
        "traits": {
            "custom": "",
            "rarity": "common",
            "value": [
                "archetype"
            ]
        }
    },
    "effects": [],
    "flags": {},
    "img": "systems/pf2e/icons/default-icons/feats.webp",
    "name": "Choking Smoke",
    "type": "feat"
}
