{
    "_id": "DR6vessIpXTLM6Xa",
    "data": {
        "actionCategory": {
            "value": ""
        },
        "actionType": {
            "value": "passive"
        },
        "actions": {
            "value": null
        },
        "description": {
            "value": "<p>You use the crowd to your advantage, diverting your foes' attention to potential hidden dangers in the crowd. When determining if your foe is flanked, treat all squares occupied by a crowd as if they were occupied by an ally with a melee reach of 5 feet.</p>"
        },
        "featType": {
            "value": "archetype"
        },
        "level": {
            "value": 6
        },
        "prerequisites": {
            "value": [
                {
                    "value": "Lost in the Crowd"
                }
            ]
        },
        "rules": [],
        "source": {
            "value": "Pathfinder Lost Omens: World Guide"
        },
        "traits": {
            "custom": "",
            "rarity": "common",
            "value": [
                "archetype"
            ]
        }
    },
    "effects": [],
    "flags": {},
    "img": "systems/pf2e/icons/features/feats/feats.webp",
    "name": "Crowd Mastery",
    "type": "feat"
}
