{
    "_id": "UFVw57jWNC4UCfyN",
    "data": {
        "actionCategory": {
            "value": ""
        },
        "actionType": {
            "value": "action"
        },
        "actions": {
            "value": 1
        },
        "description": {
            "value": "<p>Imitating animal threat displays, you make yourself appear larger and more imposing.</p>\n<p>Roll one Intimidation check to @Compendium[pf2e.actionspf2e.Demoralize]{Demoralize} and compare the result to the Will DC of each animal, fungus, and plant creature in a @Template[type:cone|distance:15]. When you do, Demoralize gains the visual trait, and creatures are affected if they can see you. You don't take a penalty if the creature doesn't understand your language.</p>"
        },
        "featType": {
            "value": "class"
        },
        "level": {
            "value": 8
        },
        "prerequisites": {
            "value": [
                {
                    "value": "trained in Intimidation"
                }
            ]
        },
        "rules": [],
        "source": {
            "value": "Pathfinder Advanced Player's Guide"
        },
        "traits": {
            "custom": "",
            "rarity": "common",
            "value": [
                "druid"
            ]
        }
    },
    "effects": [],
    "flags": {},
    "img": "systems/pf2e/icons/features/feats/feats.webp",
    "name": "Deimatic Display",
    "type": "feat"
}
