{
    "_id": "o8qiAUuDHfurmgpP",
    "data": {
        "actionCategory": {
            "value": ""
        },
        "actionType": {
            "value": "passive"
        },
        "actions": {
            "value": null
        },
        "description": {
            "value": "<p>You take advantage of teleportation to better hide your position. When you cast <em>@Compendium[pf2e.spells-srd.Dimensional Assault]{Dimensional Assault}</em>, you're affected by an <em>@Compendium[pf2e.spells-srd.Invisibility]{Invisibility}</em> spell at the end of the teleport.</p>\n<p>You can choose not to make the Strike that is normally part of <em>dimensional assault</em>. If you do make the Strike, your <em>invisibility</em> ends after the Strike, as normal for <em>invisibility</em>.</p>"
        },
        "featType": {
            "value": "class"
        },
        "level": {
            "value": 10
        },
        "location": "",
        "prerequisites": {
            "value": [
                {
                    "value": "dimensional assault focus spell"
                },
                {
                    "value": "laughing shadow hybrid study"
                }
            ]
        },
        "rules": [],
        "source": {
            "value": ""
        },
        "traits": {
            "custom": "",
            "rarity": "common",
            "value": [
                "magus"
            ]
        }
    },
    "effects": [],
    "flags": {},
    "img": "systems/pf2e/icons/features/feats/feats.webp",
    "name": "Dimensional Disappearance",
    "type": "feat"
}
