{
    "_id": "OjvE7gaQgWiBqOhY",
    "data": {
        "actionCategory": {
            "value": ""
        },
        "actionType": {
            "value": "action"
        },
        "actions": {
            "value": 1
        },
        "description": {
            "value": "<p><strong>Requirements</strong> You have successfully identified the target with Recall Knowledge during this combat.</p>\n<hr />\n<p>Identifying a creature is the first step in finding its weaknesses. Attempt a Strike against the target; if successful, you deal an additional [[/r {1d6}[precision]]]{1d6 precision damage}. If you have succeeded on a Recall Knowledge check against the target during this combat and their creature type was previously recorded using @Compendium[pf2e.feats-srd.Thorough Reports]{Thorough Reports}, you also deal [[/r {1}[persistent,bleed]]] @Compendium[pf2e.conditionitems.Persistent Damage]{Persistent Bleed Damage}. The creature is then temporarily immune to Discerning Strike for 1 day.</p>"
        },
        "featType": {
            "value": "archetype"
        },
        "level": {
            "value": 6
        },
        "prerequisites": {
            "value": [
                {
                    "value": "Pathfinder Agent Dedication"
                },
                {
                    "value": "Thorough Reports"
                }
            ]
        },
        "rules": [],
        "source": {
            "value": "Pathfinder Lost Omens: Pathfinder Society Guide"
        },
        "traits": {
            "custom": "",
            "rarity": "common",
            "value": [
                "archetype"
            ]
        }
    },
    "effects": [],
    "flags": {},
    "img": "systems/pf2e/icons/features/feats/feats.webp",
    "name": "Discerning Strike",
    "type": "feat"
}
