{
    "_id": "WSxHCapuTn8uRdLI",
    "data": {
        "actionCategory": {
            "value": ""
        },
        "actionType": {
            "value": "passive"
        },
        "actions": {
            "value": null
        },
        "description": {
            "value": "<p>Your hold has a unique draconic connection. You gain a +2 circumstance bonus when you attempt to Make an Impression on a creature with the dragon trait. You gain access to the Riding Drake animal companion.</p>"
        },
        "featType": {
            "value": "ancestry"
        },
        "level": {
            "value": 9
        },
        "location": "",
        "prerequisites": {
            "value": [
                {
                    "value": "Beast Trainer"
                }
            ]
        },
        "rules": [
            {
                "key": "ToggleProperty",
                "label": "Attempting to Make an Impression on a Dragon",
                "property": "flags.pf2e.rollOptions.all.target:dragon"
            },
            {
                "key": "FlatModifier",
                "predicate": {
                    "all": [
                        "action:make-an-impression"
                    ],
                    "any": [
                        "target:dragon"
                    ]
                },
                "selector": "diplomacy",
                "type": "circumstance",
                "value": 2
            }
        ],
        "source": {
            "value": "Pathfinder Lost Omens: Ancestry Guide"
        },
        "traits": {
            "custom": "",
            "rarity": "uncommon",
            "value": [
                "orc"
            ]
        }
    },
    "effects": [],
    "flags": {},
    "img": "systems/pf2e/icons/features/feats/feats.webp",
    "name": "Dragon Grip",
    "type": "feat"
}
