{
    "_id": "yMfZulJcoSomQ6dO",
    "data": {
        "actionCategory": {
            "value": ""
        },
        "actionType": {
            "value": "passive"
        },
        "actions": {
            "value": null
        },
        "description": {
            "value": "<p>You are so attuned to the land that you can call forth a bolt of energy from your surroundings. When you gain this feat, select acid, cold, electricity, or fire. You can call to the land to cast the <em>@Compendium[pf2e.spells-srd.Acid Splash]{Acid Splash}</em> cantrip as an innate primal spell at will, except the spell has only verbal components and deals the type of damage you chose instead of acid damage; the spell gains the trait appropriate to its damage instead of the acid trait. A cantrip is heightened to a spell level equal to half your level rounded up.</p>"
        },
        "featType": {
            "value": "ancestry"
        },
        "level": {
            "value": 1
        },
        "prerequisites": {
            "value": []
        },
        "rules": [],
        "source": {
            "value": "Pathfinder Lost Omens: Character Guide"
        },
        "traits": {
            "custom": "",
            "rarity": "common",
            "value": [
                "elf"
            ]
        }
    },
    "effects": [],
    "flags": {},
    "img": "systems/pf2e/icons/features/feats/feats.webp",
    "name": "Elemental Wrath",
    "type": "feat"
}
