{
    "_id": "l4ux6Mn2fklB2cXM",
    "data": {
        "actionCategory": {
            "value": ""
        },
        "actionType": {
            "value": "passive"
        },
        "actions": {
            "value": null
        },
        "description": {
            "value": "<p>You can elude supernatural disaster. When you would gain the doomed condition, you can attempt a <span data-pf2-check=\"flat\" data-pf2-dc=\"17\" data-pf2-label=\"Evade Doom\">DC 17 flat check</span>. On a success, you don't gain the doomed condition.</p>"
        },
        "featType": {
            "value": "ancestry"
        },
        "level": {
            "value": 9
        },
        "location": "",
        "prerequisites": {
            "value": []
        },
        "rules": [],
        "source": {
            "value": "Pathfinder Lost Omens: Ancestry Guide"
        },
        "traits": {
            "custom": "",
            "rarity": "common",
            "value": [
                "catfolk"
            ]
        }
    },
    "effects": [],
    "flags": {},
    "img": "systems/pf2e/icons/features/feats/feats.webp",
    "name": "Evade Doom",
    "type": "feat"
}
