{
    "_id": "UrOj9TROtn8nuxPf",
    "data": {
        "actionCategory": {
            "value": ""
        },
        "actionType": {
            "value": "passive"
        },
        "actions": {
            "value": null
        },
        "description": {
            "value": "<p>Your scroll collection is more powerful.</p>\n<p>In addition to your daily scrolls from Basic Scroll Cache, add a scroll with a 3rd-level spell. At 14th level, add a scroll with a 4th-level spell. At 16th level, add a scroll with a 5th-level spell.</p>"
        },
        "featType": {
            "value": "archetype"
        },
        "level": {
            "value": 12
        },
        "prerequisites": {
            "value": [
                {
                    "value": "Basic Scroll Cache"
                }
            ]
        },
        "rules": [],
        "source": {
            "value": "Pathfinder Advanced Player's Guide"
        },
        "traits": {
            "custom": "",
            "rarity": "common",
            "value": [
                "archetype"
            ]
        }
    },
    "effects": [],
    "flags": {},
    "img": "systems/pf2e/icons/features/feats/feats.webp",
    "name": "Expert Scroll Cache",
    "type": "feat"
}
