{
    "_id": "SBhzem6n3buoxlG5",
    "data": {
        "actionCategory": {
            "value": ""
        },
        "actionType": {
            "value": "action"
        },
        "actions": {
            "value": 2
        },
        "description": {
            "value": "<p><strong>Frequency</strong> once every 10 minutes</p>\n<hr />\n<p>You wrap shadow around a single unattended light source within 120 feet that's no larger than a torch. Any non-magical light source you target is automatically extinguished. For magical light sources, attempt a counteract check using your Fortitude or Thievery modifier against the target's DC. Your counteract level is equal to half your level rounded up. Successfully counteracting the light source suppresses its ability to produce light for 1 minute, but not any other effects. If you're in dim light or darkness when you Extinguish Light, its range is 240 feet.</p>"
        },
        "featType": {
            "value": "ancestry"
        },
        "level": {
            "value": 5
        },
        "location": "",
        "prerequisites": {
            "value": []
        },
        "rules": [],
        "source": {
            "value": "Pathfinder Lost Omens: Ancestry Guide"
        },
        "traits": {
            "custom": "",
            "rarity": "common",
            "value": [
                "darkness",
                "evocation",
                "fetchling",
                "occult"
            ]
        }
    },
    "effects": [],
    "flags": {},
    "img": "systems/pf2e/icons/features/feats/feats.webp",
    "name": "Extinguish Light",
    "type": "feat"
}
