{
    "_id": "4zaU3GlTGMNqLFS8",
    "data": {
        "actionCategory": {
            "value": ""
        },
        "actionType": {
            "value": "passive"
        },
        "actions": {
            "value": null
        },
        "description": {
            "value": "<p>You have forged a mystical bond with a creature. This might have involved complex rituals and invocations, such as meditating under the moon until something crept out of the forest. Or maybe you just did each other a good turn, such as rescuing the beast from a trap or a foe, and then being rescued in turn.</p>\n<p>Whatever the details, you are now comrades until the end. You gain a familiar. If you already have a familiar, you gain the @Compendium[pf2e.feats-srd.Enhanced Familiar]{Enhanced Familiar} feat.</p>\n<p><strong>Special</strong> You can't select another dedication feat until you have gained two other feats from the familiar master archetype.</p>"
        },
        "featType": {
            "value": "archetype"
        },
        "level": {
            "value": 2
        },
        "location": "",
        "prerequisites": {
            "value": []
        },
        "rules": [
            {
                "key": "ActiveEffectLike",
                "mode": "upgrade",
                "path": "data.attributes.familiarAbilities.value",
                "priority": 9,
                "value": 2
            },
            {
                "key": "GrantItem",
                "uuid": "Compendium.pf2e.feats-srd.Enhanced Familiar"
            }
        ],
        "source": {
            "value": "Pathfinder Advanced Player's Guide"
        },
        "traits": {
            "custom": "",
            "rarity": "common",
            "value": [
                "archetype",
                "dedication"
            ]
        }
    },
    "effects": [],
    "flags": {},
    "img": "systems/pf2e/icons/features/feats/feats.webp",
    "name": "Familiar Master Dedication",
    "type": "feat"
}
