{
    "_id": "AxjjAoU1IZaNUGGS",
    "data": {
        "actionCategory": {
            "value": ""
        },
        "actionType": {
            "value": "passive"
        },
        "actions": {
            "value": null
        },
        "description": {
            "value": "<p>When you roll a success on a save against a fear effect, you get a critical success instead. In addition, any time you gain the @Compendium[pf2e.conditionitems.Frightened]{Frightened} condition, reduce the condition's value by 1. As usual, this ability reduces the initial frightened condition by 1, so if you have multiple similar abilities, they don't both take effect.</p>"
        },
        "featType": {
            "value": "bonus"
        },
        "level": {
            "value": 0
        },
        "location": "",
        "prerequisites": {
            "value": [
                {
                    "value": "Order of the Scourge"
                }
            ]
        },
        "rules": [],
        "source": {
            "value": ""
        },
        "traits": {
            "custom": "",
            "rarity": "common",
            "value": []
        }
    },
    "effects": [],
    "flags": {},
    "img": "systems/pf2e/icons/features/feats/feats.webp",
    "name": "Fear No Law, Fear No One",
    "type": "feat"
}
