{
    "_id": "xjE123p2rPTsz1eV",
    "data": {
        "actionCategory": {
            "value": ""
        },
        "actionType": {
            "value": "passive"
        },
        "actions": {
            "value": null
        },
        "description": {
            "value": "<p>Your festering connection to the forces of evil infuses your weapons with debilitating malevolence, tearing down creatures of good with every attack.</p>\n<p>All your weapon and unarmed @Compendium[pf2e.actionspf2e.Strike]{Strikes} deal [[/r {1}[evil]]]{1 additional evil damage} and have the evil and magical traits.</p>"
        },
        "featType": {
            "value": "ancestry"
        },
        "level": {
            "value": 13
        },
        "location": "",
        "prerequisites": {
            "value": []
        },
        "rules": [
            {
                "damageType": "evil",
                "key": "FlatModifier",
                "selector": "damage",
                "value": 1
            }
        ],
        "source": {
            "value": "Pathfinder Advanced Player's Guide"
        },
        "traits": {
            "custom": "",
            "rarity": "common",
            "value": [
                "tiefling"
            ]
        }
    },
    "effects": [],
    "flags": {},
    "img": "systems/pf2e/icons/features/feats/feats.webp",
    "name": "Fiendish Strikes",
    "type": "feat"
}
