{
    "_id": "TdwC9rTGgtF4CQ25",
    "data": {
        "actionCategory": {
            "value": ""
        },
        "actionType": {
            "value": "action"
        },
        "actions": {
            "value": 2
        },
        "description": {
            "value": "<p><strong>Requirements</strong> You are capable of using a finisher.</p>\n<hr />\n<p>You stylishly leap and deliver a powerful finisher.</p>\n<p>Make a @Compendium[pf2e.actionspf2e.Leap]{Leap}, @Compendium[pf2e.actionspf2e.High Jump]{High Jump}, or @Compendium[pf2e.actionspf2e.Long Jump]{Long Jump} and attempt one single-action finisher at any point during your jump; the finisher can't be one that includes other movement, such as Mobile Finisher.</p>\n<p>Immediately after the finisher, you fall to the ground if you're in the air, even if you haven't reached the maximum distance of your jump. If the distance you fall is no more than the height of your jump, you take no damage and land upright.</p>\n<p>When attempting a High Jump or Long Jump during a Flamboyant Leap, determine the DC using the Long Jump DCs, and increase the maximum distance to double your Speed, rather than just your Speed.</p>"
        },
        "featType": {
            "value": "class"
        },
        "level": {
            "value": 14
        },
        "prerequisites": {
            "value": [
                {
                    "value": "master in Athletics"
                },
                {
                    "value": "Flamboyant Athlete"
                }
            ]
        },
        "rules": [],
        "source": {
            "value": "Pathfinder Advanced Player's Guide"
        },
        "traits": {
            "custom": "",
            "rarity": "common",
            "value": [
                "swashbuckler"
            ]
        }
    },
    "effects": [],
    "flags": {},
    "img": "systems/pf2e/icons/features/feats/feats.webp",
    "name": "Flamboyant Leap",
    "type": "feat"
}
