{
    "_id": "DGtUIMliflzGXc6E",
    "data": {
        "actionCategory": {
            "value": ""
        },
        "actionType": {
            "value": "passive"
        },
        "actions": {
            "value": null
        },
        "description": {
            "value": "<p>Your connection to the Boneyard ensures that your blows strike true against spectral beings.</p>\n<p>Your weapon and unarmed attack Strikes against incorporeal creatures become magical. If they are already magical, they instead gain the effects of a @Compendium[pf2e.equipment-srd.Ghost Touch]{Ghost Touch} property rune.</p>"
        },
        "featType": {
            "value": "ancestry"
        },
        "level": {
            "value": 1
        },
        "prerequisites": {
            "value": []
        },
        "rules": [],
        "source": {
            "value": "Pathfinder Advanced Player's Guide"
        },
        "traits": {
            "custom": "",
            "rarity": "common",
            "value": [
                "duskwalker"
            ]
        }
    },
    "effects": [],
    "flags": {},
    "img": "systems/pf2e/icons/features/feats/feats.webp",
    "name": "Ghost Hunter",
    "type": "feat"
}
