{
    "_id": "SgXvw6rzk2lhTpXL",
    "data": {
        "actionCategory": {
            "value": ""
        },
        "actionType": {
            "value": "passive"
        },
        "actions": {
            "value": null
        },
        "description": {
            "value": "<p>You can create bigger snares for quick deployment, making it more likely for a creature to walk into your snares.</p>\n<p>When you prepare snares for quick deployment, you can prepare some of them as giant snares. A giant snare takes up a 10-foot-by-10-foot area but costs two of your quick deployment snares. A giant snare can trigger from a creature entering any portion of its area, and all its effects apply over the full area.</p>"
        },
        "featType": {
            "value": "archetype"
        },
        "level": {
            "value": 10
        },
        "prerequisites": {
            "value": [
                {
                    "value": "Snarecrafter Dedication"
                }
            ]
        },
        "rules": [],
        "source": {
            "value": "Pathfinder Advanced Player's Guide"
        },
        "traits": {
            "custom": "",
            "rarity": "common",
            "value": [
                "archetype"
            ]
        }
    },
    "effects": [],
    "flags": {},
    "img": "systems/pf2e/icons/features/feats/feats.webp",
    "name": "Giant Snare",
    "type": "feat"
}
