{
    "_id": "bj0y7JnIboNfCuC8",
    "data": {
        "actionCategory": {
            "value": "offensive"
        },
        "actionType": {
            "value": "passive"
        },
        "actions": {
            "value": null
        },
        "description": {
            "value": "<p>Whenever you gain a class feature that grants you expert or greater proficiency in a given weapon or weapons, you also gain that proficiency in @Compendium[pf2e.equipment-srd.Flail]{Flail}, @Compendium[pf2e.equipment-srd.Khopesh]{Khopesh}, @Compendium[pf2e.equipment-srd.Mambele]{Mambele}, @Compendium[pf2e.equipment-srd.Spear]{Spear}, and @Compendium[pf2e.equipment-srd.War Flail]{War Flail}.</p>"
        },
        "featType": {
            "value": "ancestry"
        },
        "level": {
            "value": 13
        },
        "location": "",
        "prerequisites": {
            "value": [
                {
                    "value": "Gnoll Weapon Practicality"
                }
            ]
        },
        "rules": [],
        "source": {
            "value": "Pathfinder Lost Omens: The Mwangi Expanse"
        },
        "traits": {
            "custom": "",
            "rarity": "common",
            "value": [
                "gnoll"
            ]
        }
    },
    "effects": [],
    "flags": {},
    "img": "systems/pf2e/icons/features/feats/feats.webp",
    "name": "Gnoll Weapon Expertise",
    "type": "feat"
}
