{
    "_id": "shDyS87L0eiabyHw",
    "data": {
        "actionCategory": {
            "value": ""
        },
        "actionType": {
            "value": "passive"
        },
        "actions": {
            "value": null
        },
        "description": {
            "value": "<p>You can use your choice of Spirit Lore or Haunt Lore to Make an Impression or Request things of incorporeal creatures. At the GM's discretion, an incorporeal spirit might be willing to hear you out.</p>"
        },
        "featType": {
            "value": "archetype"
        },
        "level": {
            "value": 4
        },
        "location": "",
        "prerequisites": {
            "value": [
                {
                    "value": "Ghost Hunter Dedication"
                }
            ]
        },
        "rules": [],
        "source": {
            "value": "Pathfinder #163: Ruins of Gauntlight"
        },
        "traits": {
            "custom": "",
            "rarity": "common",
            "value": [
                "archetype"
            ]
        }
    },
    "effects": [],
    "flags": {},
    "img": "systems/pf2e/icons/features/feats/feats.webp",
    "name": "Grave's Voice",
    "type": "feat"
}
