{
    "_id": "iuLLw1X5RjRcR4rH",
    "data": {
        "actionCategory": {
            "value": ""
        },
        "actionType": {
            "value": "passive"
        },
        "actions": {
            "value": null
        },
        "description": {
            "value": "<p>Your command over halcyon magic is nearly unmatched. You gain two common 6th-level and 7th-level halcyon spells. You also gain a 6th-level halcyon spell slot and a 7th-level halcyon spell slot. Your proficiency rank in either arcane or primal spell DCs and spell attack rolls advances from expert to master.</p>"
        },
        "featType": {
            "value": "archetype"
        },
        "level": {
            "value": 18
        },
        "prerequisites": {
            "value": [
                {
                    "value": "Halcyon Spellcasting Adept"
                },
                {
                    "value": "legendary in either Arcana or Nature and master in the other"
                }
            ]
        },
        "rules": [],
        "source": {
            "value": "Pathfinder Lost Omens: Character Guide"
        },
        "traits": {
            "custom": "",
            "rarity": "common",
            "value": [
                "archetype"
            ]
        }
    },
    "effects": [],
    "flags": {},
    "img": "systems/pf2e/icons/features/feats/feats.webp",
    "name": "Halcyon Spellcasting Sage",
    "type": "feat"
}
