{
    "_id": "85V3vdew0gykEtmu",
    "data": {
        "actionCategory": {
            "value": ""
        },
        "actionType": {
            "value": "action"
        },
        "actions": {
            "value": 1
        },
        "description": {
            "value": "<p>You can take advantage of shapechanging magic to close wounds and patch injuries. If your next action is to cast a non-cantrip polymorph spell that targets only one creature, your polymorph spell also restores 1d6 Hit Points per spell level to that creature. This is a healing effect.</p>"
        },
        "featType": {
            "value": "class"
        },
        "level": {
            "value": 10
        },
        "prerequisites": {
            "value": []
        },
        "rules": [],
        "source": {
            "value": "Pathfinder Core Rulebook"
        },
        "traits": {
            "custom": "",
            "rarity": "common",
            "value": [
                "druid",
                "metamagic"
            ]
        }
    },
    "effects": [],
    "flags": {},
    "img": "systems/pf2e/icons/features/feats/feats.webp",
    "name": "Healing Transformation",
    "type": "feat"
}
