{
    "_id": "BBvmmULFPLlHCeIK",
    "data": {
        "actionCategory": {
            "value": ""
        },
        "actionType": {
            "value": "passive"
        },
        "actions": {
            "value": null
        },
        "description": {
            "value": "<p>You can infuse your enchantments and illusions with more power. Choose one of your spells granted by captivator archetype feats; this spell can't be from your highest level of non-cantrip captivator spells. The spell you choose is heightened to the highest level of captivator spell you can cast, not including cantrips. You can't later change the spell that is heightened by this feat.</p>\n<p><strong>Special</strong> You can select this feat more than once. Each time you select it, you choose a different spell.</p>"
        },
        "featType": {
            "value": "archetype"
        },
        "level": {
            "value": 8
        },
        "location": "",
        "prerequisites": {
            "value": [
                {
                    "value": "Captivator Dedication"
                }
            ]
        },
        "rules": [],
        "source": {
            "value": ""
        },
        "traits": {
            "custom": "",
            "rarity": "common",
            "value": [
                "archetype",
                "metamagic"
            ]
        }
    },
    "effects": [],
    "flags": {},
    "img": "systems/pf2e/icons/default-icons/feats.webp",
    "name": "Heightened Captivation",
    "type": "feat"
}
