{
    "_id": "w2v5LZmpJy0MBxo5",
    "data": {
        "actionCategory": {
            "value": ""
        },
        "actionType": {
            "value": "passive"
        },
        "actions": {
            "value": null
        },
        "description": {
            "value": "<p>Your weapons are a blur, blocking and biting at your foes.</p>\n<p>At the start of each of your turns, you gain an additional reaction that you can use only to perform a @Compendium[pf2e.feats-srd.Twin Riposte]{Twin Riposte}. You can use this extra reaction even if you are not benefiting from @Compendium[pf2e.feats-srd.Twin Parry]{Twin Parry}.</p>"
        },
        "featType": {
            "value": "class"
        },
        "level": {
            "value": 14
        },
        "prerequisites": {
            "value": [
                {
                    "value": "Twin Riposte"
                }
            ]
        },
        "rules": [],
        "source": {
            "value": "Pathfinder Core Rulebook"
        },
        "traits": {
            "custom": "",
            "rarity": "common",
            "value": [
                "fighter"
            ]
        }
    },
    "effects": [],
    "flags": {},
    "img": "systems/pf2e/icons/features/feats/feats.webp",
    "name": "Improved Twin Riposte (Fighter)",
    "type": "feat"
}
