{
    "_id": "upMcjxPDgNOLuu7N",
    "data": {
        "actionCategory": {
            "value": ""
        },
        "actionType": {
            "value": "passive"
        },
        "actions": {
            "value": null
        },
        "description": {
            "value": "<p>You can hide a small object of up to light Bulk inside a hollow cavity on one of your forearms. It takes three @Compendium[pf2e.actionspf2e.Interact]{Interact} actions to store an object in this way.</p>\n<p>You gain a +4 circumstance bonus to the DCs of checks for others to @Compendium[pf2e.actionspf2e.Seek]{Seek} or @Compendium[pf2e.actionspf2e.Steal]{Steal} objects stored inside your arm.</p>\n<p>If you store a weapon in your arm, you can use a single action to Interact to draw the weapon into the hand corresponding to your internal cavity, then Strike with the weapon.</p>"
        },
        "featType": {
            "value": "ancestry"
        },
        "level": {
            "value": 1
        },
        "location": "",
        "prerequisites": {
            "value": []
        },
        "rules": [],
        "source": {
            "value": "Pathfinder Lost Omens: Ancestry Guide"
        },
        "traits": {
            "custom": "",
            "rarity": "common",
            "value": [
                "android"
            ]
        }
    },
    "effects": [],
    "flags": {},
    "img": "systems/pf2e/icons/features/feats/feats.webp",
    "name": "Internal Compartment",
    "type": "feat"
}
