{
    "_id": "Jwq5o13uZF3ooln1",
    "data": {
        "actionCategory": {
            "value": ""
        },
        "actionType": {
            "value": "action"
        },
        "actions": {
            "value": 1
        },
        "description": {
            "value": "<p><strong>Requirements</strong> You are unarmored.</p>\n<p>You relax your posture and loosen your joints, allowing yourself to move with incredible fluidity. You can make stinging lash attacks that deal 1d8 slashing damage. These attacks are in the brawling group, and have the finesse, nonlethal, reach, and unarmed traits.</p>\n<p>While in Jellyfish Stance, you gain a +2 circumstance bonus to Reflex saves and on checks to @Compendium[pf2e.actionspf2e.Escape]{Escape} and @Compendium[pf2e.actionspf2e.Squeeze]{Squeeze}.</p>\n<p>@Compendium[pf2e.feat-effects.Stance: Jellyfish Stance]{Stance: Jellyfish Stance}</p>"
        },
        "featType": {
            "value": "class"
        },
        "level": {
            "value": 6
        },
        "location": "",
        "prerequisites": {
            "value": []
        },
        "rules": [],
        "source": {
            "value": "Pathfinder #167: Ready? Fight!"
        },
        "traits": {
            "custom": "",
            "rarity": "uncommon",
            "value": [
                "monk",
                "stance"
            ]
        }
    },
    "effects": [],
    "flags": {},
    "img": "systems/pf2e/icons/default-icons/feats.webp",
    "name": "Jellyfish Stance",
    "type": "feat"
}
