{
    "_id": "HlSwpxreIfsglTJ8",
    "data": {
        "actionCategory": {
            "value": ""
        },
        "actionType": {
            "value": "passive"
        },
        "actions": {
            "value": null
        },
        "description": {
            "value": "<p>You've learned more than the use of @Compendium[pf2e.equipment-srd.Hand Crossbow]{Hand Crossbow} from drow lore. During your daily preparations, you can prepare a dose of @Compendium[pf2e.equipment-srd.Lethargy Poison]{Lethargy Poison} from ordinary materials in a wilderness or urban area. If you're an expert in Crafting, you can instead craft a dose of @Compendium[pf2e.equipment-srd.Stupor Poison]{Stupor Poison}. You can prepare two doses (of either poison) if you're a master in Crafting and three doses if you're legendary in Crafting. The save DC for this poison is equal to your class DC. Only you can use these poisons, and they expire the next time you make your daily preparations. The GM might decide that the area you're in is too barren to provide the materials you need for this feat.</p>"
        },
        "featType": {
            "value": "archetype"
        },
        "level": {
            "value": 8
        },
        "location": "",
        "prerequisites": {
            "value": [
                {
                    "value": "Drow Shootist Dedication"
                },
                {
                    "value": "trained in Crafting"
                }
            ]
        },
        "rules": [],
        "source": {
            "value": "Pathfinder #165: Eyes of Empty Death"
        },
        "traits": {
            "custom": "",
            "rarity": "common",
            "value": [
                "archetype"
            ]
        }
    },
    "effects": [],
    "flags": {},
    "img": "systems/pf2e/icons/default-icons/feats.webp",
    "name": "Lethargy Poisoner",
    "type": "feat"
}
