{
    "_id": "DPaZurhC9uyIWPcu",
    "data": {
        "actionCategory": {
            "value": ""
        },
        "actionType": {
            "value": "passive"
        },
        "actions": {
            "value": null
        },
        "description": {
            "value": "<p>When an obstacle bars your path, you pull a trick from your sleeve to overcome it. You can cast <em>@Compendium[pf2e.spells-srd.Darkvision]{Darkvision}</em>, <em>@Compendium[pf2e.spells-srd.Spider Climb]{Spider Climb}</em>, and 4th-level <em>@Compendium[pf2e.spells-srd.Water Breathing]{Water Breathing}</em> as innate primal spells, each once per day.</p>"
        },
        "featType": {
            "value": "archetype"
        },
        "level": {
            "value": 10
        },
        "prerequisites": {
            "value": [
                {
                    "value": "Horizon Walker Dedication"
                }
            ]
        },
        "rules": [],
        "source": {
            "value": "Pathfinder Advanced Player's Guide"
        },
        "traits": {
            "custom": "",
            "rarity": "common",
            "value": [
                "archetype"
            ]
        }
    },
    "effects": [],
    "flags": {},
    "img": "systems/pf2e/icons/features/feats/feats.webp",
    "name": "Magical Adaptation",
    "type": "feat"
}
