{
    "_id": "fFfRsvDavUsTBDF2",
    "data": {
        "actionCategory": {
            "value": ""
        },
        "actionType": {
            "value": "action"
        },
        "actions": {
            "value": 1
        },
        "description": {
            "value": "<p>You go to extreme lengths to support your allies, even when it means bringing harm to yourself.</p>\n<p>If your next action is to cast <em>@Compendium[pf2e.spells-srd.Harm]{Harm}</em> or <em>@Compendium[pf2e.spells-srd.Heal]{Heal}</em> from your healing or harmful font to restore Hit Points to a single ally, you can channel your own vitality along with the spell. You lose [[/r 1d8]] Hit Points per level of the spell, which can't be reduced or mitigated in any way, and your ally regains an equal number of Hit Points.</p>"
        },
        "featType": {
            "value": "class"
        },
        "level": {
            "value": 8
        },
        "prerequisites": {
            "value": [
                {
                    "value": "divine font"
                }
            ]
        },
        "rules": [],
        "source": {
            "value": "Pathfinder Advanced Player's Guide"
        },
        "traits": {
            "custom": "",
            "rarity": "common",
            "value": [
                "cleric",
                "metamagic"
            ]
        }
    },
    "effects": [],
    "flags": {},
    "img": "systems/pf2e/icons/features/feats/feats.webp",
    "name": "Martyr",
    "type": "feat"
}
