{
    "_id": "f6k9lIrIS4SfnCnG",
    "data": {
        "actionCategory": {
            "value": ""
        },
        "actionType": {
            "value": "passive"
        },
        "actions": {
            "value": null
        },
        "description": {
            "value": "<p>Your advanced alchemy level increases to 7. For every level you gain beyond 12th, your advanced alchemy level increases by 1.</p>"
        },
        "featType": {
            "value": "archetype"
        },
        "level": {
            "value": 12
        },
        "prerequisites": {
            "value": [
                {
                    "value": "Expert Alchemy"
                },
                {
                    "value": "master in Crafting"
                }
            ]
        },
        "rules": [
            {
                "key": "ActiveEffectLike",
                "mode": "upgrade",
                "path": "data.crafting.entries.alchemist.maxItemLevel",
                "value": {
                    "brackets": [
                        {
                            "end": 12,
                            "start": 12,
                            "value": 7
                        },
                        {
                            "start": 13,
                            "value": "@actor.level - 5"
                        }
                    ]
                }
            }
        ],
        "source": {
            "value": "Pathfinder Core Rulebook"
        },
        "traits": {
            "custom": "",
            "rarity": "common",
            "value": [
                "archetype"
            ]
        }
    },
    "effects": [],
    "flags": {},
    "img": "systems/pf2e/icons/features/feats/feats.webp",
    "name": "Master Alchemy",
    "type": "feat"
}
