{
    "_id": "Mvw3ZFrdwMHedAxY",
    "data": {
        "actionCategory": {
            "value": ""
        },
        "actionType": {
            "value": "free"
        },
        "actions": {
            "value": null
        },
        "description": {
            "value": "<p><strong>Frequency</strong> once per round</p>\n<p><strong>Trigger</strong> You craft an @Compendium[pf2e.equipment-srd.Elixir of Life (Minor)]{Elixir of Life} using @Compendium[pf2e.classfeatures.Quick Alchemy]{Quick Alchemy}, and that elixir is at least 2 levels lower than your advanced alchemy level</p>\n<hr />\n<p>You mix a special additive into your elixir that calms the drinker's body and mind.</p>\n<p>The elixir of life attempts to counteract one fear effect or one effect imposing the @Compendium[pf2e.conditionitems.Paralyzed]{Paralyzed} condition on the drinker using the item's level and a counteract modifier equal to your class DC - 10.</p>"
        },
        "featType": {
            "value": "class"
        },
        "level": {
            "value": 10
        },
        "location": "",
        "prerequisites": {
            "value": []
        },
        "rules": [],
        "source": {
            "value": "Pathfinder Core Rulebook"
        },
        "traits": {
            "custom": "",
            "rarity": "common",
            "value": [
                "alchemist",
                "additive2"
            ]
        }
    },
    "effects": [],
    "flags": {},
    "img": "systems/pf2e/icons/features/feats/feats.webp",
    "name": "Merciful Elixir",
    "type": "feat"
}
