{
    "_id": "JS24EjgLYcHB9E3T",
    "data": {
        "actionCategory": {
            "value": ""
        },
        "actionType": {
            "value": "reaction"
        },
        "actions": {
            "value": null
        },
        "description": {
            "value": "<p><strong>Frequency</strong> once per hour</p>\n<p><strong>Trigger</strong> You attempt a skill check requiring three actions or fewer.</p>\n<hr />\n<p>You stimulate your nanites, forcing your body to temporarily increase its efficiency. You gain a +2 status bonus to the triggering skill check. In addition, your circuitry glows, lighting a @Template[type:emanation|distance:10] with dim light for 1 round.</p>"
        },
        "featType": {
            "value": "ancestry"
        },
        "level": {
            "value": 1
        },
        "location": "",
        "prerequisites": {
            "value": []
        },
        "rules": [
            {
                "key": "ToggleProperty",
                "label": "Activate Nanite Surge",
                "property": "flags.pf2e.rollOptions.all.nanite-surge"
            },
            {
                "key": "FlatModifier",
                "predicate": {
                    "all": [
                        "nanite-surge"
                    ]
                },
                "selector": "skill-check",
                "type": "status",
                "value": 2
            }
        ],
        "source": {
            "value": "Pathfinder Lost Omens: Ancestry Guide"
        },
        "traits": {
            "custom": "",
            "rarity": "common",
            "value": [
                "android",
                "concentrate"
            ]
        }
    },
    "effects": [],
    "flags": {},
    "img": "systems/pf2e/icons/features/feats/feats.webp",
    "name": "Nanite Surge",
    "type": "feat"
}
