{
    "_id": "wEtN2NkqW4z4GUON",
    "data": {
        "actionCategory": {
            "value": ""
        },
        "actionType": {
            "value": "passive"
        },
        "actions": {
            "value": null
        },
        "description": {
            "value": "<p>Many psychopomps wear masks when dealing with the living, and many cultures believe that seeing an unmasked psychopomp's face invites death. You are trained in Intimidation and gain the @Compendium[pf2e.feats-srd.Intimidating Glare]{Intimidating Glare} skill feat. If you were already trained in Intimidation (from your background or class, for example), you instead become trained in a skill of your choice. You also know how to make masks like those worn by psychopomps, a process that takes 1 hour and 1 sp of appropriate material. If you instead pay 50 gp for a splendid psychopomp mask, the mask grants you a +1 item bonus to Intimidation while you are wearing it. Its usage is worn (mask).</p>"
        },
        "featType": {
            "value": "ancestry"
        },
        "level": {
            "value": 1
        },
        "location": "",
        "prerequisites": {
            "value": [
                {
                    "value": "trained in Crafting"
                }
            ]
        },
        "rules": [],
        "source": {
            "value": "Pathfinder Lost Omens: Ancestry Guide"
        },
        "traits": {
            "custom": "",
            "rarity": "common",
            "value": [
                "duskwalker"
            ]
        }
    },
    "effects": [],
    "flags": {},
    "img": "systems/pf2e/icons/features/feats/feats.webp",
    "name": "Nosoi's Mask",
    "type": "feat"
}
