{
    "_id": "wHwjoK3E1Ot9kkV0",
    "data": {
        "actionCategory": {
            "value": ""
        },
        "actionType": {
            "value": "passive"
        },
        "actions": {
            "value": null
        },
        "description": {
            "value": "<p>When you cast obscuring mist, you can modify the spell to replace its standard effects with the following: You cause a cloud of thick fog to blanket the area, making it difficult to see the ground. The area within the fog is difficult terrain for creatures that can't see through fog or mist. You can Dismiss the cloud.</p>"
        },
        "featType": {
            "value": "archetype"
        },
        "level": {
            "value": 6
        },
        "location": "",
        "prerequisites": {
            "value": [
                {
                    "value": "Spell Trickster Dedication"
                },
                {
                    "value": "ability to cast obscuring mist"
                }
            ]
        },
        "rules": [],
        "source": {
            "value": ""
        },
        "traits": {
            "custom": "",
            "rarity": "common",
            "value": [
                "archetype"
            ]
        }
    },
    "effects": [],
    "flags": {},
    "img": "systems/pf2e/icons/default-icons/feats.webp",
    "name": "Obscured Terrain",
    "type": "feat"
}
