{
    "_id": "aQjWHbjK1pk8HESM",
    "data": {
        "actionCategory": {
            "value": ""
        },
        "actionType": {
            "value": "passive"
        },
        "actions": {
            "value": null
        },
        "description": {
            "value": "<div><strong>Archetype</strong> @Compendium[pf2e.archetypes.Student of Perfection]{Student of Perfection}</div>\n<div></div>\n<hr />\n<p>You gain the appropriate ki spell for your School of Perfection: <em>@Compendium[pf2e.spells-srd.Unblinking Flame Revelation]{Unblinking Flame Revelation}</em> for Unblinking Flame, <em>@Compendium[pf2e.spells-srd.Unbreaking Wave Advance]{Unbreaking Wave Advance}</em> for Unbreaking Waves, <em>@Compendium[pf2e.spells-srd.Unfolding Wind Rush]{Unfolding Wind Rush}</em> for Unfolding Wind, or <em>@Compendium[pf2e.spells-srd.Untwisting Iron Buffer]{Untwisting Iron Buffer}</em> for Untwisting Iron. Increase the number of Focus Points in your focus pool by 1.</p>"
        },
        "featType": {
            "value": "archetype"
        },
        "level": {
            "value": 6
        },
        "prerequisites": {
            "value": [
                {
                    "value": "Student of Perfection Dedication"
                }
            ]
        },
        "rules": [
            {
                "key": "ActiveEffectLike",
                "mode": "add",
                "path": "data.resources.focus.max",
                "value": 1
            }
        ],
        "source": {
            "value": "Pathfinder Lost Omens: World Guide"
        },
        "traits": {
            "custom": "",
            "rarity": "common",
            "value": [
                "archetype"
            ]
        }
    },
    "effects": [],
    "flags": {},
    "img": "systems/pf2e/icons/features/feats/feats.webp",
    "name": "Perfect Ki Adept",
    "type": "feat"
}
