{
    "_id": "A2EBy2L4acrehiAA",
    "data": {
        "actionCategory": {
            "value": "offensive"
        },
        "actionType": {
            "value": "action"
        },
        "actions": {
            "value": 1
        },
        "description": {
            "value": "<p><strong>Requirements</strong> You're wielding a loaded one-handed ranged weapon.</p>\n<hr />\n<p>Your quick gestures and flair for performance distract your opponent, leaving it vulnerable to your follow-up attacks. You @Compendium[pf2e.actionspf2e.Feint]{Feint} against an opponent within the required weapon's first range increment, rather than an opponent within melee reach. If you succeed, the foe is @Compendium[pf2e.conditionitems.Flat-Footed]{Flat-footed} against your melee and ranged attacks, rather than only your melee attacks. On a critical failure, you're flat-footed against the target's melee and ranged attacks, rather than only its melee attacks.</p>"
        },
        "featType": {
            "value": "class"
        },
        "level": {
            "value": 2
        },
        "location": "",
        "prerequisites": {
            "value": [
                {
                    "value": "trained in Deception"
                }
            ]
        },
        "rules": [],
        "source": {
            "value": ""
        },
        "traits": {
            "custom": "",
            "rarity": "common",
            "value": [
                "gunslinger"
            ]
        }
    },
    "effects": [],
    "flags": {},
    "img": "systems/pf2e/icons/default-icons/feats.webp",
    "name": "Pistol Twirl",
    "type": "feat"
}
