{
    "_id": "pKoW1X95LjmWn5Jq",
    "data": {
        "actionCategory": {
            "value": ""
        },
        "actionType": {
            "value": "action"
        },
        "actions": {
            "value": 1
        },
        "description": {
            "value": "<p><strong>Requirements</strong> Your last action was a successful melee Strike</p>\n<p>that dealt damage against a target that is afflicted by a poison, and you know which poison.</p>\n<hr />\n<p>Poisons attack specific parts of the body-one venom might target the lungs, another the circulatory system, while another deteriorates the nerves. You know how to take advantage of such weaknesses.</p>\n<p>You deal [[/r {1d6}]]{1d6 damage} damage of the required Strike's damage type and [[/r {1d6}[poison]]]{1d6 poison damage} to the target. If you're at least 18th level, you deal [[/r 2d6]]{2d6 damage of each type}.</p>"
        },
        "featType": {
            "value": "archetype"
        },
        "level": {
            "value": 4
        },
        "prerequisites": {
            "value": [
                {
                    "value": "Poisoner Dedication"
                },
                {
                    "value": "trained in Medicine"
                }
            ]
        },
        "rules": [],
        "source": {
            "value": "Pathfinder Advanced Player's Guide"
        },
        "traits": {
            "custom": "",
            "rarity": "common",
            "value": [
                "archetype"
            ]
        }
    },
    "effects": [],
    "flags": {},
    "img": "systems/pf2e/icons/features/feats/feats.webp",
    "name": "Poisoner's Twist",
    "type": "feat"
}
