{
    "_id": "OcBaEnGdDm6CuSnr",
    "data": {
        "actionCategory": {
            "value": ""
        },
        "actionType": {
            "value": "reaction"
        },
        "actions": {
            "value": null
        },
        "description": {
            "value": "<p><strong>Trigger</strong> An ally is reduced to 0 Hit Points.</p>\n<hr />\n<p>You work quickly and efficiently in times of danger to deliver needed assistance. You Stride towards the triggering ally. You gain a +10-foot circumstance bonus to your Speed during this movement.</p>"
        },
        "featType": {
            "value": "class"
        },
        "level": {
            "value": 2
        },
        "location": "",
        "prerequisites": {
            "value": []
        },
        "rules": [],
        "source": {
            "value": "Pathfinder Advanced Player's Guide"
        },
        "traits": {
            "custom": "",
            "rarity": "common",
            "value": [
                "cleric"
            ]
        }
    },
    "effects": [],
    "flags": {},
    "img": "systems/pf2e/icons/features/feats/feats.webp",
    "name": "Rapid Response",
    "type": "feat"
}
