{
    "_id": "BS6UoGLyJ12xVD9P",
    "data": {
        "actionCategory": {
            "value": ""
        },
        "actionType": {
            "value": "passive"
        },
        "actions": {
            "value": null
        },
        "description": {
            "value": "<p>You call upon the familial bonds you share with other ysoki to defend them in battle. You can cast <em>@Compendium[pf2e.spells-srd.Enlarge]{Enlarge}</em> as a 6th-level primal innate spell once per day. You can target only yourself and other ratfolk with this spell.</p>"
        },
        "featType": {
            "value": "ancestry"
        },
        "level": {
            "value": 17
        },
        "location": "",
        "prerequisites": {
            "value": []
        },
        "rules": [],
        "source": {
            "value": "Pathfinder Lost Omens: Ancestry Guide"
        },
        "traits": {
            "custom": "",
            "rarity": "common",
            "value": [
                "ratfolk"
            ]
        }
    },
    "effects": [],
    "flags": {},
    "img": "systems/pf2e/icons/features/feats/feats.webp",
    "name": "Ratfolk Growth",
    "type": "feat"
}
