{
    "_id": "cQ2jy4Utoxmk3MkG",
    "data": {
        "actionCategory": {
            "value": "defensive"
        },
        "actionType": {
            "value": "reaction"
        },
        "actions": {
            "value": null
        },
        "description": {
            "value": "<p><strong>Frequency</strong> once per day</p>\n<p><strong>Trigger</strong> You are the target of a spell or attack.</p>\n<hr />\n<p>You're so charming and distracting that when pressed, you can cast a simple enchantment in time to foil an attacker. You cast any of your 1st-level enchantment spells that normally take two actions or fewer to cast. This takes effect before the triggering spell or attack, and if the attacker is affected by your spell, it can make different decisions based on the effects (for instance, if you charm the attacker and it becomes friendly to you, it can choose a different target than you for its attack or spell). The attacking creature must be in range of your chosen spell, and if your spell requires targets, the attacking creature must be a valid target. Your spell affects only the attacking creature, even if it would normally affect more targets or an area.</p>"
        },
        "featType": {
            "value": "archetype"
        },
        "level": {
            "value": 10
        },
        "location": "",
        "prerequisites": {
            "value": [
                {
                    "value": "Captivator Dedication"
                }
            ]
        },
        "rules": [],
        "source": {
            "value": ""
        },
        "traits": {
            "custom": "",
            "rarity": "common",
            "value": [
                "archetype"
            ]
        }
    },
    "effects": [],
    "flags": {},
    "img": "systems/pf2e/icons/default-icons/feats.webp",
    "name": "Reactive Charm",
    "type": "feat"
}
