{
    "_id": "m7AOg13xEJRHyoTt",
    "data": {
        "actionCategory": {
            "value": ""
        },
        "actionType": {
            "value": "passive"
        },
        "actions": {
            "value": null
        },
        "description": {
            "value": "<p>You've studied survival skills with the School of Swords experts and are comfortable spending long periods of time in the wilderness. You don't get fatigued more quickly due to precipitation during overland travel, though you can otherwise be fatigued as normal. You can go 3 days + your Constitution modifier without water before you take damage from thirst and you can go 5 days + your Constitution modifier without food before you take damage from starvation.</p>"
        },
        "featType": {
            "value": "archetype"
        },
        "level": {
            "value": 12
        },
        "prerequisites": {
            "value": [
                {
                    "value": "Swordmaster Dedication"
                },
                {
                    "value": "master in Survival"
                }
            ]
        },
        "rules": [],
        "source": {
            "value": "Pathfinder Lost Omens: Pathfinder Society Guide"
        },
        "traits": {
            "custom": "",
            "rarity": "common",
            "value": [
                "archetype",
                "skill"
            ]
        }
    },
    "effects": [],
    "flags": {},
    "img": "systems/pf2e/icons/features/feats/feats.webp",
    "name": "Rugged Survivalist",
    "type": "feat"
}
