{
    "_id": "JaBDNtNYYDfTGYad",
    "data": {
        "actionCategory": {
            "value": ""
        },
        "actionType": {
            "value": "passive"
        },
        "actions": {
            "value": null
        },
        "description": {
            "value": "<p>You are a great warrior that can stand strong against the fiercest opponents to your cause.</p>\n<p>You gain resistance 10 to bludgeoning, piercing, and slashing damage caused by creatures and effects opposed to your tenets (evil creatures for tenets of good, good creatures for tenets of evil, and so on).</p>\n<p>In addition, creatures and effects that roll a natural 20 on an attack roll against you don't improve their result by one degree of success.</p>"
        },
        "featType": {
            "value": "class"
        },
        "level": {
            "value": 20
        },
        "prerequisites": {
            "value": []
        },
        "rules": [],
        "source": {
            "value": "Pathfinder Advanced Player's Guide"
        },
        "traits": {
            "custom": "",
            "rarity": "common",
            "value": [
                "champion"
            ]
        }
    },
    "effects": [],
    "flags": {},
    "img": "systems/pf2e/icons/features/feats/feats.webp",
    "name": "Sacred Defender",
    "type": "feat"
}
