{
    "_id": "vayNZR1bTzU1oUa3",
    "data": {
        "actionCategory": {
            "value": ""
        },
        "actionType": {
            "value": "action"
        },
        "actions": {
            "value": 1
        },
        "description": {
            "value": "<p><strong>Requirements</strong> You haven't used this ability since you last Raged.</p>\n<hr />\n<p>You stoke an ally's fury. While you are raging, one willing creature within 30 feet gains the effects of the Rage action, except it can still use concentrate actions.</p>"
        },
        "featType": {
            "value": "class"
        },
        "level": {
            "value": 8
        },
        "prerequisites": {
            "value": []
        },
        "rules": [],
        "source": {
            "value": "Pathfinder Core Rulebook"
        },
        "traits": {
            "custom": "",
            "rarity": "common",
            "value": [
                "auditory",
                "barbarian",
                "rage",
                "visual"
            ]
        }
    },
    "effects": [],
    "flags": {},
    "img": "systems/pf2e/icons/features/feats/feats.webp",
    "name": "Share Rage",
    "type": "feat"
}
