{
    "_id": "nqDhQdkgsnvebUMr",
    "data": {
        "actionCategory": {
            "value": ""
        },
        "actionType": {
            "value": "reaction"
        },
        "actions": {
            "value": null
        },
        "description": {
            "value": "<p><strong>Trigger</strong> A creature fails or critically fails a save against your snare.</p>\n<hr />\n<p>Your snares are so befuddling that your victims rarely notice you slipping out of sight. If you have expert proficiency in Deception, you can Create a Diversion against the triggering creature. If you have expert proficiency in Intimidation, you can instead Demoralize the triggering creature. If you have both, choose one of the two effects.</p>"
        },
        "featType": {
            "value": "ancestry"
        },
        "level": {
            "value": 9
        },
        "location": "",
        "prerequisites": {
            "value": [
                {
                    "value": "expert in Deception or Intimidation"
                },
                {
                    "value": "Snare Crafting"
                }
            ]
        },
        "rules": [],
        "source": {
            "value": "Pathfinder Lost Omens: Ancestry Guide"
        },
        "traits": {
            "custom": "",
            "rarity": "common",
            "value": [
                "kobold"
            ]
        }
    },
    "effects": [],
    "flags": {},
    "img": "systems/pf2e/icons/features/feats/feats.webp",
    "name": "Snare Commando",
    "type": "feat"
}
