{
    "_id": "wjhhlh82MABhfxCO",
    "data": {
        "actionCategory": {
            "value": ""
        },
        "actionType": {
            "value": "reaction"
        },
        "actions": {
            "value": null
        },
        "description": {
            "value": "<p><strong>Frequency</strong> once per 10 minutes</p>\n<p><strong>Trigger</strong> You, or a strix ally you can see, are damaged by an enemy's critical hit.</p>\n<hr />\n<p>You dedicate yourself to destroying those who harm your kin. Until the end of your next turn, you deal an additional +1d6 damage on Strikes against the triggering enemy. The bonus increases to +2d6 if you use a @Compendium[pf2e.equipment-srd.Striking]{Striking} weapon or unarmed attack and +3d6 if you use a @Compendium[pf2e.equipment-srd.Striking (Major)]{Striking (Major)} weapon or unarmed attack.</p>"
        },
        "featType": {
            "value": "ancestry"
        },
        "level": {
            "value": 5
        },
        "location": "",
        "prerequisites": {
            "value": []
        },
        "rules": [],
        "source": {
            "value": "Pathfinder Lost Omens: Ancestry Guide"
        },
        "traits": {
            "custom": "",
            "rarity": "common",
            "value": [
                "emotion",
                "mental",
                "strix"
            ]
        }
    },
    "effects": [],
    "flags": {},
    "img": "systems/pf2e/icons/features/feats/feats.webp",
    "name": "Strix Vengeance",
    "type": "feat"
}
