{
    "_id": "1t5479E6bdvFs4E7",
    "data": {
        "actionCategory": {
            "value": ""
        },
        "actionType": {
            "value": "passive"
        },
        "actions": {
            "value": null
        },
        "description": {
            "value": "<p>You are trained in the use of talismans and similar magical paraphernalia. This training might have occurred in a formal classroom or been an agglomeration of folk magic picked up over time. You can craft talismans and know the formulas for all common talismans in the <em>Core Rulebook</em> of your level or lower. You remember talisman formulas and don't need a formula book for them.</p>\n<p>Additionally, you carry a collection of magical baubles you can turn into temporary talismans. Each day during your daily preparations, you can make two talismans with an item level no higher than half your level. You must know each talisman's formula. A talisman created this way is a temporary item and loses its magic the next time you make your daily preparations if you haven't already used it.</p>\n<p>Finally, when you @Compendium[pf2e.actionspf2e.Affix a Talisman]{Affix a Talisman}, you can (in any combination) affix or remove up to four talismans in the 10-minute span.</p>\n<p><strong>Special</strong> You can't select another dedication feat until you have gained two other feats from the talisman dabbler archetype.</p>"
        },
        "featType": {
            "value": "archetype"
        },
        "level": {
            "value": 2
        },
        "prerequisites": {
            "value": []
        },
        "rules": [
            {
                "isDailyPrep": true,
                "key": "CraftingEntry",
                "maxSlots": 2,
                "name": "Talisman Dabbler",
                "requiredTraits": [
                    [
                        "talisman"
                    ]
                ],
                "selector": "talismanDabbler"
            },
            {
                "key": "ActiveEffectLike",
                "mode": "upgrade",
                "path": "data.crafting.entries.talismanDabbler.maxItemLevel",
                "value": "floor(@actor.level / 2)"
            }
        ],
        "source": {
            "value": "Pathfinder Advanced Player's Guide"
        },
        "traits": {
            "custom": "",
            "rarity": "common",
            "value": [
                "archetype",
                "dedication"
            ]
        }
    },
    "effects": [],
    "flags": {},
    "img": "systems/pf2e/icons/features/feats/feats.webp",
    "name": "Talisman Dabbler Dedication",
    "type": "feat"
}
