{
    "_id": "DLkMoVb8qb4qxnx3",
    "data": {
        "actionCategory": {
            "value": ""
        },
        "actionType": {
            "value": "action"
        },
        "actions": {
            "value": 1
        },
        "description": {
            "value": "<p>Your attack harms and hinders your foe. Choose a particular part of your foe from the list below and Strike.</p>\n<p>If you hit and damage the target, apply the effect corresponding to the chosen part. This hindrance lasts until the end of your next turn. On a critical hit, you also apply a lesser effect lasting for 1 minute.</p>\n<ul>\n<li><strong>Arm (or another limb used for attacks, such as a tentacle)</strong> The target is @Compendium[pf2e.conditionitems.Enfeebled]{Enfeebled 2}. On a critical hit, it is also @Compendium[pf2e.conditionitems.Enfeebled]{Enfeebled 1} for 1 minute.</li>\n<li><strong>Head</strong> The target is @Compendium[pf2e.conditionitems.Stupefied]{Stupefied 2}. On a critical hit, it is also @Compendium[pf2e.conditionitems.Stupefied]{Stupefied 1} for 1 minute.</li>\n<li><strong>Legs</strong> The target takes a -10-foot status penalty to its Speeds. On a critical hit, it also takes a -5-foot status penalty to its Speeds for 1 minute.</li>\n</ul>"
        },
        "featType": {
            "value": "class"
        },
        "level": {
            "value": 10
        },
        "location": "",
        "prerequisites": {
            "value": []
        },
        "rules": [],
        "source": {
            "value": "Pathfinder Advanced Player's Guide"
        },
        "traits": {
            "custom": "",
            "rarity": "common",
            "value": [
                "finisher",
                "swashbuckler"
            ]
        }
    },
    "effects": [],
    "flags": {},
    "img": "systems/pf2e/icons/features/feats/feats.webp",
    "name": "Targeting Finisher",
    "type": "feat"
}
