{
    "_id": "YKqMuuC8j35NFh92",
    "data": {
        "actionCategory": {
            "value": ""
        },
        "actionType": {
            "value": "passive"
        },
        "actions": {
            "value": null
        },
        "description": {
            "value": "<p>You tumble under and behind your foe to catch them off guard. When you successfully @Compendium[pf2e.actionspf2e.Tumble Through]{Tumble Through}, the foe whose space you passed through is @Compendium[pf2e.conditionitems.Flat-Footed]{Flat-Footed} against the next attack you make before the end of your turn.</p>"
        },
        "featType": {
            "value": "class"
        },
        "level": {
            "value": 1
        },
        "prerequisites": {
            "value": []
        },
        "rules": [],
        "source": {
            "value": "Pathfinder Advanced Player's Guide"
        },
        "traits": {
            "custom": "",
            "rarity": "common",
            "value": [
                "rogue"
            ]
        }
    },
    "effects": [],
    "flags": {},
    "img": "systems/pf2e/icons/features/feats/feats.webp",
    "name": "Tumble Behind (Rogue)",
    "type": "feat"
}
