{
    "_id": "TgYs2m9scSyEJwdr",
    "data": {
        "actionCategory": {
            "value": ""
        },
        "actionType": {
            "value": "passive"
        },
        "actions": {
            "value": null
        },
        "description": {
            "value": "<p>Your eidolon gains @Compendium[pf2e.bestiary-ability-glossary-srd.Tremorsense]{Tremorsense} as an imprecise sense with a range of 30 feet. If aquatic, it gains @Compendium[pf2e.bestiary-ability-glossary-srd.Wavesense]{Wavesense} as an imprecise sense with a range of 30 feet instead. If amphibious, it gains both.</p>"
        },
        "featType": {
            "value": "class"
        },
        "level": {
            "value": 4
        },
        "location": "",
        "prerequisites": {
            "value": []
        },
        "rules": [],
        "source": {
            "value": ""
        },
        "traits": {
            "custom": "",
            "rarity": "common",
            "value": [
                "evolution",
                "summoner"
            ]
        }
    },
    "effects": [],
    "flags": {},
    "img": "systems/pf2e/icons/features/feats/feats.webp",
    "name": "Vibration Sense",
    "type": "feat"
}
