{
    "_id": "Jnhkl2BOhxxRCTpp",
    "data": {
        "actionCategory": {
            "value": ""
        },
        "actionType": {
            "value": "action"
        },
        "actions": {
            "value": 2
        },
        "description": {
            "value": "<p>As part of daily preparation, you can drill with a number of allies up to your Charisma modifier. These allies must be present and listening during this time, but this does not otherwise impede their own preparation. When you use this feat's benefit, you and all drilled companions within 30 feet who are wielding shields @Compendium[pf2e.actionspf2e.Raise a Shield]{Raise a Shield}. Allies who Raise their Shields keep them raised until the start of their next turn, as normal.</p>"
        },
        "featType": {
            "value": "archetype"
        },
        "level": {
            "value": 10
        },
        "prerequisites": {
            "value": [
                {
                    "value": "Knight Vigilant Dedication"
                },
                {
                    "value": "Shield Block"
                }
            ]
        },
        "rules": [],
        "source": {
            "value": ""
        },
        "traits": {
            "custom": "",
            "rarity": "rare",
            "selected": {
                "archetype": "Archetype"
            },
            "value": [
                "archetype"
            ]
        }
    },
    "effects": [],
    "flags": {},
    "img": "systems/pf2e/icons/features/feats/feats.webp",
    "name": "Vigil's Walls Rise Anew",
    "type": "feat"
}
