{
    "_id": "x9wxQ61HNkAVbDHr",
    "data": {
        "actionCategory": {
            "value": ""
        },
        "actionType": {
            "value": "passive"
        },
        "actions": {
            "value": null
        },
        "description": {
            "value": "<p>You become trained in all simple weapons. If you were already trained in all simple weapons, you become trained in all martial weapons. If you were already trained in all martial weapons, you become trained in one advanced weapon of your choice.</p>\n<hr />\n<p><strong>Special</strong> You can select this feat more than once. Each time you do, you become trained in additional weapons as appropriate, following the above progression.</p>"
        },
        "featType": {
            "value": "general"
        },
        "level": {
            "value": 1
        },
        "prerequisites": {
            "value": []
        },
        "rules": [],
        "source": {
            "value": "Pathfinder Core Rulebook"
        },
        "traits": {
            "custom": "",
            "rarity": "common",
            "value": [
                "general"
            ]
        }
    },
    "effects": [],
    "flags": {},
    "img": "systems/pf2e/icons/features/feats/feats.webp",
    "name": "Weapon Proficiency",
    "type": "feat"
}
