{
    "_id": "dTJP2Hg4ZJu4Ck2y",
    "data": {
        "actionCategory": {
            "value": ""
        },
        "actionType": {
            "value": "passive"
        },
        "actions": {
            "value": null
        },
        "description": {
            "value": "<p><strong>Minor Boon</strong> You always present yourself at your best. Your clothing and person are always clean and unrumpled, the metal of your blade and armor shining and unblemished.</p>\n<p>This doesn't prevent you from being exposed to diseases and other afflictions via filth, but it protects you as well as if you had washed thoroughly right away.</p>"
        },
        "featType": {
            "value": "deityboon"
        },
        "level": {
            "value": 0
        },
        "prerequisites": {
            "value": []
        },
        "rules": [],
        "source": {
            "value": ""
        },
        "traits": {
            "custom": "",
            "rarity": "common",
            "value": []
        }
    },
    "effects": [],
    "flags": {},
    "img": "systems/pf2e/icons/deity/Iomedae.webp",
    "name": "Iomedae - Minor Boon",
    "type": "feat"
}
