{
    "_id": "iZYjxY0qYvg5yPP3",
    "data": {
        "description": {
            "value": "<p>Granted by casting <em>@Compendium[pf2e.spells-srd.Angelic Wings]{Angelic Wings}</em></p>"
        },
        "duration": {
            "expiry": "turn-start",
            "sustained": false,
            "unit": "rounds",
            "value": 3
        },
        "level": {
            "value": 3
        },
        "rules": [
            {
                "key": "BaseSpeed",
                "selector": "fly",
                "value": 30
            }
        ],
        "source": {
            "value": ""
        },
        "start": {
            "initiative": null,
            "value": 0
        },
        "target": null,
        "tokenIcon": {
            "show": true
        },
        "traits": {
            "custom": "",
            "rarity": "common",
            "value": []
        }
    },
    "effects": [],
    "flags": {},
    "img": "systems/pf2e/icons/spells/angelic-wings.webp",
    "name": "Spell Effect: Angelic Wings",
    "type": "effect"
}
