{
    "_id": "14AFzcwkN019dzcl",
    "data": {
        "description": {
            "value": "<p>Granted by casting <em>@Compendium[pf2e.spells-srd.Shifting Form]{Shifting Form}</em> and choosing to gain a pair of claws.</p>"
        },
        "duration": {
            "expiry": "turn-start",
            "sustained": false,
            "unit": "minutes",
            "value": 1
        },
        "level": {
            "value": 4
        },
        "rules": [
            {
                "category": "unarmed",
                "damage": {
                    "base": {
                        "damageType": "slashing",
                        "dice": 1,
                        "die": "d8"
                    }
                },
                "group": "brawling",
                "key": "Strike",
                "label": "PF2E.Weapon.Base.claw",
                "range": null,
                "traits": [
                    "agile",
                    "finesse",
                    "unarmed"
                ]
            }
        ],
        "source": {
            "value": "Pathfinder Core Rulebook"
        },
        "start": {
            "initiative": null,
            "value": 0
        },
        "target": null,
        "tokenIcon": {
            "show": true
        },
        "traits": {
            "custom": "",
            "rarity": "common",
            "value": []
        }
    },
    "effects": [],
    "flags": {},
    "img": "systems/pf2e/icons/spells/shifting-form.webp",
    "name": "Spell Effect: Shifting Form (Claws)",
    "type": "effect"
}
