{
    "_id": "ib58LaffEUIypuzL",
    "data": {
        "description": {
            "value": "<p>You flood your eidolon with power, creating a temporary evolution in your eidolon's capabilities. Choose one of the following effects:</p>\n<hr />\n<p><strong>Heightened (5th)</strong> Add the options from the 3rd-level version and the following options to the list of effects you can choose:</p>\n<ul>\n<li>Your eidolon becomes Huge, instead of its previous size. This increases your eidolon's reach to 15 feet but doesn't change any other statistics for your eidolon. Because of the special link you share, you can ride your eidolon without getting in each other's way. If another creature tries to ride your eidolon, both you and the riding creature each regain only 2 actions at the start of your turns each round, as normal.</li>\n</ul>"
        },
        "duration": {
            "expiry": "turn-start",
            "sustained": false,
            "unit": "minutes",
            "value": 1
        },
        "level": {
            "value": 5
        },
        "rules": [
            {
                "key": "CreatureSize",
                "value": "huge"
            }
        ],
        "source": {
            "value": "Pathfinder Secrets of Magic"
        },
        "start": {
            "initiative": null,
            "value": 0
        },
        "target": null,
        "tokenIcon": {
            "show": true
        },
        "traits": {
            "custom": "",
            "rarity": "common",
            "value": []
        }
    },
    "effects": [],
    "flags": {},
    "img": "systems/pf2e/icons/default-icons/effect.svg",
    "name": "Spell Effect: Evolution Surge (Huge)",
    "type": "effect"
}
