{
    "_id": "Jw8C5RUaxQ9N7VUH",
    "data": {
        "description": {
            "value": "<p>Granted by <em>@Compendium[pf2e.spells-srd.Blessing of Defiance]{Blessing of Defiance}</em></p>\n<p>Channeling forth the power to persevere in the face of adversity, you grant the target the means to deny danger and avoid dire harm. The target gets a +4 status bonus to Will saving throws for 1 round. The potency and number of targets of this blessing depend on how many actions you spend when Casting the Spell.</p>\n<hr />\n<p><span class=\"pf2-icon\">1</span> <strong>(somatic)</strong> The spell targets you or one willing ally within range.</p>\n<p><span class=\"pf2-icon\">2</span> <strong>(verbal)</strong> The spell targets you or one willing ally within range. The target gains resistance 15 to mental damage.</p>\n<p><span class=\"pf2-icon\">3</span> <strong>(verbal)</strong> The spell targets you and all willing allies within 30 feet.</p>"
        },
        "duration": {
            "expiry": "turn-start",
            "sustained": false,
            "unit": "rounds",
            "value": 1
        },
        "level": {
            "value": 5
        },
        "rules": [
            {
                "key": "FlatModifier",
                "label": "Blessing of Defiance",
                "selector": "will",
                "type": "status",
                "value": 4
            }
        ],
        "source": {
            "value": "Pathfinder Secrets of Magic"
        },
        "start": {
            "initiative": null,
            "value": 0
        },
        "target": null,
        "tokenIcon": {
            "show": true
        },
        "traits": {
            "custom": "",
            "rarity": "common",
            "value": []
        }
    },
    "effects": [],
    "flags": {},
    "img": "systems/pf2e/icons/spells/blessing-of-defiance.webp",
    "name": "Spell Effect: Blessing of Defiance (Will)",
    "type": "effect"
}
