{
    "_id": "KBhwFjdptrKyN5EM",
    "data": {
        "actionCategory": {
            "value": ""
        },
        "actionType": {
            "value": "passive"
        },
        "actions": {
            "value": null
        },
        "description": {
            "value": "<p>You boast, taunt, and psychologically needle your foes.</p>\n<p>You are trained in Intimidation. You gain @Compendium[pf2e.classfeatures.Panache]{Panache} during an encounter whenever you successfully @Compendium[pf2e.actionspf2e.Demoralize]{Demoralize} a foe.</p>"
        },
        "featType": {
            "value": "classfeature"
        },
        "level": {
            "value": 1
        },
        "location": "",
        "prerequisites": {
            "value": []
        },
        "rules": [
            {
                "key": "FlatModifier",
                "predicate": {
                    "all": [
                        "panache"
                    ],
                    "any": [
                        "action:demoralize"
                    ]
                },
                "selector": "intimidation",
                "type": "circumstance",
                "value": 1
            },
            {
                "key": "ActiveEffectLike",
                "mode": "upgrade",
                "path": "data.skills.itm.rank",
                "value": 1
            }
        ],
        "source": {
            "value": "Pathfinder Advanced Player's Guide"
        },
        "traits": {
            "custom": "",
            "rarity": "common",
            "value": [
                "swashbuckler"
            ]
        }
    },
    "effects": [],
    "flags": {},
    "img": "systems/pf2e/icons/features/classes/braggart-style.webp",
    "name": "Braggart",
    "type": "feat"
}
