{
    "_id": "7AVspOB6ITNzGFZi",
    "data": {
        "actionCategory": {
            "value": ""
        },
        "actionType": {
            "value": "passive"
        },
        "actions": {
            "value": null
        },
        "description": {
            "value": "<p>Your mystery provides you with divine magical power. You can cast spells using the Cast a Spell activity, and you can supply material, somatic, and verbal components when casting spells. your unconventional access to this divine power means you can usually replace material components with somatic components, so you don't need to use a material component pouch when casting spells.</p>\n<p>At 1st level, you can cast up to two 1st-level spells per day. You must know spells to cast them, and you learn them via the spell repertoire class feature. The number of spells you can cast each day is called your spell slots. As you increase in level as an oracle, your number of spells per day increases, as does the highest level of spell you can cast.</p>\n<p>Some of your spells require you to attempt a spell attack roll to see how effective they are, or your enemies to roll against your spell DC (typically by attempting a saving throw). Since your key ability is Charisma, your spell attack rolls and spell DCs use your Charisma modifier.</p>"
        },
        "featType": {
            "value": "classfeature"
        },
        "level": {
            "value": 1
        },
        "location": "",
        "prerequisites": {
            "value": []
        },
        "rules": [
            {
                "key": "GrantItem",
                "uuid": "Compendium.pf2e.actionspf2e.Cast a Spell"
            }
        ],
        "source": {
            "value": "Pathfinder Advanced Player's Guide"
        },
        "traits": {
            "custom": "",
            "rarity": "common",
            "value": [
                "oracle"
            ]
        }
    },
    "effects": [],
    "flags": {},
    "img": "systems/pf2e/icons/features/classes/divine-spellcasting.webp",
    "name": "Divine Spellcasting (Oracle)",
    "type": "feat"
}
