{
    "_id": "D8qtAo2w4jsqjBrM",
    "data": {
        "actionCategory": {
            "value": ""
        },
        "actionType": {
            "value": "passive"
        },
        "actions": {
            "value": null
        },
        "description": {
            "value": "<p>When it comes to a big heist, every rogue worth their salt knows that magic can throw meticulous plans into chaos, whether in the form of arcane wards or pesky divinations.</p>\n<p>You dabble in magic just enough to help handle these problems by jury-rigging spells and throwing a bit of your own magic into the mix. You might be a solitary thief, performing burglaries that can't be explained by skill alone, or a specialist called in by other rogues to deal with magical security measures. You might even be on the up-and-up, hired to test magical defenses or even build them yourself.</p>\n<p>Choose a multiclass archetype that has a basic, expert, and master spellcasting feat. You gain that archetype's dedication feat as a bonus feat even though you don't meet its level prerequisite, though you must meet its other prerequisites. For you, the @Compendium[pf2e.feats-srd.Magical Trickster]{Magical Trickster} rogue feat has a prerequisite of 2nd level instead of 4th level. You can choose the spellcasting ability score for the multiclass archetype you chose as your key ability score.</p>"
        },
        "featType": {
            "value": "classfeature"
        },
        "level": {
            "value": 1
        },
        "location": "",
        "prerequisites": {
            "value": []
        },
        "rules": [
            {
                "adjustName": false,
                "allowedDrops": {
                    "all": [
                        "item:trait:archetype",
                        "item:level:2",
                        "item:trait:multiclass"
                    ],
                    "label": "spellcasting multiclass dedication"
                },
                "choices": [
                    {
                        "value": "Compendium.pf2e.feats-srd.Bard Dedication"
                    },
                    {
                        "value": "Compendium.pf2e.feats-srd.Cleric Dedication"
                    },
                    {
                        "value": "Compendium.pf2e.feats-srd.Druid Dedication"
                    },
                    {
                        "value": "Compendium.pf2e.feats-srd.Magus Dedication"
                    },
                    {
                        "value": "Compendium.pf2e.feats-srd.Oracle Dedication"
                    },
                    {
                        "value": "Compendium.pf2e.feats-srd.Sorcerer Dedication"
                    },
                    {
                        "value": "Compendium.pf2e.feats-srd.Summoner Dedication"
                    },
                    {
                        "value": "Compendium.pf2e.feats-srd.Witch Dedication"
                    },
                    {
                        "value": "Compendium.pf2e.feats-srd.Wizard Dedication"
                    }
                ],
                "key": "ChoiceSet",
                "prompt": "Select a spellcasting multiclass archetype."
            },
            {
                "key": "GrantItem",
                "uuid": "{item|flags.pf2e.rulesSelections.eldritchTrickster}"
            }
        ],
        "source": {
            "value": "Pathfinder Advanced Player's Guide"
        },
        "traits": {
            "custom": "",
            "rarity": "common",
            "value": [
                "rogue"
            ]
        }
    },
    "effects": [],
    "flags": {},
    "img": "systems/pf2e/icons/features/classes/eldritch-trickster.webp",
    "name": "Eldritch Trickster",
    "type": "feat"
}
