{
    "_id": "Pk3Ht0KZyFxSeL07",
    "data": {
        "actionCategory": {
            "value": ""
        },
        "actionType": {
            "value": "passive"
        },
        "actions": {
            "value": null
        },
        "description": {
            "value": "<p>You inflict particularly devastating attacks on even well-defended foes. When you Strike with a weapon or unarmed attack with which you have master proficiency, if you roll a 19 on the die and the roll is a success, you critically succeed instead.</p>"
        },
        "featType": {
            "value": "classfeature"
        },
        "level": {
            "value": 15
        },
        "location": "",
        "prerequisites": {
            "value": []
        },
        "rules": [],
        "source": {
            "value": ""
        },
        "traits": {
            "custom": "",
            "rarity": "common",
            "value": [
                "swashbuckler"
            ]
        }
    },
    "effects": [],
    "flags": {},
    "img": "systems/pf2e/icons/features/classes/keen-flair.webp",
    "name": "Keen Flair",
    "type": "feat"
}
