{
    "_id": "3gVDqDPSz4fB5T9G",
    "data": {
        "actionCategory": {
            "value": ""
        },
        "actionType": {
            "value": "passive"
        },
        "actions": {
            "value": null
        },
        "description": {
            "value": "<p>Magic is freeing, a means to your ends, and you can use it to go where you want, do as you please, and avoid the consequences. You are a laughing shadow of spell and blade, always one step ahead of your foes, always with a trick up your sleeve.</p>\n<p>While in Arcane Cascade stance, you gain a +5-foot status bonus to your Speeds, or a +10-foot bonus if you're unarmored. If you have a free hand while in the stance and are attacking a @Compendium[pf2e.conditionitems.Flat-Footed]{Flat-Footed} creature, you increase the extra damage to 3, to 5 if you have weapon specialization, or to 7 if you have greater weapon specialization. You must have your other hand completely free; the extra damage doesn't apply if you have a free-hand weapon or other item in that hand, even if you would normally be able to use the hand for other things.</p>\n<p><strong>Conflux Spell</strong> <em>@Compendium[pf2e.spells-srd.Dimensional Assault]{Dimensional Assault}</em></p>"
        },
        "featType": {
            "value": "classfeature"
        },
        "level": {
            "value": 1
        },
        "location": "",
        "prerequisites": {
            "value": []
        },
        "rules": [
            {
                "key": "FlatModifier",
                "predicate": {
                    "all": [
                        "self:armored",
                        "self:effect:arcane-cascade"
                    ]
                },
                "selector": "speed",
                "slug": "laughing-shadow-armored-movement",
                "type": "status",
                "value": 5
            },
            {
                "key": "FlatModifier",
                "predicate": {
                    "all": [
                        "self:effect:arcane-cascade"
                    ],
                    "not": [
                        "self:armored"
                    ]
                },
                "selector": "speed",
                "slug": "laughing-shadow-unarmored-movement",
                "type": "status",
                "value": 10
            },
            {
                "key": "ToggleProperty",
                "label": "Enable arcane cascade damage from laughing shadow",
                "property": "flags.pf2e.rollOptions.all.self:feature:laughing-shadow:damage"
            }
        ],
        "source": {
            "value": ""
        },
        "traits": {
            "custom": "",
            "rarity": "common",
            "value": [
                "magus"
            ]
        }
    },
    "effects": [],
    "flags": {},
    "img": "systems/pf2e/icons/features/classes/laughing-shadow.webp",
    "name": "Laughing Shadow",
    "type": "feat"
}
