{
    "_id": "j2R64kwUgEJ1TudD",
    "data": {
        "actionCategory": {
            "value": ""
        },
        "actionType": {
            "value": "passive"
        },
        "actions": {
            "value": null
        },
        "description": {
            "value": "<p>You always find the weak points in your foes' defenses when they're on unfavorable terrain. Enemies are @Compendium[pf2e.conditionitems.Flat-Footed]{Flat-Footed} to you if they're in natural difficult terrain or in difficult terrain resulting from a snare.</p>"
        },
        "featType": {
            "value": "classfeature"
        },
        "level": {
            "value": 9
        },
        "location": "",
        "prerequisites": {
            "value": []
        },
        "rules": [],
        "source": {
            "value": ""
        },
        "traits": {
            "custom": "",
            "rarity": "common",
            "value": [
                "ranger"
            ]
        }
    },
    "effects": [],
    "flags": {},
    "img": "systems/pf2e/icons/features/classes/natures-end.webp",
    "name": "Nature's Edge",
    "type": "feat"
}
