{
    "_id": "beW1OqibVQ3fBvRw",
    "data": {
        "actionCategory": {
            "value": ""
        },
        "actionType": {
            "value": "passive"
        },
        "actions": {
            "value": null
        },
        "description": {
            "value": "<p>As a swashbuckler, you have your own distinctive style that enables you to gracefully handle everyday events and life-or-death situations alike. Choose a swashbuckler's style. This style determines the additional actions you use to gain panache and makes you trained in the skill related to that action.</p>"
        },
        "featType": {
            "value": "classfeature"
        },
        "level": {
            "value": 1
        },
        "location": "",
        "prerequisites": {
            "value": []
        },
        "rules": [
            {
                "adjustName": false,
                "allowedDrops": {
                    "all": [
                        "item:level:1",
                        "item:trait:swashbuckler",
                        "item:type:feature"
                    ],
                    "label": "1st-level Swashbuckler class feature"
                },
                "choices": [
                    {
                        "value": "Compendium.pf2e.classfeatures.Battledancer"
                    },
                    {
                        "value": "Compendium.pf2e.classfeatures.Braggart"
                    },
                    {
                        "value": "Compendium.pf2e.classfeatures.Fencer"
                    },
                    {
                        "value": "Compendium.pf2e.classfeatures.Gymnast"
                    },
                    {
                        "value": "Compendium.pf2e.classfeatures.Wit"
                    }
                ],
                "key": "ChoiceSet",
                "prompt": "Select a Style."
            },
            {
                "key": "GrantItem",
                "uuid": "{item|flags.pf2e.rulesSelections.swashbucklersStyle}"
            }
        ],
        "source": {
            "value": "Pathfinder Advanced Player's Guide"
        },
        "traits": {
            "custom": "",
            "rarity": "common",
            "selected": {
                "swashbuckler": "Swashbuckler"
            },
            "value": [
                "swashbuckler"
            ]
        }
    },
    "effects": [],
    "flags": {},
    "img": "systems/pf2e/icons/features/classes/choice-feature.webp",
    "name": "Swashbuckler's Style",
    "type": "feat"
}
