{
    "_id": "rHxkPijLnQ9O9AGV",
    "data": {
        "actionCategory": {
            "value": ""
        },
        "actionType": {
            "value": "passive"
        },
        "actions": {
            "value": null
        },
        "description": {
            "value": "<p>As a transmuter, you alter the physical properties of things, transforming creatures, objects, the natural world, and even yourself at your whim. You understand that change is inevitable. You add one 1st-level transmutation spell (such as <em>@Compendium[pf2e.spells-srd.Magic Weapon]{Magic Weapon}</em>) to your spellbook. You learn the <em>@Compendium[pf2e.spells-srd.Physical Boost]{Physical Boost}</em> school spell.</p>"
        },
        "featType": {
            "value": "classfeature"
        },
        "level": {
            "value": 1
        },
        "location": "",
        "prerequisites": {
            "value": []
        },
        "rules": [
            {
                "key": "ActiveEffectLike",
                "mode": "upgrade",
                "path": "data.resources.focus.max",
                "priority": 10,
                "value": 1
            }
        ],
        "source": {
            "value": "Pathfinder Core Rulebook"
        },
        "traits": {
            "custom": "",
            "rarity": "common",
            "value": [
                "wizard"
            ]
        }
    },
    "effects": [],
    "flags": {},
    "img": "systems/pf2e/icons/features/classes/transmutation.webp",
    "name": "Transmutation",
    "type": "feat"
}
