{
    "_id": "0Aocw3igLwna9cjp",
    "data": {
        "actionCategory": {
            "value": ""
        },
        "actionType": {
            "value": "passive"
        },
        "actions": {
            "value": null
        },
        "description": {
            "value": "<p>You have trained in the more militant doctrine of your church, focusing on both spells and battle.</p>\n<p><strong>@Compendium[pf2e.classfeatures.First Doctrine (Warpriest)]{First Doctrine (1st)}</strong> You're trained in light and medium armor, and you have expert proficiency in Fortitude saves. You gain the @Compendium[pf2e.feats-srd.Shield Block]{Shield Block} general feat, a reaction to reduce damage with a shield. If your deity's weapon is simple, you gain the @Compendium[pf2e.feats-srd.Deadly Simplicity]{Deadly Simplicity} cleric feat. At 13th level, if you gain the divine defense class feature, you also gain expert proficiency in light and medium armor.</p>\n<p><strong>@Compendium[pf2e.classfeatures.Second Doctrine (Warpriest)]{Second Doctrine (3rd)}</strong> You're trained in martial weapons.</p>\n<p><strong>@Compendium[pf2e.classfeatures.Third Doctrine (Warpriest)]{Third Doctrine (7th)}</strong> You gain expert proficiency with your deity's favored weapon. When you critically succeed at an attack roll using that weapon, you apply the weapon's critical specialization effect; use your divine spell DC if necessary.</p>\n<p><strong>@Compendium[pf2e.classfeatures.Fourth Doctrine (Warpriest)]{Fourth Doctrine (11th)}</strong> Your proficiency ranks for divine spell attack rolls and spell DCs increase to expert.</p>\n<p><strong>@Compendium[pf2e.classfeatures.Fifth Doctrine (Warpriest)]{Fifth Doctrine (15th)}</strong> Your proficiency rank for Fortitude saves increases to master. When you roll a success at a Fortitude save, you get a critical success instead.</p>\n<p><strong>@Compendium[pf2e.classfeatures.Final Doctrine (Warpriest)]{Final Doctrine (19th)}</strong> Your proficiency ranks for divine spell attack rolls and spell DCs increase to master.</p>"
        },
        "featType": {
            "value": "classfeature"
        },
        "level": {
            "value": 1
        },
        "location": "",
        "prerequisites": {
            "value": []
        },
        "rules": [],
        "source": {
            "value": ""
        },
        "traits": {
            "custom": "",
            "rarity": "common",
            "value": [
                "cleric"
            ]
        }
    },
    "effects": [],
    "flags": {},
    "img": "systems/pf2e/icons/features/classes/warpriest.webp",
    "name": "Warpriest",
    "type": "feat"
}
