{
    "_id": "a3pSIKkDVTvvNSRO",
    "data": {
        "actionCategory": {
            "value": ""
        },
        "actionType": {
            "value": "passive"
        },
        "actions": {
            "value": null
        },
        "description": {
            "value": "<p>You're a wanderer traveling from land to land with your gun and a melee weapon as company. Maybe you learned to fight with blade and pistol as a Shackles pirate, mastered the hand cannon and katana in Minkai, or practiced with a hatchet and clan pistol in Dongun Hold. You win battles by relying on mobility and flexible use of your weapons.</p>\n<p><strong>Slinger's Reload</strong> @Compendium[pf2e.actionspf2e.Reloading Strike]{Reloading Strike}</p>\n<p><strong>Deeds</strong> <em>Initial</em> @Compendium[pf2e.actionspf2e.Into the Fray]{Into the Fray}; <em>Advanced</em> @Compendium[pf2e.actionspf2e.Finish The Job]{Finish The Job}; <em>Greater</em> @Compendium[pf2e.actionspf2e.Drifter's Wake]{Drifter's Wake}</p>\n<p><strong>Way Skill</strong> Acrobatics</p>"
        },
        "featType": {
            "value": "classfeature"
        },
        "level": {
            "value": 1
        },
        "location": "",
        "prerequisites": {
            "value": []
        },
        "rules": [
            {
                "key": "GrantItem",
                "uuid": "Compendium.pf2e.actionspf2e.Into the Fray"
            },
            {
                "key": "GrantItem",
                "uuid": "Compendium.pf2e.actionspf2e.Reloading Strike"
            },
            {
                "key": "ActiveEffectLike",
                "mode": "upgrade",
                "path": "data.skills.acr.rank",
                "value": 1
            }
        ],
        "source": {
            "value": ""
        },
        "traits": {
            "custom": "",
            "rarity": "common",
            "value": [
                "gunslinger"
            ]
        }
    },
    "effects": [],
    "flags": {},
    "img": "systems/pf2e/icons/features/classes/way-of-the-drifter.webp",
    "name": "Way of the Drifter",
    "type": "feat"
}
