{
    "_id": "v8UNEJR5IDKi8yqa",
    "data": {
        "actionCategory": {
            "value": ""
        },
        "actionType": {
            "value": "passive"
        },
        "actions": {
            "value": null
        },
        "description": {
            "value": "<p>You have become thoroughly familiar with the tools of your trade. You gain expert proficiency in simple weapons as well as the @Compendium[pf2e.equipment-srd.Rapier]{Rapier}, @Compendium[pf2e.equipment-srd.Sap]{Sap}, @Compendium[pf2e.equipment-srd.Shortbow]{Shortbow}, @Compendium[pf2e.equipment-srd.Shortsword]{Shortsword}, and unarmed attacks. When you critically succeed at an attack roll against a flat-footed creature while using an agile or finesse simple weapon or unarmed attack, or when using any of the listed weapons, you apply the critical specialization effect for that weapon or unarmed attack.</p>"
        },
        "featType": {
            "value": "classfeature"
        },
        "level": {
            "value": 5
        },
        "location": "",
        "prerequisites": {
            "value": []
        },
        "rules": [
            {
                "key": "Note",
                "outcome": [
                    "criticalSuccess"
                ],
                "predicate": {
                    "all": [
                        "target:flatFooted",
                        "weapon:category:simple"
                    ],
                    "any": [
                        "finesse",
                        "agile"
                    ]
                },
                "selector": "axe-weapon-group-damage",
                "text": "<p class=\"compact-text\"><strong>Critical Specialization</strong> Choose one creature adjacent to the initial target and within reach. If its AC is lower than your attack roll result for the critical hit, you deal damage to that creature equal to the result of the weapon damage die you rolled (including extra dice for its potency rune, if any). This amount isn't doubled, and no bonuses or other additional dice apply to this damage.</p>"
            },
            {
                "key": "Note",
                "outcome": [
                    "criticalSuccess"
                ],
                "predicate": {
                    "all": [
                        "target:flatFooted",
                        "weapon:category:simple"
                    ],
                    "any": [
                        "finesse",
                        "agile"
                    ]
                },
                "selector": "bow-weapon-group-damage",
                "text": "<p class=\"compact-text\"><strong>Critical Specialization</strong> If the target of the critical hit is adjacent to a surface, it gets stuck to that surface by the missile. The target is @Compendium[pf2e.conditionitems.Immobilized]{Immobilized} and must spend an Interact action to attempt a DC 10 Athletics check to pull the missile free; it can't move from its space until it succeeds. The creature doesn't become stuck if it is incorporeal, is liquid (like a water elemental or some oozes), or could otherwise escape without effort.</p>"
            },
            {
                "key": "Note",
                "outcome": [
                    "criticalSuccess"
                ],
                "predicate": {
                    "all": [
                        "target:flatFooted"
                    ]
                },
                "selector": "shortbow-damage",
                "text": "<p class=\"compact-text\"><strong>Critical Specialization</strong> If the target of the critical hit is adjacent to a surface, it gets stuck to that surface by the missile. The target is @Compendium[pf2e.conditionitems.Immobilized]{Immobilized} and must spend an Interact action to attempt a DC 10 Athletics check to pull the missile free; it can't move from its space until it succeeds. The creature doesn't become stuck if it is incorporeal, is liquid (like a water elemental or some oozes), or could otherwise escape without effort.</p>"
            },
            {
                "key": "Note",
                "outcome": [
                    "criticalSuccess"
                ],
                "predicate": {
                    "all": [
                        "target:flatFooted",
                        "weapon:category:simple"
                    ],
                    "any": [
                        "finesse",
                        "agile"
                    ]
                },
                "selector": "brawling-weapon-group-damage",
                "text": "<p class=\"compact-text\"><strong>Critical Specialization</strong> The target must succeed at a Fortitude save against your class DC or be @Compendium[pf2e.conditionitems.Slowed]{Slowed 1} until the end of your next turn.</p>"
            },
            {
                "key": "Note",
                "outcome": [
                    "criticalSuccess"
                ],
                "predicate": {
                    "all": [
                        "target:flatFooted",
                        "weapon:category:simple"
                    ],
                    "any": [
                        "finesse",
                        "agile"
                    ]
                },
                "selector": "club-weapon-group-damage",
                "text": "<p class=\"compact-text\"><strong>Critical Specialization</strong> You knock the target away from you up to 10 feet (you choose the distance). This is forced movement.</p>"
            },
            {
                "key": "Note",
                "outcome": [
                    "criticalSuccess"
                ],
                "predicate": {
                    "all": [
                        "target:flatFooted"
                    ]
                },
                "selector": "sap-damage",
                "text": "<p class=\"compact-text\"><strong>Critical Specialization</strong> You knock the target away from you up to 10 feet (you choose the distance). This is forced movement.</p>"
            },
            {
                "key": "Note",
                "outcome": [
                    "criticalSuccess"
                ],
                "predicate": {
                    "all": [
                        "target:flatFooted",
                        "weapon:category:simple"
                    ],
                    "any": [
                        "finesse",
                        "agile"
                    ]
                },
                "selector": "dart-weapon-group-damage",
                "text": "<p class=\"compact-text\"><strong>Critical Specialization</strong> The target takes [[/r {1d6}[persistent,bleed]]] @Compendium[pf2e.conditionitems.Persistent Damage]{Persistent Bleed Damage}. You gain an item bonus to this bleed damage equal to the weapon's item bonus to attack rolls.</p>"
            },
            {
                "key": "Note",
                "outcome": [
                    "criticalSuccess"
                ],
                "predicate": {
                    "all": [
                        "target:flatFooted",
                        "weapon:category:simple"
                    ],
                    "any": [
                        "finesse",
                        "agile"
                    ]
                },
                "selector": "flail-weapon-group-damage",
                "text": "<p class=\"compact-text\"><strong>Critical Specialization</strong> The target is knocked @Compendium[pf2e.conditionitems.Prone]{Prone}.</p>"
            },
            {
                "key": "Note",
                "outcome": [
                    "criticalSuccess"
                ],
                "predicate": {
                    "all": [
                        "target:flatFooted",
                        "weapon:category:simple"
                    ],
                    "any": [
                        "finesse",
                        "agile"
                    ]
                },
                "selector": "hammer-weapon-group-damage",
                "text": "<p class=\"compact-text\"><strong>Critical Specialization</strong> The target is knocked @Compendium[pf2e.conditionitems.Prone]{Prone}.</p>"
            },
            {
                "key": "Note",
                "outcome": [
                    "criticalSuccess"
                ],
                "predicate": {
                    "all": [
                        "target:flatFooted",
                        "weapon:category:simple"
                    ],
                    "any": [
                        "finesse",
                        "agile"
                    ]
                },
                "selector": "knife-weapon-group-damage",
                "text": "<p class=\"compact-text\"><strong>Critical Specialization</strong> The target takes [[/r {1d6}[persistent,bleed]]] @Compendium[pf2e.conditionitems.Persistent Damage]{Persistent Bleed Damage}. You gain an item bonus to this bleed damage equal to the weapon's item bonus to attack rolls.</p>"
            },
            {
                "key": "Note",
                "outcome": [
                    "criticalSuccess"
                ],
                "predicate": {
                    "all": [
                        "target:flatFooted",
                        "weapon:category:simple"
                    ],
                    "any": [
                        "finesse",
                        "agile"
                    ]
                },
                "selector": "pick-weapon-group-damage",
                "text": "<p class=\"compact-text\"><strong>Critical Specialization</strong> The weapon viciously pierces the target, who takes 2 additional damage per weapon damage die.</p>"
            },
            {
                "key": "Note",
                "outcome": [
                    "criticalSuccess"
                ],
                "predicate": {
                    "all": [
                        "target:flatFooted",
                        "weapon:category:simple"
                    ],
                    "any": [
                        "finesse",
                        "agile"
                    ]
                },
                "selector": "polearm-weapon-group-damage",
                "text": "<p class=\"compact-text\"><strong>Critical Specialization</strong> The target is moved 5 feet in a direction of your choice. This is forced movement.</p>"
            },
            {
                "key": "Note",
                "outcome": [
                    "criticalSuccess"
                ],
                "predicate": {
                    "all": [
                        "target:flatFooted",
                        "weapon:category:simple"
                    ],
                    "any": [
                        "finesse",
                        "agile"
                    ]
                },
                "selector": "shield-weapon-group-damage",
                "text": "<p class=\"compact-text\"><strong>Critical Specialization</strong> You knock the target back from you 5 feet. This is forced movement.</p>"
            },
            {
                "key": "Note",
                "outcome": [
                    "criticalSuccess"
                ],
                "predicate": {
                    "all": [
                        "target:flatFooted",
                        "weapon:category:simple"
                    ],
                    "any": [
                        "finesse",
                        "agile"
                    ]
                },
                "selector": "sling-weapon-group-damage",
                "text": "<p class=\"compact-text\"><strong>Critical Specialization</strong> The target must succeed at a Fortitude save against your class DC or be @Compendium[pf2e.conditionitems.Stunned]{Stunned 1}.</p>"
            },
            {
                "key": "Note",
                "outcome": [
                    "criticalSuccess"
                ],
                "predicate": {
                    "all": [
                        "target:flatFooted",
                        "weapon:category:simple"
                    ],
                    "any": [
                        "finesse",
                        "agile"
                    ]
                },
                "selector": "spear-weapon-group-damage",
                "text": "<p class=\"compact-text\"><strong>Critical Specialization</strong> The weapon pierces the target, weakening its attacks. The target is @Compendium[pf2e.conditionitems.Clumsy]{Clumsy 1} until the start of your next turn.</p>"
            },
            {
                "key": "Note",
                "outcome": [
                    "criticalSuccess"
                ],
                "predicate": {
                    "all": [
                        "target:flatFooted",
                        "weapon:category:simple"
                    ],
                    "any": [
                        "finesse",
                        "agile"
                    ]
                },
                "selector": "sword-weapon-group-damage",
                "text": "<p class=\"compact-text\"><strong>Critical Specialization</strong> The target is made off-balance by your attack, becoming @Compendium[pf2e.conditionitems.Flat-Footed]{Flat-Footed} until the start of your next turn.</p>"
            },
            {
                "key": "Note",
                "outcome": [
                    "criticalSuccess"
                ],
                "predicate": {
                    "all": [
                        "target:flatFooted"
                    ]
                },
                "selector": "rapier-damage",
                "text": "<p class=\"compact-text\"><strong>Critical Specialization</strong> The target is made off-balance by your attack, becoming @Compendium[pf2e.conditionitems.Flat-Footed]{Flat-Footed} until the start of your next turn.</p>"
            },
            {
                "key": "Note",
                "outcome": [
                    "criticalSuccess"
                ],
                "predicate": {
                    "all": [
                        "target:flatFooted"
                    ]
                },
                "selector": "shortsword-damage",
                "text": "<p class=\"compact-text\"><strong>Critical Specialization</strong> The target is made off-balance by your attack, becoming @Compendium[pf2e.conditionitems.Flat-Footed]{Flat-Footed} until the start of your next turn.</p>"
            },
            {
                "key": "ActiveEffectLike",
                "mode": "upgrade",
                "path": "data.martial.simple.rank",
                "value": 2
            },
            {
                "key": "ActiveEffectLike",
                "mode": "upgrade",
                "path": "data.martial.weapon-base-rapier.rank",
                "value": 2
            },
            {
                "key": "ActiveEffectLike",
                "mode": "upgrade",
                "path": "data.martial.weapon-base-sap.rank",
                "value": 2
            },
            {
                "key": "ActiveEffectLike",
                "mode": "upgrade",
                "path": "data.martial.weapon-base-shortbow.rank",
                "value": 2
            },
            {
                "key": "ActiveEffectLike",
                "mode": "upgrade",
                "path": "data.martial.weapon-base-shortsword.rank",
                "value": 2
            },
            {
                "key": "ActiveEffectLike",
                "mode": "upgrade",
                "path": "data.martial.unarmed.rank",
                "value": 2
            },
            {
                "key": "Note",
                "outcome": [
                    "criticalSuccess"
                ],
                "predicate": {
                    "all": [
                        "target:flatFooted"
                    ]
                },
                "selector": "unarmed-damage",
                "text": "<p class=\"compact-text\"><strong>Critical Specialization</strong> The target must succeed at a Fortitude save against your class DC or be @Compendium[pf2e.conditionitems.Slowed]{Slowed 1} until the end of your next turn.</p>"
            }
        ],
        "source": {
            "value": ""
        },
        "traits": {
            "custom": "",
            "rarity": "common",
            "value": [
                "rogue"
            ]
        }
    },
    "effects": [],
    "flags": {},
    "img": "systems/pf2e/icons/features/classes/weapon-tricks.webp",
    "name": "Weapon Tricks",
    "type": "feat"
}
