{
    "_id": "qf12ubZ07Q0z0NcN",
    "data": {
        "actionCategory": {
            "value": ""
        },
        "actionType": {
            "value": "passive"
        },
        "actions": {
            "value": null
        },
        "description": {
            "value": "<p>Your patron reflects the frozen reaches of the world, bitterly cruel to those who underestimate that power.</p>\n<p><strong>Spell List</strong> primal</p>\n<p><strong>Patron Skill</strong> Nature</p>\n<p><strong>Hex Cantrip</strong> <em>@Compendium[pf2e.spells-srd.Clinging Ice]{Clinging Ice}</em></p>\n<p><strong>Granted Spell</strong> <em>@Compendium[pf2e.spells-srd.Gust of Wind]{Gust of Wind}</em></p>"
        },
        "featType": {
            "value": "classfeature"
        },
        "level": {
            "value": 1
        },
        "location": "",
        "prerequisites": {
            "value": []
        },
        "rules": [
            {
                "key": "ActiveEffectLike",
                "mode": "upgrade",
                "path": "data.skills.nat.rank",
                "value": 1
            },
            {
                "key": "ActiveEffectLike",
                "mode": "override",
                "path": "data.proficiencies.aliases.witch",
                "priority": 39,
                "value": "primal"
            }
        ],
        "source": {
            "value": "Pathfinder Advanced Player's Guide"
        },
        "traits": {
            "custom": "",
            "rarity": "common",
            "value": [
                "witch"
            ]
        }
    },
    "effects": [],
    "flags": {},
    "img": "systems/pf2e/icons/features/classes/winter-patron.webp",
    "name": "Winter Patron",
    "type": "feat"
}
