{
    "_id": "GsrqCDf0Dc9PisEt",
    "data": {
        "abilities": {
            "cha": {
                "mod": -2
            },
            "con": {
                "mod": 3
            },
            "dex": {
                "mod": 0
            },
            "int": {
                "mod": -5
            },
            "str": {
                "mod": 4
            },
            "wis": {
                "mod": 1
            }
        },
        "attributes": {
            "ac": {
                "details": "",
                "value": 17
            },
            "allSaves": {
                "value": ""
            },
            "hp": {
                "details": "",
                "max": 60,
                "temp": 0,
                "value": 60
            },
            "initiative": {
                "ability": "perception"
            },
            "perception": {
                "value": 8
            },
            "speed": {
                "otherSpeeds": [],
                "value": "10"
            }
        },
        "details": {
            "alignment": {
                "value": "N"
            },
            "blurb": "",
            "creatureType": "Fungus",
            "level": {
                "value": 3
            },
            "privateNotes": "",
            "publicNotes": "<p>At a glance, a violet fungus might seem to be little more than an unsightly and sickeningly purple mushroom of unusual size. Only once one draws closer-once whip-like tentacles dripping with flesh-rotting venom slither out from the fungus's cratered cap-does the terrifying truth of this carnivorous toadstool become apparent. Many amateur spelunkers have met untimely ends in the clutches of this monstrous fungus's tentacles, since violet fungi are practically synonymous with caverns on Golarion.</p>\n<p>Anyone who has ever braved the world's caves for an extended period of time know the dangers of the deadly violet fungus. Darklands dwellers such as drow and duergars often bear the long, whip-like scars of at least one brush with this vicious plant's cruel, poison-infused tentacles. Canny subterranean trappers and scouts sometimes make use of cultivated violent fungi to catch game in the enormous caverns below the surface world. Some Darklands peoples also cultivate violet fungi as a means to defend their territory. Xulgaths in particular place violet fungi around the perimeters of their settlements as a first line of defense.</p>",
            "source": {
                "value": "Pathfinder Bestiary 2"
            }
        },
        "resources": {},
        "saves": {
            "fortitude": {
                "saveDetail": "",
                "value": 10
            },
            "reflex": {
                "saveDetail": "",
                "value": 7
            },
            "will": {
                "saveDetail": "",
                "value": 6
            }
        },
        "traits": {
            "attitude": {
                "value": "hostile"
            },
            "ci": [],
            "di": {
                "custom": "",
                "value": [
                    "bleed",
                    "fatigued",
                    "mental",
                    "poison",
                    "sleep",
                    "unconscious"
                ]
            },
            "dr": [],
            "dv": [
                {
                    "label": "Fire",
                    "type": "fire",
                    "value": "5"
                }
            ],
            "languages": {
                "custom": "",
                "selected": [],
                "value": []
            },
            "rarity": "common",
            "senses": {
                "value": "no vision, tremorsense 60 feet"
            },
            "size": {
                "value": "med"
            },
            "traits": {
                "custom": "",
                "value": [
                    "fungus",
                    "mindless"
                ]
            }
        }
    },
    "effects": [],
    "flags": {},
    "img": "systems/pf2e/icons/default-icons/npc.svg",
    "items": [
        {
            "_id": "tPa52hjkpaRccFn3",
            "data": {
                "attack": {
                    "value": ""
                },
                "attackEffects": {
                    "custom": "",
                    "value": [
                        "violet-rot"
                    ]
                },
                "bonus": {
                    "value": 11
                },
                "damageRolls": {
                    "a7mfj43p8g7fn06gbeck": {
                        "damage": "1d10+4",
                        "damageType": "bludgeoning"
                    }
                },
                "description": {
                    "value": ""
                },
                "rules": [],
                "slug": null,
                "source": {
                    "value": ""
                },
                "traits": {
                    "custom": "",
                    "rarity": "common",
                    "value": [
                        "agile",
                        "reach-10"
                    ]
                },
                "weaponType": {
                    "value": "melee"
                }
            },
            "effects": [],
            "flags": {},
            "img": "systems/pf2e/icons/default-icons/melee.svg",
            "name": "Tentacle",
            "sort": 100000,
            "type": "melee"
        },
        {
            "_id": "e8r1Ct8F3Oee48fo",
            "data": {
                "actionCategory": {
                    "value": "interaction"
                },
                "actionType": {
                    "value": "passive"
                },
                "actions": {
                    "value": null
                },
                "description": {
                    "value": "<p>@Localize[PF2E.NPC.Abilities.Glossary.Tremorsense]</p>"
                },
                "requirements": {
                    "value": ""
                },
                "rules": [],
                "slug": "tremorsense",
                "source": {
                    "value": ""
                },
                "traits": {
                    "custom": "",
                    "rarity": "common",
                    "value": []
                },
                "trigger": {
                    "value": ""
                },
                "weapon": {
                    "value": ""
                }
            },
            "effects": [],
            "flags": {
                "core": {
                    "sourceId": "Compendium.pf2e.bestiary-ability-glossary-srd.j2wsK6IsW5yMW1jW"
                }
            },
            "img": "systems/pf2e/icons/actions/Passive.webp",
            "name": "Tremorsense 60 feet",
            "sort": 200000,
            "type": "action"
        },
        {
            "_id": "f1adZO1FX8WkPN1h",
            "data": {
                "actionCategory": {
                    "value": "offensive"
                },
                "actionType": {
                    "value": "passive"
                },
                "actions": {
                    "value": null
                },
                "description": {
                    "value": "<p><strong>Saving Throw</strong> <span data-pf2-check=\"fortitude\" data-pf2-dc=\"20\" data-pf2-traits=\"poison\" data-pf2-label=\"Violet Rot DC\" data-pf2-show-dc=\"gm\">Fortitude</span></p>\n<div data-visibility=\"gm\"><hr />\n<p><strong>Maximum Duration</strong> 6 rounds</p>\n<p><strong>Stage 1</strong> [[/r {1d6}[poison]]]{1d6 poison damage} plus @Compendium[pf2e.conditionitems.Enfeebled]{Enfeebled 1} (1 round)</p>\n<p><strong>Stage 2</strong> [[/r {1d6}[poison]]]{1d6 poison damage} plus enfeebled 1 and @Compendium[pf2e.conditionitems.Drained]{Drained 1} (1 round)</p>\n<p><strong>Stage 3</strong> [[/r {2d6}[poison]]]{2d6 poison damage} plus enfeebled 1 and drained 1 (1 round)</p>\n</div>"
                },
                "requirements": {
                    "value": ""
                },
                "rules": [],
                "slug": null,
                "source": {
                    "value": ""
                },
                "traits": {
                    "custom": "",
                    "rarity": "common",
                    "value": [
                        "poison"
                    ]
                },
                "trigger": {
                    "value": ""
                },
                "weapon": {
                    "value": ""
                }
            },
            "effects": [],
            "flags": {},
            "img": "systems/pf2e/icons/actions/Passive.webp",
            "name": "Violet Rot",
            "sort": 300000,
            "type": "action"
        },
        {
            "_id": "l9gSUUNSSakckRrj",
            "data": {
                "description": {
                    "value": ""
                },
                "item": {
                    "value": 0
                },
                "mod": {
                    "value": 9
                },
                "proficient": {
                    "value": 0
                },
                "rules": [],
                "slug": null,
                "source": {
                    "value": ""
                },
                "traits": {
                    "custom": "",
                    "rarity": "common",
                    "value": []
                }
            },
            "effects": [],
            "flags": {},
            "img": "systems/pf2e/icons/default-icons/lore.svg",
            "name": "Stealth",
            "sort": 400000,
            "type": "lore"
        }
    ],
    "name": "Violet Fungus",
    "token": {
        "disposition": -1,
        "height": 1,
        "img": "systems/pf2e/icons/default-icons/npc.svg",
        "name": "Violet Fungus",
        "width": 1
    },
    "type": "npc"
}
