{
    "_id": "IvXLHQySVNj4qMOi",
    "data": {
        "description": {
            "value": "<p>An aura of a whirling storm whips up in a @Template[type:emanation|distance:5] around you and in your space. The aura puts out small non-magical fires 1 round after they're lit or brought into your aura.</p>\n<p>Electrical energy builds up within your storm, turning you into a lightning rod; you gain weakness 2 to electricity, and electricity spells or effects that have additional effects for a creature wearing or holding metal treat you as though you were wearing metal.</p>\n<hr />\n<p><em>Note: You need to apply the effects of this curse manually.</em></p>"
        },
        "duration": {
            "expiry": "turn-start",
            "sustained": false,
            "unit": "unlimited",
            "value": -1
        },
        "level": {
            "value": 1
        },
        "rules": [],
        "source": {
            "value": ""
        },
        "start": {
            "initiative": null,
            "value": 0
        },
        "target": null,
        "tokenIcon": {
            "show": true
        },
        "traits": {
            "custom": "",
            "rarity": "common",
            "value": []
        }
    },
    "effects": [],
    "flags": {},
    "img": "systems/pf2e/icons/features/classes/tempest-mystery.webp",
    "name": "Effect: Minor Tempest Curse",
    "type": "effect"
}
