{
    "_id": "rJpkKaPRGaH0pLse",
    "data": {
        "description": {
            "value": "<p>Colorful fey glamours dance around you or one target, causing them to be concealed for 1 round. Such obvious concealment can't be used to Hide.</p>"
        },
        "duration": {
            "expiry": "turn-start",
            "sustained": false,
            "unit": "rounds",
            "value": 1
        },
        "level": {
            "value": 1
        },
        "rules": [],
        "source": {
            "value": ""
        },
        "start": {
            "initiative": null,
            "value": 0
        },
        "target": null,
        "tokenIcon": {
            "show": true
        },
        "traits": {
            "custom": "",
            "rarity": "common",
            "value": []
        }
    },
    "effects": [],
    "flags": {},
    "img": "systems/pf2e/icons/features/classes/fey.webp",
    "name": "Effect: Fey Blood Magic",
    "type": "effect"
}
