{
    "_id": "c6yRHikgf6cm7cyB",
    "data": {
        "description": {
            "value": "<p>Draconic might carries in your voice. You gain a +1 status bonus to Intimidation checks for 1 round.</p>"
        },
        "duration": {
            "expiry": "turn-start",
            "sustained": false,
            "unit": "rounds",
            "value": 1
        },
        "level": {
            "value": 1
        },
        "rules": [
            {
                "key": "FlatModifier",
                "selector": "intimidation",
                "type": "status",
                "value": 1
            }
        ],
        "source": {
            "value": ""
        },
        "start": {
            "initiative": null,
            "value": 0
        },
        "target": null,
        "tokenIcon": {
            "show": true
        },
        "traits": {
            "custom": "",
            "rarity": "common",
            "value": []
        }
    },
    "effects": [],
    "flags": {},
    "img": "systems/pf2e/icons/features/classes/draconic.webp",
    "name": "Effect: Wymblessed Blood Magic (Status Bonus - Self)",
    "type": "effect"
}
