{
    "_id": "r8g7oSumKOHDqJsd",
    "data": {
        "ability": {
            "value": ""
        },
        "area": {
            "areaType": "",
            "value": ""
        },
        "areasize": {
            "value": ""
        },
        "autoHeightenLevel": {
            "value": null
        },
        "category": {
            "value": "spell"
        },
        "components": {
            "material": false,
            "somatic": true,
            "verbal": true
        },
        "cost": {
            "value": ""
        },
        "damage": {
            "value": {
                "0": {
                    "type": {
                        "categories": [],
                        "value": "mental"
                    },
                    "value": "2d8"
                }
            }
        },
        "description": {
            "value": "<p>You send the target's mind and body into overdrive, forcing it to become restless and hyperactive. During the duration, the target must Stride, Fly, or Swim at least once each turn or take [[/r {2d8}[mental]]]{2d8 mental damage} that turn. The duration of this effect depends on the target's Will save. The GM might decide to add additional move actions to the list for creatures who possess only a more unusual form of movement.</p>\n<hr />\n<p><strong>Critical Success</strong> The spell has no effect.</p>\n<p><strong>Success</strong> The duration is 1 round.</p>\n<p><strong>Failure</strong> The duration is 2 rounds.</p>\n<p><strong>Critical Failure</strong> The duration is 4 rounds.</p>\n<hr />\n<p><strong>Heightened (+1)</strong> The damage increases by 2d8.</p>"
        },
        "duration": {
            "value": "varies"
        },
        "hasCounteractCheck": {
            "value": false
        },
        "level": {
            "value": 1
        },
        "location": {
            "value": ""
        },
        "materials": {
            "value": ""
        },
        "prepared": {
            "value": ""
        },
        "primarycheck": {
            "value": ""
        },
        "range": {
            "value": "30 feet"
        },
        "rules": [],
        "save": {
            "basic": "basic",
            "value": "will"
        },
        "scaling": {
            "damage": {
                "0": "2d8"
            },
            "interval": 1
        },
        "school": {
            "value": "enchantment"
        },
        "secondarycasters": {
            "value": ""
        },
        "secondarycheck": {
            "value": ""
        },
        "source": {
            "value": "Pathfinder Lost Omens: Gods & Magic"
        },
        "spellType": {
            "value": "save"
        },
        "sustained": {
            "value": false
        },
        "target": {
            "value": "1 creature"
        },
        "time": {
            "value": "2"
        },
        "traditions": {
            "custom": "",
            "value": [
                "arcane",
                "occult"
            ]
        },
        "traits": {
            "custom": "",
            "rarity": "common",
            "value": [
                "mental",
                "nonlethal"
            ]
        }
    },
    "effects": [],
    "flags": {},
    "img": "systems/pf2e/icons/spells/agitate.webp",
    "name": "Agitate",
    "type": "spell"
}
