{
    "_id": "vGEgI8e7AW6FQ3tP",
    "data": {
        "ability": {
            "value": ""
        },
        "area": {
            "areaType": "",
            "value": ""
        },
        "areasize": {
            "value": ""
        },
        "category": {
            "value": "focus"
        },
        "components": {
            "material": false,
            "somatic": true,
            "verbal": true
        },
        "cost": {
            "value": ""
        },
        "damage": {
            "value": {}
        },
        "description": {
            "value": "<p>Without fully transforming your body, you gain one animalistic feature, which you select from the list below each time you Cast the Spell.</p>\n<ul>\n<li><strong>@Compendium[pf2e.spell-effects.Spell Effect: Animal Feature (Cat Eyes)]{Cat Eyes}</strong> You gain Low-Light Vision.</li>\n<li><strong>@Compendium[pf2e.spell-effects.Spell Effect: Animal Feature (Claws)]{Claws}</strong> You gain a claw attack that deals 1d6 slashing damage and has the agile, finesse, and unarmed traits.</li>\n<li><strong>@Compendium[pf2e.spell-effects.Spell Effect: Animal Feature (Jaws)]{Jaws}</strong> You gain a jaws attack that deals 1d8 piercing damage and has the unarmed trait.</li>\n</ul>\n<hr />\n<p><strong>Heightened (4th)</strong> Add the following options to the list you can choose from.</p>\n<ul>\n<li><strong>@Compendium[pf2e.spell-effects.Spell Effect: Animal Feature (Fish Tail)]{Fish Tail}</strong> You gain a Swim Speed equal to your land Speed.</li>\n<li><strong>@Compendium[pf2e.spell-effects.Spell Effect: Animal Feature (Owl Eyes)]{Owl Eyes}</strong> You gain Darkvision.</li>\n<li><strong>@Compendium[pf2e.spell-effects.Spell Effect: Animal Feature (Wings)]{Wings}</strong> You gain a Fly Speed equal to your land Speed.</li>\n</ul>"
        },
        "duration": {
            "value": "1 minute"
        },
        "hasCounteractCheck": {
            "value": false
        },
        "level": {
            "value": 2
        },
        "location": {
            "value": ""
        },
        "materials": {
            "value": ""
        },
        "prepared": {
            "value": ""
        },
        "primarycheck": {
            "value": ""
        },
        "range": {
            "value": ""
        },
        "rules": [],
        "save": {
            "basic": "",
            "value": ""
        },
        "school": {
            "value": "transmutation"
        },
        "secondarycasters": {
            "value": ""
        },
        "secondarycheck": {
            "value": ""
        },
        "source": {
            "value": "Pathfinder Advanced Player's Guide"
        },
        "spellType": {
            "value": "utility"
        },
        "sustained": {
            "value": false
        },
        "target": {
            "value": ""
        },
        "time": {
            "value": "1"
        },
        "traditions": {
            "value": []
        },
        "traits": {
            "custom": "",
            "rarity": "common",
            "value": [
                "morph",
                "ranger"
            ]
        }
    },
    "effects": [],
    "flags": {},
    "img": "systems/pf2e/icons/spells/animal-feature.webp",
    "name": "Animal Feature",
    "type": "spell"
}
