{
    "_id": "pBevG6bSQOiyflev",
    "data": {
        "ability": {
            "value": ""
        },
        "area": {
            "areaType": "",
            "value": ""
        },
        "areasize": {
            "value": ""
        },
        "autoHeightenLevel": {
            "value": null
        },
        "category": {
            "value": "spell"
        },
        "components": {
            "material": false,
            "somatic": true,
            "verbal": true
        },
        "cost": {
            "value": ""
        },
        "damage": {
            "value": {}
        },
        "description": {
            "value": "<p>You sow seeds of confusion in your target's mind, causing their actions and thoughts to become clumsy.</p>\n<hr />\n<p><strong>Critical Success</strong> The target is unaffected.</p>\n<p><strong>Success</strong> The target is @Compendium[pf2e.conditionitems.Clumsy]{Clumsy 1} and @Compendium[pf2e.conditionitems.Stupefied]{Stupefied 1}.</p>\n<p><strong>Failure</strong> The target is @Compendium[pf2e.conditionitems.Clumsy]{Clumsy 2} and @Compendium[pf2e.conditionitems.Stupefied]{Stupefied 2}.</p>\n<p><strong>Critical Failure</strong> The target is @Compendium[pf2e.conditionitems.Clumsy]{Clumsy 3}, @Compendium[pf2e.conditionitems.Stupefied]{Stupefied 3}, and @Compendium[pf2e.conditionitems.Confused]{Confused}.</p>"
        },
        "duration": {
            "value": "1 round"
        },
        "hasCounteractCheck": {
            "value": false
        },
        "level": {
            "value": 1
        },
        "location": {
            "value": ""
        },
        "materials": {
            "value": ""
        },
        "prepared": {
            "value": ""
        },
        "primarycheck": {
            "value": ""
        },
        "range": {
            "value": "30 feet"
        },
        "rules": [],
        "save": {
            "basic": "",
            "value": "will"
        },
        "school": {
            "value": "enchantment"
        },
        "secondarycasters": {
            "value": ""
        },
        "secondarycheck": {
            "value": ""
        },
        "source": {
            "value": "Pathfinder Lost Omens: Gods & Magic"
        },
        "spellType": {
            "value": "save"
        },
        "sustained": {
            "value": false
        },
        "target": {
            "value": "1 creature"
        },
        "time": {
            "value": "2"
        },
        "traditions": {
            "custom": "",
            "value": [
                "arcane"
            ]
        },
        "traits": {
            "custom": "",
            "rarity": "common",
            "value": [
                "emotion",
                "mental"
            ]
        }
    },
    "effects": [],
    "flags": {},
    "img": "systems/pf2e/icons/spells/befuddle.webp",
    "name": "Befuddle",
    "type": "spell"
}
