{
    "_id": "OYOCWWefZPEfp8Nl",
    "data": {
        "ability": {
            "value": ""
        },
        "area": {
            "areaType": "line",
            "value": "120"
        },
        "autoHeightenLevel": {
            "value": null
        },
        "category": {
            "value": "spell"
        },
        "components": {
            "focus": false,
            "material": false,
            "somatic": true,
            "verbal": true
        },
        "cost": {
            "value": ""
        },
        "damage": {
            "applyMod": false,
            "value": {
                "0": {
                    "applyMod": false,
                    "type": {
                        "subtype": "",
                        "value": "bludgeoning"
                    },
                    "value": "4d6"
                },
                "1": {
                    "applyMod": false,
                    "type": {
                        "subtype": "",
                        "value": "fire"
                    },
                    "value": "6d6"
                }
            }
        },
        "description": {
            "value": "<p>A thin crack rips through the earth, erupting with magma, then swiftly seals up. Each creature along the line and on solid ground takes 4d6 bludgeoning damage and 6d6 fire damage with a Reflex save.</p>\n<hr />\n<p><strong>Critical Success</strong> The creature is unaffected.</p>\n<p><strong>Success</strong> The creature takes half damage.</p>\n<p><strong>Failure</strong> The creature takes full damage, and it falls @Compendium[pf2e.conditionitems.Prone]{Prone}.</p>\n<p><strong>Critical Failure</strong> The target takes double damage, and it falls prone.</p>\n<hr />\n<p>Heightened (+1) The damage increases by 1d6 bludgeoning and 1d6 fire</p>"
        },
        "duration": {
            "value": ""
        },
        "hasCounteractCheck": {
            "value": false
        },
        "level": {
            "value": 5
        },
        "location": {
            "value": ""
        },
        "materials": {
            "value": ""
        },
        "prepared": {
            "value": ""
        },
        "range": {
            "value": ""
        },
        "rules": [],
        "save": {
            "basic": "",
            "value": "reflex"
        },
        "scaling": {
            "damage": {
                "0": "1d6",
                "1": "1d6"
            },
            "interval": 1
        },
        "school": {
            "value": "evocation"
        },
        "source": {
            "value": "Pathfinder Secrets of Magic"
        },
        "spellType": {
            "value": "save"
        },
        "sustained": {
            "value": false
        },
        "target": {
            "value": ""
        },
        "time": {
            "value": "2"
        },
        "traditions": {
            "custom": "",
            "value": [
                "arcane",
                "primal"
            ]
        },
        "traits": {
            "custom": "",
            "rarity": "common",
            "value": [
                "earth",
                "fire"
            ]
        }
    },
    "effects": [],
    "flags": {},
    "img": "systems/pf2e/icons/spells/blazing-fissure.webp",
    "name": "Blazing Fissure",
    "type": "spell"
}
