{
    "_id": "e36Z2t6tLdW3RUzZ",
    "data": {
        "ability": {
            "value": ""
        },
        "area": {
            "areaType": "",
            "value": ""
        },
        "autoHeightenLevel": {
            "value": null
        },
        "category": {
            "value": "spell"
        },
        "components": {
            "focus": false,
            "material": false,
            "somatic": true,
            "verbal": true
        },
        "cost": {
            "value": ""
        },
        "damage": {
            "value": {}
        },
        "description": {
            "value": "<p>An elemental force fills your target, granting the target the swiftness of air, the ruggedness of earth, the sting of fire, or the flexibility of water, depending on which element you choose. Choose an element when you Cast the Spell. The target gains the benefit of that element as described below, and this spell gains that trait's element.</p>\n<ul>\n<li><strong>Air</strong> The target gains a +30-foot status bonus to its land Speed and gains a fly Speed equal to its land Speed without the status bonus. @Compendium[pf2e.spell-effects.Spell Effect: Elemental Gift (Air)]{Spell Effect: Elemental Gift (Air)}</li>\n<li><strong>Earth</strong> While on the ground, the target gets a +2 status bonus to Fortitude and Reflex saves against effects that would Shove or Trip it, and to saves against effects that would attempt to knock it prone. In addition, the ground adjacent to the target is difficult terrain, and the difficult terrain moves with the target, though the target ignores this difficult terrain with its own movement. @Compendium[pf2e.spell-effects.Spell Effect: Elemental Gift (Earth)]{Spell Effect: Elemental Gift (Earth)}</li>\n<li><strong>Fire</strong> The target's melee unarmed Strikes and melee weapon Strikes deal 1d6 persistent fire damage on a hit. @Compendium[pf2e.spell-effects.Spell Effect: Elemental Gift (Fire)]{Spell Effect: Elemental Gift (Fire)}</li>\n<li><strong>Water</strong> The target takes on a watery sheen, gaining resistance 5 to fire and a swim Speed equal to its land Speed. @Compendium[pf2e.spell-effects.Spell Effect: Elemental Gift (Water)]{Spell Effect: Elemental Gift (Water)}</li>\n</ul>\n<hr />\n<p><strong>Heightened (8th)</strong> You can target up to 5 willing creatures.</p>"
        },
        "duration": {
            "value": "1 minute"
        },
        "hasCounteractCheck": {
            "value": false
        },
        "level": {
            "value": 4
        },
        "location": {
            "value": ""
        },
        "materials": {
            "value": ""
        },
        "range": {
            "value": "30 feet"
        },
        "rules": [],
        "save": {
            "basic": "",
            "value": ""
        },
        "school": {
            "value": "transmutation"
        },
        "source": {
            "value": "Pathfinder Secrets of Magic"
        },
        "spellType": {
            "value": "utility"
        },
        "sustained": {
            "value": false
        },
        "target": {
            "value": "1 willing creature"
        },
        "time": {
            "value": "2"
        },
        "traditions": {
            "custom": "",
            "value": [
                "primal"
            ]
        },
        "traits": {
            "custom": "",
            "rarity": "common",
            "value": []
        }
    },
    "effects": [],
    "flags": {},
    "img": "systems/pf2e/icons/spells/elemental-gift.webp",
    "name": "Elemental Gift",
    "type": "spell"
}
