{
    "_id": "Ru9v8U9IRk3LtWx8",
    "data": {
        "ability": {
            "value": ""
        },
        "area": {
            "areaType": "cone",
            "value": "30"
        },
        "autoHeightenLevel": {
            "value": null
        },
        "category": {
            "value": "spell"
        },
        "components": {
            "focus": false,
            "material": false,
            "somatic": true,
            "verbal": true
        },
        "cost": {
            "value": ""
        },
        "damage": {
            "applyMod": false,
            "value": {
                "0": {
                    "applyMod": false,
                    "type": {
                        "subtype": "",
                        "value": "slashing"
                    },
                    "value": "2d4"
                },
                "1": {
                    "applyMod": false,
                    "type": {
                        "subtype": "",
                        "value": "negative"
                    },
                    "value": "2d4"
                }
            }
        },
        "description": {
            "value": "<p>A wave of gray mist formed of negative energy spills out from your outstretched hand, briefly taking the shape of a pack of predatory animals that set viciously on your foes. You deal 2d4 slashing damage and 2d4 negative damage to creatures in the area. The shades set upon the vulnerable with greater ferocity: prone creatures or those taking persistent bleed damage take a -2 status penalty to the save.</p>\n<hr />\n<p><strong>Heightened (+1)</strong> The slashing damage and the negative damage each increase by 1d4.</p>"
        },
        "duration": {
            "value": ""
        },
        "hasCounteractCheck": {
            "value": false
        },
        "level": {
            "value": 2
        },
        "location": {
            "value": ""
        },
        "materials": {
            "value": ""
        },
        "range": {
            "value": ""
        },
        "rules": [],
        "save": {
            "basic": "basic",
            "value": "fortitude"
        },
        "scaling": {
            "damage": {
                "0": "1d4",
                "1": "1d4"
            },
            "interval": 1
        },
        "school": {
            "value": "necromancy"
        },
        "source": {
            "value": "Pathfinder Secrets of Magic"
        },
        "spellType": {
            "value": "save"
        },
        "sustained": {
            "value": false
        },
        "target": {
            "value": ""
        },
        "time": {
            "value": "2"
        },
        "traditions": {
            "custom": "",
            "value": [
                "primal"
            ]
        },
        "traits": {
            "custom": "",
            "rarity": "common",
            "value": []
        }
    },
    "effects": [],
    "flags": {},
    "img": "systems/pf2e/icons/spells/feral-shades.webp",
    "name": "Feral Shades",
    "type": "spell"
}
