{
    "_id": "GzlVI3qYdCtUigLz",
    "data": {
        "ability": {
            "value": ""
        },
        "area": {
            "areaType": "",
            "value": ""
        },
        "autoHeightenLevel": {
            "value": null
        },
        "category": {
            "value": "ritual"
        },
        "components": {
            "material": false,
            "somatic": false,
            "verbal": false
        },
        "cost": {
            "value": "rare oils, cold iron bells worth at least 5 gp"
        },
        "damage": {
            "value": {}
        },
        "description": {
            "value": "<p><strong>Area</strong> An enclosed area up to 60 feet × 60 feet, up to 20 feet high</p>\n<hr />\n<p>You ward an area with cold iron bells, protecting it from the influence of the first world. Fey creatures feel uncomfortable within the area and all physical attacks against them are considered cold iron for the purposes of their Weaknesses and Resistances. Furthermore, you set up bells within 3 squares within the area (usually at entrances). When a fey creature begins its turn in a square containing bells, it takes mental damage equal to its Weakness to cold iron, if any. This damage is nonlethal.</p>\n<hr />\n<p><strong>Critical Success</strong> You may designate up to 6 squares to contain bells.</p>\n<p><strong>Success</strong> The ritual succeeds.</p>\n<p><strong>Failure</strong> The ritual has no effect.</p>\n<p><strong>Critical Failure</strong> The ritual has no effect and attracts the attention of a troublesome fey creature. At the GM's discretion, it might be hostile or merely mischievous.</p>"
        },
        "duration": {
            "value": "1 week"
        },
        "hasCounteractCheck": {
            "value": false
        },
        "level": {
            "value": 1
        },
        "location": {
            "value": ""
        },
        "materials": {
            "value": ""
        },
        "prepared": {
            "value": ""
        },
        "primarycheck": {
            "value": "Nature (trained)"
        },
        "range": {
            "value": ""
        },
        "rules": [],
        "save": {
            "basic": "",
            "value": ""
        },
        "school": {
            "value": "abjuration"
        },
        "secondarycasters": {
            "value": "1"
        },
        "secondarycheck": {
            "value": "Crafting, Intimidation, Occultism, Performance"
        },
        "source": {
            "value": "Pathfinder #169: Kindled Magic"
        },
        "spellType": {
            "value": "attack"
        },
        "sustained": {
            "value": false
        },
        "target": {
            "value": ""
        },
        "time": {
            "value": "1 hour"
        },
        "traditions": {
            "value": []
        },
        "traits": {
            "custom": "",
            "rarity": "rare",
            "value": []
        }
    },
    "effects": [],
    "flags": {},
    "img": "systems/pf2e/icons/default-icons/spell.svg",
    "name": "Fey Abeyance",
    "type": "spell"
}
