{
    "_id": "kHyjQbibRGPNCixx",
    "data": {
        "ability": {
            "value": ""
        },
        "area": {
            "value": ""
        },
        "areasize": {
            "value": "5-foot burst"
        },
        "category": {
            "value": "spell"
        },
        "components": {
            "material": true,
            "somatic": true,
            "verbal": true
        },
        "cost": {
            "value": ""
        },
        "damage": {
            "value": {
                "0": {
                    "type": {
                        "categories": [],
                        "value": "bludgeoning"
                    },
                    "value": "2d8+2d8"
                }
            }
        },
        "description": {
            "value": "<p>You create a gray storm cloud that pelts creatures with an icy deluge. When you @Compendium[pf2e.actionspf2e.Cast a Spell]{Cast the Spell}, a burst of magical hail deals [[/r {2d8}[bludgeoning]]]{2d8 bludgeoning damage} and [[/r {2d8}[cold]]]{2d8 cold damage} to each creature in the area below the cloud (basic Reflex save). Snow and sleet continue to rain down in the area for the remainder of the spell's duration, making the area difficult terrain, causing creatures in the storm to be @Compendium[pf2e.conditionitems.Concealed]{Concealed}, and making creatures outside the storm Concealed from those inside the storm. Any creature that ends its turn in the storm takes [[/r 4 #cold]]{4 cold damage}. If you Cast this Spell outdoors, you can create two non-overlapping clouds instead of one.</p>\n<hr />\n<p><strong>Heightened (+2)</strong> The initial bludgeoning damage and cold damage increase by 1d8 each, and the cold damage creatures take at the end of their turns increases by 2.</p>"
        },
        "duration": {
            "value": "1 minute"
        },
        "hasCounteractCheck": {
            "value": false
        },
        "level": {
            "value": 4
        },
        "location": {
            "value": ""
        },
        "materials": {
            "value": ""
        },
        "prepared": {
            "value": false
        },
        "primarycheck": {
            "value": ""
        },
        "range": {
            "value": "120 feet"
        },
        "rules": [],
        "save": {
            "basic": "basic",
            "value": "reflex"
        },
        "scaling": {
            "damage": {
                "0": "1d8+1d8"
            },
            "interval": 2
        },
        "school": {
            "value": "evocation"
        },
        "secondarycasters": {
            "value": ""
        },
        "secondarycheck": {
            "value": ""
        },
        "source": {
            "value": "Pathfinder Advanced Player's Guide"
        },
        "spellType": {
            "value": "attack"
        },
        "sustained": {
            "value": false
        },
        "target": {
            "value": ""
        },
        "time": {
            "value": "3"
        },
        "traditions": {
            "value": [
                "arcane",
                "primal"
            ]
        },
        "traits": {
            "custom": "",
            "rarity": "common",
            "value": [
                "cold"
            ]
        }
    },
    "effects": [],
    "flags": {},
    "img": "systems/pf2e/icons/spells/ice-storm.webp",
    "name": "Ice Storm",
    "type": "spell"
}
