{
    "_id": "L37RTc7K79OUpZ7X",
    "data": {
        "ability": {
            "value": ""
        },
        "area": {
            "areaType": "",
            "value": ""
        },
        "areasize": {
            "value": "30 feet"
        },
        "category": {
            "value": "focus"
        },
        "components": {
            "material": false,
            "somatic": true,
            "verbal": true
        },
        "cost": {
            "value": ""
        },
        "damage": {
            "value": {
                "0": {
                    "type": {
                        "categories": [],
                        "value": "cold"
                    },
                    "value": "3d6"
                }
            }
        },
        "description": {
            "value": "<p>You call upon the frigid depths of outer space to bring a terrible chill to your enemy. The target is cloaked in the freezing void, which deals 3d6 cold damage immediately and when you @Compendium[pf2e.actionspf2e.Sustain a Spell]{Sustain the Spell} on future turns, with a basic Fortitude save.</p>\n<p>The target is @Compendium[pf2e.conditionitems.Fatigued]{Fatigued} for as long as the effect persists.</p>\n<hr />\n<p><strong>Heightened (+1)</strong> The cold damage increases by 1d6.</p>"
        },
        "duration": {
            "value": "sustained up to 1 minute"
        },
        "hasCounteractCheck": {
            "value": false
        },
        "level": {
            "value": 3
        },
        "location": {
            "value": ""
        },
        "materials": {
            "value": ""
        },
        "prepared": {
            "value": ""
        },
        "primarycheck": {
            "value": ""
        },
        "range": {
            "value": ""
        },
        "rules": [],
        "save": {
            "basic": "basic",
            "value": "fortitude"
        },
        "scaling": {
            "damage": {
                "0": "1d6"
            },
            "interval": 1
        },
        "school": {
            "value": "evocation"
        },
        "secondarycasters": {
            "value": ""
        },
        "secondarycheck": {
            "value": ""
        },
        "source": {
            "value": "Pathfinder Advanced Player's Guide"
        },
        "spellType": {
            "value": "save"
        },
        "sustained": {
            "value": false
        },
        "target": {
            "value": "1 creature"
        },
        "time": {
            "value": "2"
        },
        "traditions": {
            "custom": "",
            "value": []
        },
        "traits": {
            "custom": "",
            "rarity": "uncommon",
            "value": [
                "cold",
                "oracle",
                "cursebound"
            ]
        }
    },
    "effects": [],
    "flags": {},
    "img": "systems/pf2e/icons/spells/interstellar-void.webp",
    "name": "Interstellar Void",
    "type": "spell"
}
