{
    "_id": "hp6Q64dl7xbdn4gQ",
    "data": {
        "ability": {
            "value": ""
        },
        "area": {
            "areaType": "",
            "value": null
        },
        "areasize": {
            "value": ""
        },
        "category": {
            "value": "ritual"
        },
        "components": {
            "material": false,
            "somatic": false,
            "verbal": false
        },
        "cost": {
            "value": "rare incense worth a total value of 300 gp"
        },
        "damage": {
            "value": {}
        },
        "description": {
            "value": "<p>You attempt to learn useful legends about a particular subject, which must be an important person, place, or thing. If the subject is present, increase the degree of success of your primary skill check by one step. If you have only vague information about the subject before attempting the ritual, decrease the degree of success of your primary skill check by one step. These modifiers cancel each other out if you have a subject present with little to no baseline information.</p>\n<hr />\n<p><strong>Critical Success</strong> You recite legends, tales, and lore about the subject over the course of an hour after the ritual ends. The information is mostly coherent, emphasizing more accurate or useful legends over those exaggerated over time.</p>\n<p><strong>Success</strong> You recite mysterious legends, tales, and lore about the subject over the course of an hour after the ritual ends. These provide useful information for further inquiry but are generally incomplete or enigmatic. As is the nature of legends, you are likely to learn multiple contradictory versions.</p>\n<p><strong>Failure</strong> You fail to learn any useful legends.</p>\n<p><strong>Critical Failure</strong> Your mind becomes lost in the past. You can't sense or respond to anything in the present for 1 week except to perform necessities like breathing and sleeping. When you return, however, you can retrain one of your skills into a Lore based on the knowledge of the past you were uncontrollably viewing, as if you had spent 1 week retraining.</p>"
        },
        "duration": {
            "value": ""
        },
        "hasCounteractCheck": {
            "value": false
        },
        "level": {
            "value": 7
        },
        "location": {
            "value": ""
        },
        "materials": {
            "value": ""
        },
        "prepared": {
            "value": ""
        },
        "primarycheck": {
            "value": "Occultism (master)"
        },
        "range": {
            "value": ""
        },
        "rules": [],
        "save": {
            "basic": "",
            "value": ""
        },
        "school": {
            "value": "divination"
        },
        "secondarycasters": {
            "value": "2"
        },
        "secondarycheck": {
            "value": "Performance, Society"
        },
        "source": {
            "value": "Pathfinder Core Rulebook"
        },
        "spellType": {
            "value": "utility"
        },
        "sustained": {
            "value": false
        },
        "target": {
            "value": ""
        },
        "time": {
            "value": "1 day"
        },
        "traditions": {
            "custom": "",
            "value": []
        },
        "traits": {
            "custom": "",
            "rarity": "uncommon",
            "value": []
        }
    },
    "effects": [],
    "flags": {},
    "img": "systems/pf2e/icons/spells/legend-lore.webp",
    "name": "Legend Lore",
    "type": "spell"
}
