{
    "_id": "1meVElIu1CEVYWkv",
    "data": {
        "ability": {
            "value": ""
        },
        "area": {
            "value": "10-foot emanation"
        },
        "areasize": {
            "value": ""
        },
        "category": {
            "value": "spell"
        },
        "components": {
            "material": false,
            "somatic": true,
            "verbal": true
        },
        "cost": {
            "value": ""
        },
        "damage": {
            "value": {
                "0": {
                    "type": {
                        "categories": [],
                        "value": "poison"
                    },
                    "value": "1d6"
                }
            }
        },
        "description": {
            "value": "<p>You emit a cloud of toxic smoke that temporarily obscures you from sight. Each creature except you in the area when you @Compendium[pf2e.actionspf2e.Cast a Spell]{Cast the Spell} takes [[/r {1d6}[poison]]]{1d6 poison damage} (basic Fortitude save). A creature that critically fails the saving throw also becomes @Compendium[pf2e.conditionitems.Sickened]{Sickened 1}. All creatures in the area become @Compendium[pf2e.conditionitems.Concealed]{Concealed}, and all creatures outside the smoke become Concealed to creatures within it. This smoke can be dispersed by a strong wind.</p>\n<hr />\n<p><strong>Heightened (+1)</strong> The damage increases by [[/r {1d6}[poison]]]{1d6 poison}.</p>"
        },
        "duration": {
            "value": "1 round"
        },
        "hasCounteractCheck": {
            "value": false
        },
        "level": {
            "value": 1
        },
        "location": {
            "value": ""
        },
        "materials": {
            "value": ""
        },
        "prepared": {
            "value": false
        },
        "primarycheck": {
            "value": ""
        },
        "range": {
            "value": ""
        },
        "rules": [],
        "save": {
            "basic": "basic",
            "value": "fortitude"
        },
        "scaling": {
            "damage": {
                "0": "1d6"
            },
            "interval": 1
        },
        "school": {
            "value": "evocation"
        },
        "secondarycasters": {
            "value": ""
        },
        "secondarycheck": {
            "value": ""
        },
        "source": {
            "value": "Pathfinder Advanced Player's Guide"
        },
        "spellType": {
            "value": "attack"
        },
        "sustained": {
            "value": false
        },
        "target": {
            "value": ""
        },
        "time": {
            "value": "2"
        },
        "traditions": {
            "value": [
                "arcane",
                "primal"
            ]
        },
        "traits": {
            "custom": "",
            "rarity": "common",
            "value": [
                "poison"
            ]
        }
    },
    "effects": [],
    "flags": {},
    "img": "systems/pf2e/icons/spells/noxious-vapors.webp",
    "name": "Noxious Vapors",
    "type": "spell"
}
