{
    "_id": "QjdvYC1QkpMaemoX",
    "data": {
        "ability": {
            "value": ""
        },
        "area": {
            "areaType": "",
            "value": ""
        },
        "autoHeightenLevel": {
            "value": null
        },
        "category": {
            "value": "spell"
        },
        "components": {
            "focus": false,
            "material": false,
            "somatic": true,
            "verbal": true
        },
        "cost": {
            "value": ""
        },
        "damage": {
            "value": {}
        },
        "description": {
            "value": "<p>You bestow yourself supernaturally good luck at cards, dice, and other games of chance. You gain a +1 status bonus to Games Lore checks to gamble, and if you roll a critical failure on such a check, you get a failure instead; however, the spell is too short-lived to use for Earn Income checks from gambling.</p>\n<p>When you're under the effect of nudge the odds, one facial feature, such as a lock of hair or the iris of an eye, transforms to a distinctive golden color; the GM chooses which feature when you cast the spell. This change resists all magical efforts to conceal it, though it can be hidden or covered by mundane means. A creature noticing the feature can identify the spell using Recall Knowledge. Because it prevents losing big, gamblers consider nudge the odds a repugnant form of cheating. If you're caught using the spell, you are likely to suffer serious consequences, depending on the nature of the gamblers you cheated.</p>\n<p>@Compendium[pf2e.spell-effects.Spell effect: Nudge the Odds]{Spell effect: Nudge the Odds}</p>\n<hr />\n<p><strong>Heightened (5th)</strong> The status bonus increases to +2, and the duration increases to last until the next time you make your daily preparations. If you continue spending your spell slot to keep the duration active, this allows you to apply the effect to a downtime check to Earn Income.</p>"
        },
        "duration": {
            "value": "1 hour"
        },
        "hasCounteractCheck": {
            "value": false
        },
        "level": {
            "value": 1
        },
        "location": {
            "value": ""
        },
        "materials": {
            "value": ""
        },
        "range": {
            "value": ""
        },
        "rules": [],
        "save": {
            "basic": "",
            "value": ""
        },
        "school": {
            "value": "divination"
        },
        "source": {
            "value": "Pathfinder Secrets of Magic"
        },
        "spellType": {
            "value": "utility"
        },
        "sustained": {
            "value": false
        },
        "target": {
            "value": ""
        },
        "time": {
            "value": "2"
        },
        "traditions": {
            "custom": "",
            "value": [
                "arcane",
                "divine",
                "occult"
            ]
        },
        "traits": {
            "custom": "",
            "rarity": "uncommon",
            "value": []
        }
    },
    "effects": [],
    "flags": {},
    "img": "systems/pf2e/icons/spells/nudge-the-odds.webp",
    "name": "Nudge the Odds",
    "type": "spell"
}
