{
    "_id": "G0T1xv1FoZ23Jxvt",
    "data": {
        "ability": {
            "value": ""
        },
        "area": {
            "areaType": "",
            "value": ""
        },
        "areasize": {
            "value": ""
        },
        "category": {
            "value": "focus"
        },
        "components": {
            "material": false,
            "somatic": false,
            "verbal": true
        },
        "cost": {
            "value": ""
        },
        "damage": {
            "value": {}
        },
        "description": {
            "value": "<p>You read slightly into the future and give fate a tiny push to achieve the result you desire.</p>\n<p>Once during the duration, when the target fails an attack roll, skill check, or saving throw and a +1 status bonus would turn a critical failure into a failure, or failure into a success, you grant the target a +1 status bonus to the check retroactively, changing the outcome appropriately. The spell then ends, and the target is temporarily immune for 1 minute.</p>\n<p>If you cast nudge fate while a previous casting of this hex is still in effect, the previous effect ends.</p>\n<p>@Compendium[pf2e.spell-effects.Spell Effect: Nudge Fate]{Spell Effect: Nudge Fate}</p>"
        },
        "duration": {
            "value": "Sustained up to 1 minute"
        },
        "hasCounteractCheck": {
            "value": false
        },
        "level": {
            "value": 1
        },
        "location": {
            "value": "gj8uSdGt5Fbk1fGz"
        },
        "materials": {
            "value": ""
        },
        "prepared": {
            "value": ""
        },
        "primarycheck": {
            "value": ""
        },
        "range": {
            "value": "30 feet"
        },
        "rules": [],
        "save": {
            "basic": "",
            "value": "will"
        },
        "school": {
            "value": "divination"
        },
        "secondarycasters": {
            "value": ""
        },
        "secondarycheck": {
            "value": ""
        },
        "source": {
            "value": "Pathfinder Advanced Player's Guide"
        },
        "spellType": {
            "value": "utility"
        },
        "sustained": {
            "value": false
        },
        "target": {
            "value": "1 creature"
        },
        "time": {
            "value": "1"
        },
        "traditions": {
            "value": []
        },
        "traits": {
            "custom": "",
            "rarity": "uncommon",
            "value": [
                "cantrip",
                "witch",
                "hex"
            ]
        }
    },
    "effects": [],
    "flags": {},
    "img": "systems/pf2e/icons/spells/nudge-fate.webp",
    "name": "Nudge Fate",
    "type": "spell"
}
