{
    "_id": "AlCFTjSBaCHuRHBv",
    "data": {
        "ability": {
            "value": ""
        },
        "area": {
            "areaType": "",
            "value": ""
        },
        "category": {
            "value": "spell"
        },
        "components": {
            "material": false,
            "somatic": false,
            "verbal": true
        },
        "cost": {
            "value": ""
        },
        "damage": {
            "value": {}
        },
        "description": {
            "value": "<p>Shield-sized shards of multicolored light manifest in the air around you, each rotating quickly to intercept attacks.</p>\n<p>Melee attacks against you impact a randomly colored shard, subjecting the attacker to a random effect from <em>@Compendium[pf2e.spells-srd.Prismatic Spray]{Prismatic Spray}</em>, with a saving throw of the type indicated in that spell.</p>\n<p>The shards automatically block physical ranged attacks the size of a spear or smaller, such as arrows, bolts, and javelins. You gain a +2 circumstance bonus to your AC against attacks with larger ranged weapons.</p>\n<p>Any spell that targets you requires the caster to succeed at a counteract check against your spell DC, or it fails to affect you.</p>\n<p>@Compendium[pf2e.spell-effects.Spell Effect: Prismatic Shield]{Spell Effect: Prismatic Shield}</p>"
        },
        "duration": {
            "value": "until the start of your next turn"
        },
        "hasCounteractCheck": {
            "value": false
        },
        "level": {
            "value": 9
        },
        "location": {
            "value": ""
        },
        "materials": {
            "value": ""
        },
        "prepared": {
            "value": ""
        },
        "range": {
            "value": ""
        },
        "rules": [],
        "save": {
            "basic": "",
            "value": ""
        },
        "school": {
            "value": "abjuration"
        },
        "source": {
            "value": "Pathfinder #162: Ruins of the Radiant Siege"
        },
        "spellType": {
            "value": "utility"
        },
        "sustained": {
            "value": false
        },
        "target": {
            "value": ""
        },
        "time": {
            "value": "1"
        },
        "traditions": {
            "custom": "",
            "value": [
                "arcane",
                "occult"
            ]
        },
        "traits": {
            "custom": "",
            "rarity": "rare",
            "value": [
                "light"
            ]
        }
    },
    "effects": [],
    "flags": {},
    "img": "systems/pf2e/icons/spells/prismatic-shield.webp",
    "name": "Prismatic Shield",
    "type": "spell"
}
