{
    "_id": "cE7PRAX8Up7fmYef",
    "data": {
        "ability": {
            "value": ""
        },
        "area": {
            "value": ""
        },
        "areasize": {
            "value": ""
        },
        "category": {
            "value": "focus"
        },
        "components": {
            "material": false,
            "somatic": true,
            "verbal": false
        },
        "cost": {
            "value": ""
        },
        "damage": {
            "value": {}
        },
        "description": {
            "value": "<p>Drawing your hand in a sweeping gesture, you shroud the target in a veil of night. The target's eyes are blanketed in darkness. If you cast this hex on a willing ally (for instance, one with light blindness), the ally can choose which result it gets without rolling. Regardless of the outcome, the target is then temporarily immune for 1 minute.</p>\n<hr />\n<p><strong>Success</strong> The target is unaffected.</p>\n<p><strong>Failure</strong> The target is shrouded in murky darkness. Unless the target has @Compendium[pf2e.ancestryfeatures.Darkvision]{Darkvision}, other creatures are @Compendium[pf2e.conditionitems.Concealed]{Concealed} to it.</p>"
        },
        "duration": {
            "value": "Sustained up to 1 minute"
        },
        "hasCounteractCheck": {
            "value": false
        },
        "level": {
            "value": 1
        },
        "location": {
            "value": "gj8uSdGt5Fbk1fGz"
        },
        "materials": {
            "value": ""
        },
        "prepared": {
            "value": ""
        },
        "primarycheck": {
            "value": ""
        },
        "range": {
            "value": "30 feet"
        },
        "rules": [],
        "save": {
            "basic": "",
            "value": "will"
        },
        "school": {
            "value": "evocation"
        },
        "secondarycasters": {
            "value": ""
        },
        "secondarycheck": {
            "value": ""
        },
        "source": {
            "value": "Pathfinder Advanced Player's Guide"
        },
        "spellType": {
            "value": "save"
        },
        "sustained": {
            "value": false
        },
        "target": {
            "value": "1 creature"
        },
        "time": {
            "value": "1"
        },
        "traditions": {
            "value": []
        },
        "traits": {
            "custom": "",
            "rarity": "uncommon",
            "selected": {
                "cantrip": "Cantrip",
                "custom": "",
                "darkness": "Darkness",
                "evocation": "Evocation",
                "witch": "Witch"
            },
            "value": [
                "cantrip",
                "darkness",
                "witch",
                "hex"
            ]
        }
    },
    "effects": [],
    "flags": {},
    "img": "systems/pf2e/icons/spells/shroud-of-night.webp",
    "name": "Shroud of Night",
    "type": "spell"
}
