{
    "_id": "5XUn9NADr05IyiVw",
    "data": {
        "ability": {
            "value": ""
        },
        "area": {
            "areaType": "burst",
            "value": "10"
        },
        "autoHeightenLevel": {
            "value": null
        },
        "category": {
            "value": "spell"
        },
        "components": {
            "focus": false,
            "material": false,
            "somatic": true,
            "verbal": true
        },
        "cost": {
            "value": ""
        },
        "damage": {
            "value": {}
        },
        "description": {
            "value": "<p>Blossoms grow from the ground in a small area, soothing away afflictions and persistent pains and harm. When any creature in that area rolls a successful save against a poison or disease effect, it gets a critical success instead. The blossoms grant assisted recovery to everyone in the area to end their persistent damage, both when the spell is cast and at the start of each of your turns. Once the duration ends, the flowers lose their magical effect, but a few of them might survive in the area as long as they can naturally. This spell doesn't give a benefit on a save against an affliction unless the stage lasts 10 minutes or less.</p>\n<p>@Compendium[pf2e.spell-effects.Spell Effect: Soothing Blossoms]{Spell Effect: Soothing Blossoms}</p>"
        },
        "duration": {
            "value": "10 minutes"
        },
        "hasCounteractCheck": {
            "value": false
        },
        "level": {
            "value": 3
        },
        "location": {
            "value": ""
        },
        "materials": {
            "value": ""
        },
        "range": {
            "value": "30 feet"
        },
        "rules": [],
        "save": {
            "basic": "",
            "value": ""
        },
        "school": {
            "value": "conjuration"
        },
        "source": {
            "value": "Pathfinder Secrets of Magic"
        },
        "spellType": {
            "value": "utility"
        },
        "sustained": {
            "value": false
        },
        "target": {
            "value": ""
        },
        "time": {
            "value": "2"
        },
        "traditions": {
            "custom": "",
            "value": [
                "divine",
                "primal"
            ]
        },
        "traits": {
            "custom": "",
            "rarity": "common",
            "value": [
                "plant"
            ]
        }
    },
    "effects": [],
    "flags": {},
    "img": "systems/pf2e/icons/spells/soothing-blossom.webp",
    "name": "Soothing Blossoms",
    "type": "spell"
}
