{
    "_id": "Pd2M1XY8EXrSfWgJ",
    "data": {
        "ability": {
            "value": ""
        },
        "area": {
            "areaType": "",
            "value": null
        },
        "areasize": {
            "value": ""
        },
        "category": {
            "value": "focus"
        },
        "components": {
            "material": false,
            "somatic": true,
            "verbal": true
        },
        "cost": {
            "value": ""
        },
        "damage": {
            "value": {}
        },
        "description": {
            "value": "<p>You discorporate into a swarm of Tiny creatures. While in swarm form, you have the swarm trait and you gain resistance 5 to slashing and piercing damage and weakness 5 to area and splash damage. You can fit into spaces only a few inches wide, moving your constituent creatures through the gap. You don't gain the swarm mind ability, so you are still affected normally by mental effects. As a swarm, you can't speak, cast spells, use manipulate actions requiring your hands, activate your magic items, or make any of your Strikes with your normal body. You can Dismiss the Spell.</p>\n<hr />\n<p><strong>Heightened (+2)</strong> Increase your resistances and weaknesses each by 5.</p>"
        },
        "duration": {
            "value": "5 minutes"
        },
        "hasCounteractCheck": {
            "value": false
        },
        "level": {
            "value": 4
        },
        "location": {
            "value": ""
        },
        "materials": {
            "value": ""
        },
        "prepared": {
            "value": ""
        },
        "primarycheck": {
            "value": ""
        },
        "range": {
            "value": ""
        },
        "rules": [],
        "save": {
            "basic": "",
            "value": ""
        },
        "school": {
            "value": "transmutation"
        },
        "secondarycasters": {
            "value": ""
        },
        "secondarycheck": {
            "value": ""
        },
        "source": {
            "value": "Pathfinder Lost Omens: Gods & Magic"
        },
        "spellType": {
            "value": "utility"
        },
        "sustained": {
            "value": false
        },
        "target": {
            "value": ""
        },
        "time": {
            "value": "2"
        },
        "traditions": {
            "custom": "",
            "value": []
        },
        "traits": {
            "custom": "",
            "rarity": "uncommon",
            "value": [
                "cleric",
                "polymorph"
            ]
        }
    },
    "effects": [],
    "flags": {},
    "img": "systems/pf2e/icons/spells/swarm-form.webp",
    "name": "Swarm Form",
    "type": "spell"
}
