{
    "_id": "1NLMPmyCB2MBoCuR",
    "data": {
        "ability": {
            "value": ""
        },
        "area": {
            "areaType": "",
            "value": ""
        },
        "autoHeightenLevel": {
            "value": null
        },
        "category": {
            "value": "spell"
        },
        "components": {
            "focus": false,
            "material": false,
            "somatic": true,
            "verbal": true
        },
        "cost": {
            "value": ""
        },
        "damage": {
            "value": {}
        },
        "description": {
            "value": "<p>You prove that slow and steady doesn't always win the race by turning a foe into a proverbial tortoise and yourself or an ally into a hare, siphoning some of the foe's speed and granting it to the other target. The effects depend on the foe's Fortitude save.</p>\n<hr />\n<p><strong>Critical Success</strong> The targets are unaffected.</p>\n<p><strong>Success</strong> The foe is @Compendium[pf2e.conditionitems.Slowed]{Slowed 1} for 1 round, and the other target is unaffected.</p>\n<p><strong>Failure</strong> The foe is slowed 1 for 3 rounds and the other target is @Compendium[pf2e.conditionitems.Quickened]{Quickened} for 1 round. It can use the extra action to Step, Stride, or Strike.</p>\n<p><strong>Critical Failure</strong> The foe is slowed 1 for 3 minutes and the other target is quickened for 1 minute. It can use the extra action to Step, Stride, or Strike.</p>"
        },
        "duration": {
            "value": ""
        },
        "hasCounteractCheck": {
            "value": false
        },
        "level": {
            "value": 4
        },
        "location": {
            "value": ""
        },
        "materials": {
            "value": ""
        },
        "range": {
            "value": "30 feet"
        },
        "rules": [],
        "save": {
            "basic": "",
            "value": "fortitude"
        },
        "school": {
            "value": "transmutation"
        },
        "source": {
            "value": "Pathfinder Secrets of Magic"
        },
        "spellType": {
            "value": "save"
        },
        "sustained": {
            "value": false
        },
        "target": {
            "value": "1 foe, and either yourself or 1 ally"
        },
        "time": {
            "value": "2"
        },
        "traditions": {
            "custom": "",
            "value": [
                "occult",
                "primal"
            ]
        },
        "traits": {
            "custom": "",
            "rarity": "common",
            "value": []
        }
    },
    "effects": [],
    "flags": {},
    "img": "systems/pf2e/icons/spells/tortoise-and-the-hare.webp",
    "name": "Tortoise and the Hare",
    "type": "spell"
}
