{
    "_id": "M2lGGGaPIOimeA31",
    "data": {
        "actionCategory": {
            "value": ""
        },
        "actionType": {
            "value": "passive"
        },
        "actions": {
            "value": null
        },
        "description": {
            "value": "<p><strong>[Service]</strong></p>\n<p><strong>Prerequisites</strong> Tier 0 with any faction</p>\n<p><strong>Cost</strong> 25 Fame (<em>@Compendium[pf2e.spells-srd.Resurrect]{Resurrection Ritual}</em>) or 50 Fame (<em>@Compendium[pf2e.spells-srd.Raise Dead]{Raise Dead Spell}</em>)</p>\n<p><strong>Effect</strong> The Pathfinder Society is invested in keeping its most successful agents in the field. You can purchase a <em>@Compendium[pf2e.spells-srd.Resurrect]{Resurrection}</em> ritual for 25 Fame. If you are in a rush to return to life and cannot wait the day for this ritual to be conducted, you can instead purchase a casting of the <em>@Compendium[pf2e.spells-srd.Raise Dead]{Raise Dead}</em> spell for 50 Fame.</p>\n<p><strong>Special</strong> This reward can be purchased multiple times, as it strictly represents the ability to secure the listed services.</p>"
        },
        "featType": {
            "value": "pfsboon"
        },
        "level": {
            "value": 0
        },
        "prerequisites": {
            "value": []
        },
        "rules": [],
        "source": {
            "value": ""
        },
        "traits": {
            "custom": "",
            "rarity": "common",
            "value": []
        }
    },
    "effects": [],
    "flags": {},
    "img": "systems/pf2e/icons/default-icons/mystery-man.webp",
    "name": "Resurrection Plan",
    "type": "feat"
}
