{
    "_id": "3lHqim7ttvoMmVXW",
    "data": {
        "actionCategory": {
            "value": ""
        },
        "actionType": {
            "value": "passive"
        },
        "actions": {
            "value": null
        },
        "description": {
            "value": "<p><strong>[Service]</strong></p>\n<p><strong>Prerequisites</strong> Tier 1 with any faction</p>\n<p><strong>Cost</strong> 0 Fame</p>\n<p><strong>Effect</strong> You can return previously purchased boons whose Fame cost is less than or equal to 2 times your Reputation Tier for All Factions so long as the boon is does not have the faction, limited-use, or service traits. You immediately gain an amount of Fame equal to the total Fame cost of the returned boon minus 1.</p>"
        },
        "featType": {
            "value": "pfsboon"
        },
        "level": {
            "value": 0
        },
        "prerequisites": {
            "value": []
        },
        "rules": [],
        "source": {
            "value": ""
        },
        "traits": {
            "custom": "",
            "rarity": "common",
            "value": []
        }
    },
    "effects": [],
    "flags": {},
    "img": "systems/pf2e/icons/default-icons/mystery-man.webp",
    "name": "Sellback Plan",
    "type": "feat"
}
