{
    "_id": "kAgUld9PcI4XkHbq",
    "data": {
        "description": {
            "value": "<p>Granted by @Compendium[pf2e.feats-srd.Decry Thief]{Decry Thief}</p>\n<p>For 1 round, the target takes a -10 foot status penalty to Speed and a -4 status penalty to Stealth.</p>"
        },
        "duration": {
            "expiry": "turn-start",
            "sustained": false,
            "unit": "rounds",
            "value": 1
        },
        "level": {
            "value": 1
        },
        "rules": [
            {
                "key": "FlatModifier",
                "selector": "stealth",
                "type": "status",
                "value": -4
            },
            {
                "key": "FlatModifier",
                "selector": "land-speed",
                "type": "status",
                "value": -10
            }
        ],
        "source": {
            "value": "Pathfinder #149: Against the Scarlet Triad"
        },
        "start": {
            "initiative": null,
            "value": 0
        },
        "target": null,
        "tokenIcon": {
            "show": true
        },
        "traits": {
            "custom": "",
            "rarity": "common",
            "value": []
        }
    },
    "effects": [],
    "flags": {},
    "img": "systems/pf2e/icons/default-icons/effect.svg",
    "name": "Effect: Decry Thief (Critical Success)",
    "type": "effect"
}
