{
    "_id": "l3S9i2UWGhSO58YX",
    "data": {
        "description": {
            "value": "<p>Granted by @Compendium[pf2e.feats-srd.Cat Nap]{Cat Nap}.</p>\n<p>You gain temporary Hit Points equal to your level that last for 10 minutes.</p>"
        },
        "duration": {
            "expiry": "turn-start",
            "sustained": false,
            "unit": "minutes",
            "value": 10
        },
        "level": {
            "value": 1
        },
        "rules": [
            {
                "key": "TempHP",
                "value": "@actor.level"
            }
        ],
        "source": {
            "value": ""
        },
        "start": {
            "initiative": null,
            "value": 0
        },
        "target": null,
        "tokenIcon": {
            "show": true
        },
        "traits": {
            "custom": "",
            "rarity": "common",
            "value": []
        }
    },
    "effects": [],
    "flags": {},
    "img": "systems/pf2e/icons/spells/sleep.webp",
    "name": "Effect: Cat Nap",
    "type": "effect"
}
