{
    "_id": "nnF7RSVlC6swbSw8",
    "data": {
        "description": {
            "value": "<p>Granted by @Compendium[pf2e.feats-srd.Anoint Ally]{Anoint Ally}.</p>"
        },
        "duration": {
            "expiry": "turn-start",
            "sustained": false,
            "unit": "minutes",
            "value": 1
        },
        "level": {
            "value": 1
        },
        "rules": [],
        "source": {
            "value": ""
        },
        "start": {
            "initiative": null,
            "value": 0
        },
        "target": null,
        "tokenIcon": {
            "show": true
        },
        "traits": {
            "custom": "",
            "rarity": "common",
            "value": []
        }
    },
    "effects": [],
    "flags": {},
    "img": "systems/pf2e/icons/spells/brand-the-impenitent.webp",
    "name": "Effect: Anoint Ally",
    "type": "effect"
}
