{
    "_id": "KceTcamIZ4ZrQJLD",
    "data": {
        "description": {
            "value": "<p>Granted by using @Compendium[pf2e.feats-srd.Educate Allies]{Educate Allies} on your allies.</p>"
        },
        "duration": {
            "expiry": "turn-start",
            "sustained": false,
            "unit": "rounds",
            "value": 1
        },
        "level": {
            "value": 1
        },
        "rules": [
            {
                "key": "FlatModifier",
                "label": "Well-Versed (vs. performative effects)",
                "predicate": {
                    "any": [
                        "auditory",
                        "illusion",
                        "linguistic",
                        "sonic",
                        "visual"
                    ]
                },
                "selector": "saving-throw",
                "type": "circumstance",
                "value": 2
            }
        ],
        "source": {
            "value": ""
        },
        "start": {
            "initiative": null,
            "value": 0
        },
        "target": null,
        "tokenIcon": {
            "show": true
        },
        "traits": {
            "custom": "",
            "rarity": "common",
            "value": []
        }
    },
    "effects": [],
    "flags": {},
    "img": "systems/pf2e/icons/spells/abyssal-pact.webp",
    "name": "Effect: Educate Allies (Self)",
    "type": "effect"
}
