{
    "_id": "gvCCATlH9mPGWbsp",
    "data": {
        "abilities": {
            "cha": {
                "mod": -2
            },
            "con": {
                "mod": 6
            },
            "dex": {
                "mod": 2
            },
            "int": {
                "mod": -2
            },
            "str": {
                "mod": 5
            },
            "wis": {
                "mod": 0
            }
        },
        "attributes": {
            "ac": {
                "details": "",
                "value": 20
            },
            "allSaves": {
                "value": ""
            },
            "hp": {
                "details": "regeneration 20 (deactivated by acid or fire)",
                "max": 115,
                "temp": 0,
                "value": 115
            },
            "initiative": {
                "ability": "perception"
            },
            "perception": {
                "value": 11
            },
            "speed": {
                "details": "",
                "otherSpeeds": [],
                "value": "30"
            }
        },
        "details": {
            "alignment": {
                "value": "CE"
            },
            "blurb": "",
            "creatureType": "Giant",
            "level": {
                "value": 5
            },
            "privateNotes": "",
            "publicNotes": "<p>Common trolls are dim-witted, gangly giants who stalk the fringes of civilization. They rely on their incredible strength to overpower foes with their vicious claws and toothy maws. A troll's endless hunger drives it to consume all variety of living creatures, and it is their ravenous eating habits that fuel trolls' legendary regenerative abilities. Trolls stand anywhere from 12 to 16 feet tall, though they prefer to hunch for comfort and to lull foes into a false sense of security.</p>\n<hr />\n<p>Slavering, cruel, practically invincible brutes: this is the villager's stock description for the dread monsters known as trolls. But words hardly do justice to trolls' capacity for destruction. They are as bloodthirsty as orcs but lacking the discipline, as massive as giants but capable of regenerating wounded flesh in an instant, and as reprobate as ogres but with twice the strength. The only way to really understand the wanton violence of a troll is to experience it firsthand-a fate few would wish even upon their worst enemies.</p>\n<p>The first thing that comes to mind when most think of trolls is the creatures' power of bodily regeneration. So potent is this regeneration that the only way to overcome it is to exploit the troll's vulnerability to acid and fire. It is not enough to slay the troll with caustic or flaming weapons, though-even the smallest scrap of a troll's flesh can regenerate into a full-size troll given enough time. The only sure way to eradicate a troll menace is to burn the monster's entire body until nothing remains.</p>\n<p>Trolls are solitary hunters, for their wickedness is anathema even to other giants. They occasionally roam in small gangs of two to four, but only when prey is plentiful or a particularly strong counterforce has broached their hunting grounds. In rare instances, an old and powerful troll comes to lead small tribes of trolls. Such \"troll kings\" possess enough cunning to lead their hordes in devastating raids and massacres, and their presence permanently alters the surrounding ecosystem. A wide variety of trolls exist, from the terrible monster traditionally associated with the name to the water-dwelling scrag and hybrid flood troll. Regional variations exist as well-mountain trolls among stony peaks, for instance, or moss trolls in swampy bayous-but all share the same trademark regenerative powers and insatiable thirst for blood.</p>",
            "source": {
                "value": "Pathfinder Bestiary"
            }
        },
        "resources": {},
        "saves": {
            "fortitude": {
                "saveDetail": "",
                "value": 17
            },
            "reflex": {
                "saveDetail": "",
                "value": 11
            },
            "will": {
                "saveDetail": "",
                "value": 7
            }
        },
        "traits": {
            "ci": [],
            "di": {
                "custom": "",
                "value": []
            },
            "dr": [],
            "dv": [
                {
                    "type": "fire",
                    "value": 10
                }
            ],
            "languages": {
                "custom": "",
                "selected": [],
                "value": [
                    "jotun"
                ]
            },
            "rarity": "common",
            "senses": {
                "value": "darkvision"
            },
            "size": {
                "value": "lg"
            },
            "traits": {
                "custom": "",
                "value": [
                    "giant",
                    "troll"
                ]
            }
        }
    },
    "effects": [],
    "flags": {},
    "img": "systems/pf2e/icons/default-icons/npc.svg",
    "items": [
        {
            "_id": "f4rcDncEwu2OdC1a",
            "data": {
                "attack": {
                    "value": ""
                },
                "attackEffects": {
                    "custom": "",
                    "value": []
                },
                "bonus": {
                    "value": 14
                },
                "damageRolls": {
                    "2aqz1foetaojgodwjsl3": {
                        "damage": "2d10+5",
                        "damageType": "piercing"
                    }
                },
                "description": {
                    "value": ""
                },
                "rules": [],
                "slug": null,
                "source": {
                    "value": ""
                },
                "traits": {
                    "custom": "",
                    "rarity": "common",
                    "value": [
                        "reach-10"
                    ]
                },
                "weaponType": {
                    "value": "melee"
                }
            },
            "effects": [],
            "flags": {},
            "img": "systems/pf2e/icons/default-icons/melee.svg",
            "name": "Jaws",
            "sort": 100000,
            "type": "melee"
        },
        {
            "_id": "bA2QzO0CkyheAgub",
            "data": {
                "attack": {
                    "value": ""
                },
                "attackEffects": {
                    "custom": "",
                    "value": []
                },
                "bonus": {
                    "value": 14
                },
                "damageRolls": {
                    "hlbcijz8hmrnhikrzv6m": {
                        "damage": "2d8+5",
                        "damageType": "slashing"
                    }
                },
                "description": {
                    "value": ""
                },
                "rules": [],
                "slug": null,
                "source": {
                    "value": ""
                },
                "traits": {
                    "custom": "",
                    "rarity": "common",
                    "value": [
                        "agile",
                        "reach-10"
                    ]
                },
                "weaponType": {
                    "value": "melee"
                }
            },
            "effects": [],
            "flags": {},
            "img": "systems/pf2e/icons/default-icons/melee.svg",
            "name": "Claw",
            "sort": 200000,
            "type": "melee"
        },
        {
            "_id": "bz1ZQoFYo4soy8jN",
            "data": {
                "actionCategory": {
                    "value": "interaction"
                },
                "actionType": {
                    "value": "passive"
                },
                "actions": {
                    "value": null
                },
                "description": {
                    "value": "<p>@Localize[PF2E.NPC.Abilities.Glossary.Darkvision]</p>"
                },
                "requirements": {
                    "value": ""
                },
                "rules": [],
                "slug": "darkvision",
                "source": {
                    "value": ""
                },
                "traits": {
                    "custom": "",
                    "rarity": "common",
                    "value": []
                },
                "trigger": {
                    "value": ""
                },
                "weapon": {
                    "value": ""
                }
            },
            "effects": [],
            "flags": {
                "core": {
                    "sourceId": "Compendium.pf2e.bestiary-ability-glossary-srd.qCCLZhnp2HhP3Ex6"
                }
            },
            "img": "systems/pf2e/icons/actions/Passive.webp",
            "name": "Darkvision",
            "sort": 300000,
            "type": "action"
        },
        {
            "_id": "50Meu5uWTOPYtMu6",
            "data": {
                "actionCategory": {
                    "value": "defensive"
                },
                "actionType": {
                    "value": "passive"
                },
                "actions": {
                    "value": null
                },
                "description": {
                    "value": "<p>@Localize[PF2E.NPC.Abilities.Glossary.Regeneration]</p>"
                },
                "requirements": {
                    "value": ""
                },
                "rules": [],
                "slug": "regeneration",
                "source": {
                    "value": ""
                },
                "traits": {
                    "custom": "",
                    "rarity": "common",
                    "value": []
                },
                "trigger": {
                    "value": ""
                },
                "weapon": {
                    "value": ""
                }
            },
            "effects": [],
            "flags": {
                "core": {
                    "sourceId": "Compendium.pf2e.bestiary-ability-glossary-srd.lR9R5Vld8Eu2Dha5"
                }
            },
            "img": "systems/pf2e/icons/actions/Passive.webp",
            "name": "Regeneration 20 (Deactivated by Acid or Fire)",
            "sort": 400000,
            "type": "action"
        },
        {
            "_id": "6WolzdmuMWdkmSpl",
            "data": {
                "actionCategory": {
                    "value": "defensive"
                },
                "actionType": {
                    "value": "reaction"
                },
                "actions": {
                    "value": null
                },
                "description": {
                    "value": "<p>@Localize[PF2E.NPC.Abilities.Glossary.AttackOfOpportunity]</p>"
                },
                "requirements": {
                    "value": ""
                },
                "rules": [],
                "slug": "attack-of-opportunity",
                "source": {
                    "value": ""
                },
                "traits": {
                    "custom": "",
                    "rarity": "common",
                    "value": []
                },
                "trigger": {
                    "value": ""
                },
                "weapon": {
                    "value": ""
                }
            },
            "effects": [],
            "flags": {
                "core": {
                    "sourceId": "Compendium.pf2e.bestiary-ability-glossary-srd.hFtNbo1LKYCoDy2O"
                }
            },
            "img": "systems/pf2e/icons/actions/Reaction.webp",
            "name": "Attack of Opportunity",
            "sort": 500000,
            "type": "action"
        },
        {
            "_id": "scw9HnbCVwAyFzok",
            "data": {
                "actionCategory": {
                    "value": "offensive"
                },
                "actionType": {
                    "value": "action"
                },
                "actions": {
                    "value": 1
                },
                "description": {
                    "value": "<p>claw</p>\n<hr />\n<p>@Localize[PF2E.NPC.Abilities.Glossary.Rend]</p>"
                },
                "requirements": {
                    "value": ""
                },
                "rules": [],
                "slug": "rend",
                "source": {
                    "value": ""
                },
                "traits": {
                    "custom": "",
                    "rarity": "common",
                    "value": []
                },
                "trigger": {
                    "value": ""
                },
                "weapon": {
                    "value": ""
                }
            },
            "effects": [],
            "flags": {
                "core": {
                    "sourceId": "Compendium.pf2e.bestiary-ability-glossary-srd.3JOi2cMcGhT3eze1"
                }
            },
            "img": "systems/pf2e/icons/actions/OneAction.webp",
            "name": "Rend",
            "sort": 600000,
            "type": "action"
        },
        {
            "_id": "GF6UeMf4pV1eNW2H",
            "data": {
                "description": {
                    "value": ""
                },
                "item": {
                    "value": 0
                },
                "mod": {
                    "value": 12
                },
                "proficient": {
                    "value": 0
                },
                "rules": [],
                "slug": null,
                "source": {
                    "value": ""
                },
                "traits": {
                    "custom": "",
                    "rarity": "common",
                    "value": []
                }
            },
            "effects": [],
            "flags": {},
            "img": "systems/pf2e/icons/default-icons/lore.svg",
            "name": "Athletics",
            "sort": 700000,
            "type": "lore"
        },
        {
            "_id": "iLKl7VsV3ZdehVEB",
            "data": {
                "description": {
                    "value": ""
                },
                "item": {
                    "value": 0
                },
                "mod": {
                    "value": 12
                },
                "proficient": {
                    "value": 0
                },
                "rules": [],
                "slug": null,
                "source": {
                    "value": ""
                },
                "traits": {
                    "custom": "",
                    "rarity": "common",
                    "value": []
                }
            },
            "effects": [],
            "flags": {},
            "img": "systems/pf2e/icons/default-icons/lore.svg",
            "name": "Intimidation",
            "sort": 800000,
            "type": "lore"
        }
    ],
    "name": "Troll",
    "token": {
        "disposition": -1,
        "height": 2,
        "img": "systems/pf2e/icons/default-icons/npc.svg",
        "name": "Troll",
        "width": 2
    },
    "type": "npc"
}
