{
    "_id": "3OPUMuBQThM5EXjz",
    "data": {
        "abilities": {
            "cha": {
                "mod": 0
            },
            "con": {
                "mod": 4
            },
            "dex": {
                "mod": 2
            },
            "int": {
                "mod": -1
            },
            "str": {
                "mod": 6
            },
            "wis": {
                "mod": 1
            }
        },
        "attributes": {
            "ac": {
                "details": "",
                "value": 23
            },
            "allSaves": {
                "value": ""
            },
            "hp": {
                "details": "",
                "max": 115,
                "temp": 0,
                "value": 115
            },
            "initiative": {
                "ability": "perception"
            },
            "perception": {
                "value": 13
            },
            "speed": {
                "details": "climb on ice only",
                "otherSpeeds": [
                    {
                        "type": "climb",
                        "value": "30"
                    },
                    {
                        "type": "fly",
                        "value": "80"
                    }
                ],
                "value": "30"
            }
        },
        "details": {
            "alignment": {
                "value": "CE"
            },
            "blurb": "",
            "creatureType": "Dragon",
            "level": {
                "value": 6
            },
            "privateNotes": "",
            "publicNotes": "<p>The most feral and least intelligent of all the chromatic dragons, white dragons are brutish, predatory, and chiefly motivated by self-preservation. Nearly all other dragons look down on white dragons as hopelessly hotheaded and dull, though this does not make them any less dangerous-in fact, it may mean the opposite. It's nearly impossible to treat with white dragons, not because they lack the capacity to do so, but because they just don't care to. They are as difficult to deal with as they are quick to anger, and they become incensed at almost anything. When a white dragon does speak, it spews threats, inane jokes, and incoherent babbling as a prelude to attacking-and when the attack comes, it's bloody and relentless.</p>\n<p>Thankfully, white dragons prefer very cold, remote locations that are far from people. Dwelling on glacial mountaintops or in ice caverns beneath forbidding tundra, they treat the lands around them as their own personal hunting grounds. They fly out to feed or terrorize other creatures, especially those who trespass near the dragon's territory, then bring any treasure back to be displayed in icy niches in their lairs. They collect all kinds of valuables, with a slight preference for items with high utility-such as tools, trade goods, and fine food-over coins or jewels. The ability to shape ice lets white dragons rearrange their lairs exactly to their specifications, and they take great pride in how they've decorated their homes over the years.</p>\n<hr />\n<p>While there are many types of dragons, from the powerful planar dragons to the strange esoteric dragons, few dragon varieties are as well-known and as rightly feared as the chromatic dragons. Differentiated by the hue of their scales, each color of dragon unleashes its own flavor of murderous cruelty-be it by claw, tooth, or breath-and unlike most creatures, dragons only become more powerful as they age. Their lust for treasure, food, bloodshed, and control are legendary. Physically powerful with egos to match, these dragons are often morally depraved and act as criminal masterminds, vicious tyrants, or voracious raiders.</p>",
            "source": {
                "value": "Pathfinder Bestiary"
            }
        },
        "resources": {},
        "saves": {
            "fortitude": {
                "saveDetail": "",
                "value": 16
            },
            "reflex": {
                "saveDetail": "",
                "value": 14
            },
            "will": {
                "saveDetail": "",
                "value": 11
            }
        },
        "traits": {
            "ci": [],
            "di": {
                "custom": "",
                "value": [
                    "cold",
                    "paralyzed",
                    "sleep"
                ]
            },
            "dr": [],
            "dv": [
                {
                    "type": "fire",
                    "value": 5
                }
            ],
            "languages": {
                "custom": "",
                "selected": [],
                "value": [
                    "draconic"
                ]
            },
            "rarity": "common",
            "senses": {
                "value": "darkvision, scent (imprecise) 60 feet, snow vision"
            },
            "size": {
                "value": "lg"
            },
            "traits": {
                "custom": "",
                "value": [
                    "cold",
                    "dragon"
                ]
            }
        }
    },
    "effects": [],
    "flags": {},
    "img": "systems/pf2e/icons/default-icons/npc.svg",
    "items": [
        {
            "_id": "MY6hTtpdYnUlbipf",
            "data": {
                "attack": {
                    "value": ""
                },
                "attackEffects": {
                    "custom": "",
                    "value": []
                },
                "bonus": {
                    "value": 17
                },
                "damageRolls": {
                    "do7aphp8fodiv3th0fh0": {
                        "damage": "2d8+9",
                        "damageType": "piercing"
                    },
                    "7flnixuukohka5obhuoe": {
                        "damage": "1d6",
                        "damageType": "cold"
                    }
                },
                "description": {
                    "value": ""
                },
                "rules": [],
                "slug": null,
                "source": {
                    "value": ""
                },
                "traits": {
                    "custom": "",
                    "rarity": "common",
                    "value": [
                        "cold",
                        "reach-10"
                    ]
                },
                "weaponType": {
                    "value": "melee"
                }
            },
            "effects": [],
            "flags": {},
            "img": "systems/pf2e/icons/default-icons/melee.svg",
            "name": "Jaws",
            "sort": 100000,
            "type": "melee"
        },
        {
            "_id": "TLRgHlg3hxjekxoB",
            "data": {
                "attack": {
                    "value": ""
                },
                "attackEffects": {
                    "custom": "",
                    "value": []
                },
                "bonus": {
                    "value": 17
                },
                "damageRolls": {
                    "2381w0wnd94qov8r6wd6": {
                        "damage": "2d6+9",
                        "damageType": "slashing"
                    }
                },
                "description": {
                    "value": ""
                },
                "rules": [],
                "slug": null,
                "source": {
                    "value": ""
                },
                "traits": {
                    "custom": "",
                    "rarity": "common",
                    "value": [
                        "agile"
                    ]
                },
                "weaponType": {
                    "value": "melee"
                }
            },
            "effects": [],
            "flags": {},
            "img": "systems/pf2e/icons/default-icons/melee.svg",
            "name": "Claw",
            "sort": 200000,
            "type": "melee"
        },
        {
            "_id": "j0pCK3mNfxlgQemu",
            "data": {
                "attack": {
                    "value": ""
                },
                "attackEffects": {
                    "custom": "",
                    "value": []
                },
                "bonus": {
                    "value": 15
                },
                "damageRolls": {
                    "fir8q1lrot4w960jxmzs": {
                        "damage": "1d8+8",
                        "damageType": "bludgeoning"
                    }
                },
                "description": {
                    "value": ""
                },
                "rules": [],
                "slug": null,
                "source": {
                    "value": ""
                },
                "traits": {
                    "custom": "",
                    "rarity": "common",
                    "value": [
                        "reach-15"
                    ]
                },
                "weaponType": {
                    "value": "melee"
                }
            },
            "effects": [],
            "flags": {},
            "img": "systems/pf2e/icons/default-icons/melee.svg",
            "name": "Tail",
            "sort": 300000,
            "type": "melee"
        },
        {
            "_id": "f3DzwJJdLBEbrQYp",
            "data": {
                "actionCategory": {
                    "value": "interaction"
                },
                "actionType": {
                    "value": "passive"
                },
                "actions": {
                    "value": null
                },
                "description": {
                    "value": "<p>@Localize[PF2E.NPC.Abilities.Glossary.Darkvision]</p>"
                },
                "requirements": {
                    "value": ""
                },
                "rules": [],
                "slug": "darkvision",
                "source": {
                    "value": ""
                },
                "traits": {
                    "custom": "",
                    "rarity": "common",
                    "value": []
                },
                "trigger": {
                    "value": ""
                },
                "weapon": {
                    "value": ""
                }
            },
            "effects": [],
            "flags": {
                "core": {
                    "sourceId": "Compendium.pf2e.bestiary-ability-glossary-srd.qCCLZhnp2HhP3Ex6"
                }
            },
            "img": "systems/pf2e/icons/actions/Passive.webp",
            "name": "Darkvision",
            "sort": 400000,
            "type": "action"
        },
        {
            "_id": "sG3tFge2ls3X5eek",
            "data": {
                "actionCategory": {
                    "value": "interaction"
                },
                "actionType": {
                    "value": "passive"
                },
                "actions": {
                    "value": null
                },
                "description": {
                    "value": "<p>@Localize[PF2E.NPC.Abilities.Glossary.Scent]</p>"
                },
                "requirements": {
                    "value": ""
                },
                "rules": [],
                "slug": "scent",
                "source": {
                    "value": ""
                },
                "traits": {
                    "custom": "",
                    "rarity": "common",
                    "value": []
                },
                "trigger": {
                    "value": ""
                },
                "weapon": {
                    "value": ""
                }
            },
            "effects": [],
            "flags": {
                "core": {
                    "sourceId": "Compendium.pf2e.bestiary-ability-glossary-srd.rqfnQ5VHT5hxm25r"
                }
            },
            "img": "systems/pf2e/icons/actions/Passive.webp",
            "name": "Scent (Imprecise) 60 feet",
            "sort": 500000,
            "type": "action"
        },
        {
            "_id": "umShxoDTXECH3WCs",
            "data": {
                "actionCategory": {
                    "value": "interaction"
                },
                "actionType": {
                    "value": "passive"
                },
                "actions": {
                    "value": null
                },
                "description": {
                    "value": "<p>Snow doesn't impair a white dragon's vision; it ignores concealment from snowfall.</p>"
                },
                "requirements": {
                    "value": ""
                },
                "rules": [],
                "slug": null,
                "source": {
                    "value": ""
                },
                "traits": {
                    "custom": "",
                    "rarity": "common",
                    "value": []
                },
                "trigger": {
                    "value": ""
                },
                "weapon": {
                    "value": ""
                }
            },
            "effects": [],
            "flags": {},
            "img": "systems/pf2e/icons/actions/Passive.webp",
            "name": "Snow Vision",
            "sort": 600000,
            "type": "action"
        },
        {
            "_id": "k72C42LOvjUNSP6f",
            "data": {
                "actionCategory": {
                    "value": "defensive"
                },
                "actionType": {
                    "value": "reaction"
                },
                "actions": {
                    "value": null
                },
                "description": {
                    "value": "<p data-visibility=\"gm\"><strong>Trigger</strong> An adjacent creature deals piercing or slashing damage to the dragon.</p>\n<p><strong>Effect</strong> The dragon's blood sprays on the creature, dealing [[/r {1d6}[cold]]]{1d6 cold damage}. A creature that takes cold damage in this way is @Compendium[pf2e.conditionitems.Slowed]{Slowed 1} for 1 round.</p>"
                },
                "requirements": {
                    "value": ""
                },
                "rules": [],
                "slug": null,
                "source": {
                    "value": ""
                },
                "traits": {
                    "custom": "",
                    "rarity": "common",
                    "value": [
                        "arcane",
                        "cold"
                    ]
                },
                "trigger": {
                    "value": ""
                },
                "weapon": {
                    "value": ""
                }
            },
            "effects": [],
            "flags": {},
            "img": "systems/pf2e/icons/actions/Reaction.webp",
            "name": "Freezing Blood",
            "sort": 700000,
            "type": "action"
        },
        {
            "_id": "0d64w4IL9e8s6Tft",
            "data": {
                "actionCategory": {
                    "value": "defensive"
                },
                "actionType": {
                    "value": "passive"
                },
                "actions": {
                    "value": null
                },
                "description": {
                    "value": "<p>@Template[type:emanation|distance:90]{90 feet} @Compendium[pf2e.bestiary-ability-glossary-srd.Aura]{Aura} <span data-pf2-check=\"will\" data-pf2-dc=\"20\" data-pf2-traits=\"aura,emotion,fear,mental\" data-pf2-label=\"Frightful Presence DC\" data-pf2-show-dc=\"gm\">Will</span></p>\n<p>@Localize[PF2E.NPC.Abilities.Glossary.FrightfulPresence]</p>"
                },
                "requirements": {
                    "value": ""
                },
                "rules": [],
                "slug": "frightful-presence",
                "source": {
                    "value": ""
                },
                "traits": {
                    "custom": "",
                    "rarity": "common",
                    "value": [
                        "aura",
                        "emotion",
                        "fear",
                        "mental"
                    ]
                },
                "trigger": {
                    "value": ""
                },
                "weapon": {
                    "value": ""
                }
            },
            "effects": [],
            "flags": {
                "core": {
                    "sourceId": "Compendium.pf2e.bestiary-ability-glossary-srd.etMnv73EIdEZrYYu"
                }
            },
            "img": "systems/pf2e/icons/actions/Passive.webp",
            "name": "Frightful Presence",
            "sort": 800000,
            "type": "action"
        },
        {
            "_id": "7CwkOMYGSOhef0ns",
            "data": {
                "actionCategory": {
                    "value": "offensive"
                },
                "actionType": {
                    "value": "action"
                },
                "actions": {
                    "value": 2
                },
                "description": {
                    "value": "<p>The dragon breathes a cloud of frost that deals [[/r {7d6}[cold]]]{7d6 cold damage} in a @Template[type:cone|distance:30]{30-foot cone} (<span data-pf2-check=\"reflex\" data-pf2-dc=\"24\" data-pf2-traits=\"arcane,cold,evocation,damaging-effect\" data-pf2-label=\"Breath Weapon DC\" data-pf2-show-dc=\"gm\">basic Reflex</span> save).</p>\n<p data-visibility=\"gm\">It can't use Breath Weapon again for [[/br 1d4 #Recharge Breath Weapon]]{1d4 rounds}.</p>"
                },
                "requirements": {
                    "value": ""
                },
                "rules": [],
                "slug": null,
                "source": {
                    "value": ""
                },
                "traits": {
                    "custom": "",
                    "rarity": "common",
                    "value": [
                        "arcane",
                        "cold",
                        "evocation"
                    ]
                },
                "trigger": {
                    "value": ""
                },
                "weapon": {
                    "value": ""
                }
            },
            "effects": [],
            "flags": {},
            "img": "systems/pf2e/icons/actions/TwoActions.webp",
            "name": "Breath Weapon",
            "sort": 900000,
            "type": "action"
        },
        {
            "_id": "LPgRXjxPg5sOcWEv",
            "data": {
                "actionCategory": {
                    "value": "offensive"
                },
                "actionType": {
                    "value": "action"
                },
                "actions": {
                    "value": 2
                },
                "description": {
                    "value": "<p>The dragon makes two claw Strikes and one tail Strike in any orde</p>"
                },
                "requirements": {
                    "value": ""
                },
                "rules": [],
                "slug": null,
                "source": {
                    "value": ""
                },
                "traits": {
                    "custom": "",
                    "rarity": "common",
                    "value": []
                },
                "trigger": {
                    "value": ""
                },
                "weapon": {
                    "value": ""
                }
            },
            "effects": [],
            "flags": {},
            "img": "systems/pf2e/icons/actions/TwoActions.webp",
            "name": "Draconic Frenzy",
            "sort": 1000000,
            "type": "action"
        },
        {
            "_id": "QbCC0DUye0oVFVc4",
            "data": {
                "actionCategory": {
                    "value": "offensive"
                },
                "actionType": {
                    "value": "passive"
                },
                "actions": {
                    "value": null
                },
                "description": {
                    "value": "<p>When the dragon scores a critical hit with a Strike, it recharges its Breath Weapon.</p>"
                },
                "requirements": {
                    "value": ""
                },
                "rules": [],
                "slug": null,
                "source": {
                    "value": ""
                },
                "traits": {
                    "custom": "",
                    "rarity": "common",
                    "value": []
                },
                "trigger": {
                    "value": ""
                },
                "weapon": {
                    "value": ""
                }
            },
            "effects": [],
            "flags": {},
            "img": "systems/pf2e/icons/actions/Passive.webp",
            "name": "Draconic Momentum",
            "sort": 1100000,
            "type": "action"
        },
        {
            "_id": "SFJ6XAQzgQGC5zVV",
            "data": {
                "actionCategory": {
                    "value": "offensive"
                },
                "actionType": {
                    "value": "action"
                },
                "actions": {
                    "value": 1
                },
                "description": {
                    "value": "<p>The dragon slams into the ground. It can do this if it's on the ground or Flying within 10 feet of the ground. Each creature on the ground within @Template[type:emanation|distance:10]{10 feet} must succeed at a <span data-pf2-check=\"reflex\" data-pf2-dc=\"24\" data-pf2-traits=\"damaging-effect\" data-pf2-label=\"Ground Slam DC\" data-pf2-show-dc=\"gm\">Reflex</span> save<span data-visibility=\"gm\"> or fall @Compendium[pf2e.conditionitems.Prone]{Prone} and take [[/r {2d6}[bludgeoning]]]{2d6 bludgeoning damage}</span>.</p>\n<p data-visibility=\"gm\">The dragon can then Step.</p>"
                },
                "requirements": {
                    "value": ""
                },
                "rules": [],
                "slug": null,
                "source": {
                    "value": ""
                },
                "traits": {
                    "custom": "",
                    "rarity": "common",
                    "value": []
                },
                "trigger": {
                    "value": ""
                },
                "weapon": {
                    "value": ""
                }
            },
            "effects": [],
            "flags": {},
            "img": "systems/pf2e/icons/actions/OneAction.webp",
            "name": "Ground Slam",
            "sort": 1200000,
            "type": "action"
        },
        {
            "_id": "1yMkzmd8oyagICBZ",
            "data": {
                "actionCategory": {
                    "value": "offensive"
                },
                "actionType": {
                    "value": "passive"
                },
                "actions": {
                    "value": null
                },
                "description": {
                    "value": "<p>A white dragon can climb on ice as though it had the listed climb Speed. It ignores difficult terrain and greater difficult terrain from ice and snow and doesn't risk falling when crossing ice.</p>"
                },
                "requirements": {
                    "value": ""
                },
                "rules": [],
                "slug": null,
                "source": {
                    "value": ""
                },
                "traits": {
                    "custom": "",
                    "rarity": "common",
                    "value": []
                },
                "trigger": {
                    "value": ""
                },
                "weapon": {
                    "value": ""
                }
            },
            "effects": [],
            "flags": {},
            "img": "systems/pf2e/icons/actions/Passive.webp",
            "name": "Ice Climb",
            "sort": 1300000,
            "type": "action"
        },
        {
            "_id": "BF9LWkoQrDrBUzhl",
            "data": {
                "actionCategory": {
                    "value": "offensive"
                },
                "actionType": {
                    "value": "action"
                },
                "actions": {
                    "value": 2
                },
                "description": {
                    "value": "<p>The dragon reshapes a cube of ice or snow it touches, up to 10 feet across. Any creature standing atop the ice must succeed at a <span data-pf2-check=\"reflex\" data-pf2-dc=\"15\" data-pf2-traits=\"arcane,transmutation,water\" data-pf2-label=\"Shape Ice DC\" data-pf2-show-dc=\"gm\">Reflex</span> save or <span data-pf2-check=\"acrobatics\" data-pf2-dc=\"15\" data-pf2-traits=\"arcane,transmutation,water\" data-pf2-label=\"Shape Ice DC\" data-pf2-show-dc=\"gm\">Acrobatics</span> check.</p>\n<p data-visibility=\"gm\">On a failure, the creature falls @Compendium[pf2e.conditionitems.Prone]{Prone} atop the ice; on a critical failure, it falls off the ice entirely and is also prone.</p>"
                },
                "requirements": {
                    "value": ""
                },
                "rules": [],
                "slug": null,
                "source": {
                    "value": ""
                },
                "traits": {
                    "custom": "",
                    "rarity": "common",
                    "value": [
                        "arcane",
                        "transmutation",
                        "water"
                    ]
                },
                "trigger": {
                    "value": ""
                },
                "weapon": {
                    "value": ""
                }
            },
            "effects": [],
            "flags": {},
            "img": "systems/pf2e/icons/actions/TwoActions.webp",
            "name": "Shape Ice",
            "sort": 1400000,
            "type": "action"
        },
        {
            "_id": "AP3a3Y476zEiI8WF",
            "data": {
                "description": {
                    "value": ""
                },
                "item": {
                    "value": 0
                },
                "mod": {
                    "value": 10
                },
                "proficient": {
                    "value": 0
                },
                "rules": [],
                "slug": null,
                "source": {
                    "value": ""
                },
                "traits": {
                    "custom": "",
                    "rarity": "common",
                    "value": []
                }
            },
            "effects": [],
            "flags": {},
            "img": "systems/pf2e/icons/default-icons/lore.svg",
            "name": "Acrobatics",
            "sort": 1500000,
            "type": "lore"
        },
        {
            "_id": "36GFa2DJohvZsFPt",
            "data": {
                "description": {
                    "value": ""
                },
                "item": {
                    "value": 0
                },
                "mod": {
                    "value": 7
                },
                "proficient": {
                    "value": 0
                },
                "rules": [],
                "slug": null,
                "source": {
                    "value": ""
                },
                "traits": {
                    "custom": "",
                    "rarity": "common",
                    "value": []
                }
            },
            "effects": [],
            "flags": {},
            "img": "systems/pf2e/icons/default-icons/lore.svg",
            "name": "Arcana",
            "sort": 1600000,
            "type": "lore"
        },
        {
            "_id": "fGOmnuMJg5UybqN6",
            "data": {
                "description": {
                    "value": ""
                },
                "item": {
                    "value": 0
                },
                "mod": {
                    "value": 16
                },
                "proficient": {
                    "value": 0
                },
                "rules": [],
                "slug": null,
                "source": {
                    "value": ""
                },
                "traits": {
                    "custom": "",
                    "rarity": "common",
                    "value": []
                }
            },
            "effects": [],
            "flags": {},
            "img": "systems/pf2e/icons/default-icons/lore.svg",
            "name": "Athletics",
            "sort": 1700000,
            "type": "lore"
        },
        {
            "_id": "wFR8jEuHf7OIo6MZ",
            "data": {
                "description": {
                    "value": ""
                },
                "item": {
                    "value": 0
                },
                "mod": {
                    "value": 12
                },
                "proficient": {
                    "value": 0
                },
                "rules": [],
                "slug": null,
                "source": {
                    "value": ""
                },
                "traits": {
                    "custom": "",
                    "rarity": "common",
                    "value": []
                }
            },
            "effects": [],
            "flags": {},
            "img": "systems/pf2e/icons/default-icons/lore.svg",
            "name": "Intimidation",
            "sort": 1800000,
            "type": "lore"
        },
        {
            "_id": "DLXBN5xlrS6m6g51",
            "data": {
                "description": {
                    "value": ""
                },
                "item": {
                    "value": 0
                },
                "mod": {
                    "value": 14
                },
                "proficient": {
                    "value": 0
                },
                "rules": [],
                "slug": null,
                "source": {
                    "value": ""
                },
                "traits": {
                    "custom": "",
                    "rarity": "common",
                    "value": []
                }
            },
            "effects": [],
            "flags": {},
            "img": "systems/pf2e/icons/default-icons/lore.svg",
            "name": "Stealth",
            "sort": 1900000,
            "type": "lore"
        }
    ],
    "name": "Young White Dragon",
    "token": {
        "disposition": -1,
        "height": 2,
        "img": "systems/pf2e/icons/default-icons/npc.svg",
        "name": "Young White Dragon",
        "width": 2
    },
    "type": "npc"
}
