{
    "_id": "wPIGBcpCqCWgrCiq",
    "data": {
        "badge": null,
        "description": {
            "value": "<p>The creature gains a +4 status bonus to damage rolls.</p>"
        },
        "duration": {
            "expiry": "turn-start",
            "sustained": false,
            "unit": "minutes",
            "value": 1
        },
        "level": {
            "value": 1
        },
        "rules": [
            {
                "key": "FlatModifier",
                "selector": "damage",
                "type": "status",
                "value": 4
            }
        ],
        "source": {
            "value": "Pathfinder Bestiary"
        },
        "start": {
            "initiative": null,
            "value": 0
        },
        "target": null,
        "tokenIcon": {
            "show": true
        },
        "traits": {
            "custom": "",
            "rarity": "common",
            "value": []
        }
    },
    "effects": [],
    "flags": {},
    "img": "systems/pf2e/icons/spells/blood-ward.webp",
    "name": "Effect: Blood Soak",
    "type": "effect"
}
