{
    "_id": "FISKjI7bal26AnyL",
    "data": {
        "description": {
            "value": "<p>The sage gives the ally a savvy piece of advice, providing valuable insight. The ally gains a +2 circumstance bonus to the triggering roll.</p>"
        },
        "duration": {
            "expiry": "turn-start",
            "sustained": false,
            "unit": "unlimited",
            "value": -1
        },
        "level": {
            "value": 1
        },
        "rules": [
            {
                "key": "FlatModifier",
                "selector": "attack",
                "type": "circumstance",
                "value": 2
            },
            {
                "key": "FlatModifier",
                "selector": "skill-check",
                "type": "circumstance",
                "value": 2
            }
        ],
        "source": {
            "value": "Pathfinder Gamemastery Guide"
        },
        "start": {
            "initiative": null,
            "value": 0
        },
        "target": null,
        "tokenIcon": {
            "show": true
        },
        "traits": {
            "custom": "",
            "rarity": "common",
            "value": []
        }
    },
    "effects": [],
    "flags": {},
    "img": "systems/pf2e/icons/spells/artistic-flourish.webp",
    "name": "Effect: Timely Advice",
    "type": "effect"
}
