{
    "_id": "F39gVP1gj2NVWgLD",
    "content": "<p>Play during your turn.</p>\n<hr />\n<p>Until the start of your next turn you gain a +2 status bonus to checks based on the key ability score of your class. If your class grants a choice for its key ability, select one of those ability scores to gain the bonus.</p>",
    "flags": {},
    "name": "Class Might",
    "permission": {
        "default": 0
    }
}
