{
    "_id": "7Nk3WehdHLrgwnBZ",
    "content": "<p>Play at any time.</p>\n<hr />\n<p>Select a creature within sight. That creature is immune to misfortune effects for 1 round. If the creature was already affected by a misfortune effect, it ignores that effect for the duration, then the effect returns.</p>",
    "flags": {},
    "name": "Warding Sign",
    "permission": {
        "default": 0
    }
}
