{
    "_id": "VNlJ7zPnOPThFEmR",
    "data": {
        "attributes": {
            "ac": {
                "check": 0,
                "details": "",
                "value": 28
            },
            "collisionDC": {
                "value": 30
            },
            "collisionDamage": {
                "value": "9d10"
            },
            "hardness": 20,
            "hp": {
                "brokenThreshold": 5,
                "details": "",
                "max": 210,
                "temp": 0,
                "value": 210
            }
        },
        "customModifiers": {},
        "details": {
            "AC": 0,
            "crew": "1 pilot, 5 other crew",
            "description": "",
            "level": {
                "value": 12
            },
            "passengers": "15",
            "pilotingCheck": "Arcana (DC 32), Crafting (DC 32), Nature (DC 32), or Piloting Lore (DC 30)",
            "price": "6000",
            "space": {
                "high": 60,
                "long": 90,
                "wide": 30
            },
            "speed": "fly 50 feet (alchemical, magical)"
        },
        "saves": {
            "fortitude": {
                "item": 0,
                "rank": 0,
                "saveDetail": "",
                "value": 22
            }
        },
        "source": {
            "value": "Pathfinder Gamemastery Guide"
        },
        "traits": {
            "ci": [],
            "di": {
                "custom": "",
                "value": [
                    "critical-hits",
                    "object-immunities",
                    "precision"
                ]
            },
            "dr": [],
            "dv": [
                {
                    "label": "Fire",
                    "type": "fire",
                    "value": "15"
                }
            ],
            "rarity": "rare",
            "size": {
                "value": "grg"
            },
            "traits": {
                "custom": "",
                "value": []
            }
        }
    },
    "effects": [],
    "flags": {},
    "img": "systems/pf2e/icons/default-icons/vehicle.svg",
    "items": [
        {
            "_id": "zGMODH6r1X3ZbwB1",
            "data": {
                "actionCategory": {
                    "value": "interaction"
                },
                "actionType": {
                    "value": "passive"
                },
                "actions": {
                    "value": null
                },
                "description": {
                    "value": "<p>This vehicle must move twice its length for each 90-degree turn it makes.</p>"
                },
                "requirements": {
                    "value": ""
                },
                "rules": [],
                "slug": null,
                "source": {
                    "value": ""
                },
                "traits": {
                    "custom": "",
                    "rarity": "common",
                    "value": []
                },
                "trigger": {
                    "value": ""
                },
                "weapon": {
                    "value": ""
                }
            },
            "effects": [],
            "flags": {},
            "img": "systems/pf2e/icons/actions/Passive.webp",
            "name": "Sluggish",
            "sort": 0,
            "type": "action"
        }
    ],
    "name": "Airship",
    "token": {
        "disposition": 0,
        "height": 18,
        "img": "systems/pf2e/icons/default-icons/vehicle.svg",
        "name": "Airship",
        "width": 6
    },
    "type": "vehicle"
}
