{
    "_id": "vbJL4dPQcXfYigwv",
    "data": {
        "attributes": {
            "ac": {
                "check": 0,
                "details": "",
                "value": 25
            },
            "collisionDC": {
                "value": 27
            },
            "collisionDamage": {
                "value": "7d10"
            },
            "hardness": 15,
            "hp": {
                "brokenThreshold": 5,
                "details": "",
                "max": 160,
                "temp": 0,
                "value": 160
            }
        },
        "details": {
            "AC": 0,
            "crew": "1 pilot",
            "description": "",
            "level": {
                "value": 10
            },
            "passengers": "3",
            "pilotingCheck": "Arcana (DC 29), Nature (DC 29 to 37, depending on pulling creature), or Piloting Lore (DC 27)",
            "price": "3000",
            "space": {
                "high": 8,
                "long": 10,
                "wide": 20
            },
            "speed": "the fly Speed of the slowest pulling creature (pulled by 4 Large creatures, 2 Huge creatures, or 1 Gargantuan creature)"
        },
        "saves": {
            "fortitude": {
                "item": 0,
                "rank": 0,
                "saveDetail": "",
                "value": 19
            }
        },
        "source": {
            "value": "Pathfinder #167: Ready? Fight!"
        },
        "traits": {
            "ci": [],
            "di": {
                "custom": "",
                "value": [
                    "critical-hits",
                    "object-immunities",
                    "precision"
                ]
            },
            "dr": [],
            "dv": [],
            "rarity": "uncommon",
            "size": {
                "value": "lg"
            },
            "traits": {
                "custom": "",
                "value": []
            }
        }
    },
    "effects": [],
    "flags": {},
    "img": "systems/pf2e/icons/default-icons/vehicle.svg",
    "items": [],
    "name": "Sky Chariot, Medium",
    "token": {
        "disposition": 0,
        "height": 2,
        "img": "systems/pf2e/icons/default-icons/vehicle.svg",
        "name": "Sky Chariot, Medium",
        "width": 4
    },
    "type": "vehicle"
}
