{
    "_id": "tVBApIWuwKNwOics",
    "data": {
        "attributes": {
            "ac": {
                "check": 0,
                "details": "",
                "value": 33
            },
            "collisionDC": {
                "value": 29
            },
            "collisionDamage": {
                "value": "10d10"
            },
            "hardness": 20,
            "hp": {
                "brokenThreshold": 5,
                "details": "",
                "max": 200,
                "temp": 0,
                "value": 200
            }
        },
        "details": {
            "AC": 0,
            "crew": "1 pilot, 3 crew",
            "description": "",
            "level": {
                "value": 14
            },
            "passengers": "4",
            "pilotingCheck": "Driving Lore (DC 32) or Crafting (DC 34)",
            "price": "12500",
            "space": {
                "high": 25,
                "long": 20,
                "wide": 20
            },
            "speed": "20 feet (alchemical)"
        },
        "saves": {
            "fortitude": {
                "item": 0,
                "rank": 0,
                "saveDetail": "",
                "value": 28
            }
        },
        "source": {
            "value": "Pathfinder Gamemastery Guide"
        },
        "traits": {
            "ci": [],
            "di": {
                "custom": "",
                "value": [
                    "critical-hits",
                    "object-immunities",
                    "precision"
                ]
            },
            "dr": [],
            "dv": [],
            "rarity": "rare",
            "size": {
                "value": "huge"
            },
            "traits": {
                "custom": "",
                "value": []
            }
        }
    },
    "effects": [],
    "flags": {},
    "img": "systems/pf2e/icons/default-icons/vehicle.svg",
    "items": [
        {
            "_id": "Rb4MyOLlodPUZdJX",
            "data": {
                "actionCategory": {
                    "value": "offensive"
                },
                "actionType": {
                    "value": "action"
                },
                "actions": {
                    "value": 3
                },
                "description": {
                    "value": "<p>Two crew members each perform a 3-action activity on their turn to produce a gout of flames that erupts at the end of the second character's turn from any corner of any space the steam giant occupies. The flames deal [[/r {6d8}[fire]]]{6d8 fire damage} to each creature in a 30-foot cone (<span data-pf2-check=\"reflex\" data-pf2-traits=\"damaging-effect\" data-pf2-label=\"Flame Jet DC\" data-pf2-dc=\"32\" data-pf2-show-dc=\"gm\">basic Reflex</span> save). The flame jet stops working if the steam giant is broken.</p>"
                },
                "requirements": {
                    "value": ""
                },
                "rules": [],
                "slug": null,
                "source": {
                    "value": ""
                },
                "traits": {
                    "custom": "",
                    "rarity": "common",
                    "value": [
                        "fire"
                    ]
                },
                "trigger": {
                    "value": ""
                },
                "weapon": {
                    "value": ""
                }
            },
            "effects": [],
            "flags": {},
            "img": "systems/pf2e/icons/actions/ThreeActions.webp",
            "name": "Flame Jet",
            "sort": 0,
            "type": "action"
        }
    ],
    "name": "Steam Giant",
    "token": {
        "disposition": 0,
        "height": 4,
        "img": "systems/pf2e/icons/default-icons/vehicle.svg",
        "name": "Steam Giant",
        "width": 4
    },
    "type": "vehicle"
}
