{
    "_id": "WsfgcVXqqmk1EVRY",
    "data": {
        "attributes": {
            "ac": {
                "check": 0,
                "details": "",
                "value": 11
            },
            "collisionDC": {
                "value": 15
            },
            "collisionDamage": {
                "value": "1d8"
            },
            "hardness": 5,
            "hp": {
                "brokenThreshold": 5,
                "details": "",
                "max": 15,
                "temp": 0,
                "value": 15
            }
        },
        "details": {
            "AC": 0,
            "crew": "1 pilot",
            "description": "",
            "level": {
                "value": 1
            },
            "passengers": "0",
            "pilotingCheck": "Athletics (DC 15) or Piloting Lore (DC 17)",
            "price": 60,
            "space": {
                "high": 4,
                "long": 5,
                "wide": 2
            },
            "speed": "The Speed of the pilot (pedaled [as rowed])"
        },
        "saves": {
            "fortitude": {
                "item": 0,
                "rank": 0,
                "saveDetail": "",
                "value": 6
            }
        },
        "source": {
            "value": "Pathfinder Lost Omens: The Grand Bazaar"
        },
        "traits": {
            "ci": [],
            "di": {
                "custom": "",
                "value": [
                    "object-immunities"
                ]
            },
            "dr": [],
            "dv": [],
            "rarity": "uncommon",
            "size": {
                "value": "med"
            },
            "traits": {
                "custom": "",
                "value": []
            }
        }
    },
    "effects": [],
    "flags": {},
    "img": "systems/pf2e/icons/default-icons/vehicle.svg",
    "items": [
        {
            "_id": "QwXzg5zGAZg4h78t",
            "data": {
                "actionCategory": {
                    "value": ""
                },
                "actionType": {
                    "value": "passive"
                },
                "actions": {
                    "value": null
                },
                "description": {
                    "value": "<p>Driving the velocipede over difficult terrain increases the DC by an additional 2 and gains the reckless trait.</p>"
                },
                "requirements": {
                    "value": ""
                },
                "rules": [],
                "slug": null,
                "source": {
                    "value": ""
                },
                "traits": {
                    "custom": "",
                    "rarity": "common",
                    "value": []
                },
                "trigger": {
                    "value": ""
                }
            },
            "effects": [],
            "flags": {},
            "img": "systems/pf2e/icons/actions/Passive.webp",
            "name": "Fragile",
            "sort": 0,
            "type": "action"
        },
        {
            "_id": "PcXltLxBnG3FD8dH",
            "data": {
                "actionCategory": {
                    "value": ""
                },
                "actionType": {
                    "value": "passive"
                },
                "actions": {
                    "value": null
                },
                "description": {
                    "value": "<p>The velocipede can be pulled along the ground on its wheel by a Medium creature. The creature is encumbered when doing so.</p>"
                },
                "requirements": {
                    "value": ""
                },
                "rules": [],
                "slug": null,
                "source": {
                    "value": ""
                },
                "traits": {
                    "custom": "",
                    "rarity": "common",
                    "value": []
                },
                "trigger": {
                    "value": ""
                }
            },
            "effects": [],
            "flags": {},
            "img": "systems/pf2e/icons/actions/Passive.webp",
            "name": "Portable",
            "sort": 0,
            "type": "action"
        }
    ],
    "name": "Velocipede",
    "token": {
        "disposition": 0,
        "height": 1,
        "img": "systems/pf2e/icons/default-icons/vehicle.svg",
        "name": "Velocipede",
        "width": 1
    },
    "type": "vehicle"
}
