{
    "_id": "OTTvIkBvJ2ABYwEd",
    "data": {
        "attributes": {
            "ac": {
                "value": 0
            },
            "hardness": 0,
            "hasHealth": true,
            "hp": {
                "details": "",
                "max": 10,
                "temp": 0,
                "value": 10
            },
            "stealth": {
                "details": "<p>(trained) to hear the whispers from a distance</p>",
                "value": 13
            }
        },
        "creatureType": "",
        "details": {
            "description": "<p>Lost spirits whisper, reliving their last moments, ready to drag the living into their illusion.</p>",
            "disable": "<p>Religion DC 19 (trained) to suppress the spirits or Performance DC 19 (trained) to drown them out</p>",
            "isComplex": false,
            "level": {
                "value": 2
            },
            "reset": "<p>The underlying spirits remain, resetting the haunt every midnight, until what truly happened here becomes public.</p>",
            "routine": ""
        },
        "saves": {
            "fortitude": {
                "saveDetail": "",
                "value": 0
            },
            "reflex": {
                "saveDetail": "",
                "value": 0
            },
            "will": {
                "saveDetail": "",
                "value": 0
            }
        },
        "source": {
            "value": ""
        },
        "statusEffects": [],
        "traits": {
            "ci": [],
            "di": {
                "custom": "",
                "selected": {},
                "value": []
            },
            "dr": [],
            "dv": [],
            "rarity": "common",
            "size": {
                "value": "med"
            },
            "traits": {
                "custom": "",
                "value": [
                    "haunt"
                ]
            }
        }
    },
    "effects": [],
    "flags": {},
    "img": "systems/pf2e/icons/default-icons/hazard.svg",
    "items": [
        {
            "_id": "OB6Sk8RVPAlxupET",
            "data": {
                "actionCategory": {
                    "value": "interaction"
                },
                "actionType": {
                    "value": "reaction"
                },
                "actions": {
                    "value": null
                },
                "description": {
                    "value": "<p data-visibility=\"gm\"><strong>Trigger</strong> Multiple creatures remain in area <strong>C4</strong> for more than 6 seconds.</p>\n<p><strong>Effect</strong> The whispers become more insistent until each character in the room must attempt a <span data-pf2-check=\"will\" data-pf2-traits=\"auditory,divine,emotion,enchantment,mental\" data-pf2-label=\"Luring Whispers DC\" data-pf2-dc=\"21\" data-pf2-show-dc=\"gm\">Will</span> save.</p>\n<p>On a failure, a creature is @Compendium[pf2e.conditionitems.Confused]{Confused} for 1 round (or for [[/br 1d4+2 #rounds]]{1d4+2 rounds} on a critical failure). Both the audible whispers and the babbling of the confused are related to the haunting's origin.</p>\n<table class=\"pf2-table\">\n<thead>\n<tr>\n<th>Owners</th>\n<th>Whispers and Babbles</th>\n</tr>\n</thead>\n<tbody>\n<tr>\n<td>Archdevil worshippers</td>\n<td>Desperate praise of Mephistopheles</td>\n</tr>\n<tr>\n<td>Soulbound dollmakers</td>\n<td>Pleading \"don't make me go in the doll again\"</td>\n</tr>\n<tr>\n<td>Alchemical experimenters</td>\n<td>Frantic claims of not wanting to live forever anymore</td>\n</tr>\n<tr>\n<td>Slavers</td>\n<td>Begging to be allowed to be released in multiple languages</td>\n</tr>\n<tr>\n<td>Crime lords</td>\n<td>Promising not to mess with the family again</td>\n</tr>\n<tr>\n<td>Misguided Pharasmins</td>\n<td>Sighing desires to be put to rest</td>\n</tr>\n</tbody>\n</table>"
                },
                "requirements": {
                    "value": ""
                },
                "rules": [],
                "slug": null,
                "source": {
                    "value": ""
                },
                "traits": {
                    "custom": "",
                    "rarity": "common",
                    "value": [
                        "mental",
                        "auditory",
                        "divine",
                        "emotion",
                        "enchantment"
                    ]
                },
                "trigger": {
                    "value": ""
                },
                "weapon": {
                    "value": ""
                }
            },
            "effects": [],
            "flags": {},
            "img": "systems/pf2e/icons/actions/Reaction.webp",
            "name": "Luring Whispers",
            "sort": 100000,
            "type": "action"
        }
    ],
    "name": "Whispering Souls",
    "token": {
        "disposition": 0,
        "height": 1,
        "img": "systems/pf2e/icons/default-icons/hazard.svg",
        "name": "Whispering Spirits (Copy)",
        "width": 1
    },
    "type": "hazard"
}
